%!PS-Adobe-3.0 EPSF-3.0
%%Creator: (MATLAB, The Mathworks, Inc. Version 9.0.0.341360 \(R2016a\). Operating System: Linux)
%%Title: data/fact1logtolPg.eps
%%CreationDate: 2017-02-04T13:38:33
%%Pages: (atend)
%%BoundingBox:     1     6   397   316
%%LanguageLevel: 3
%%EndComments
%%BeginProlog
%%BeginResource: procset (Apache XML Graphics Std ProcSet) 1.2 0
%%Version: 1.2 0
%%Copyright: (Copyright 2001-2003,2010 The Apache Software Foundation. License terms: http://www.apache.org/licenses/LICENSE-2.0)
/bd{bind def}bind def
/ld{load def}bd
/GR/grestore ld
/M/moveto ld
/LJ/setlinejoin ld
/C/curveto ld
/f/fill ld
/LW/setlinewidth ld
/GC/setgray ld
/t/show ld
/N/newpath ld
/CT/concat ld
/cp/closepath ld
/S/stroke ld
/L/lineto ld
/CC/setcmykcolor ld
/A/ashow ld
/GS/gsave ld
/RC/setrgbcolor ld
/RM/rmoveto ld
/ML/setmiterlimit ld
/re {4 2 roll M
1 index 0 rlineto
0 exch rlineto
neg 0 rlineto
cp } bd
/_ctm matrix def
/_tm matrix def
/BT { _ctm currentmatrix pop matrix _tm copy pop 0 0 moveto } bd
/ET { _ctm setmatrix } bd
/iTm { _ctm setmatrix _tm concat } bd
/Tm { _tm astore pop iTm 0 0 moveto } bd
/ux 0.0 def
/uy 0.0 def
/F {
  /Tp exch def
  /Tf exch def
  Tf findfont Tp scalefont setfont
  /cf Tf def  /cs Tp def
} bd
/ULS {currentpoint /uy exch def /ux exch def} bd
/ULE {
  /Tcx currentpoint pop def
  gsave
  newpath
  cf findfont cs scalefont dup
  /FontMatrix get 0 get /Ts exch def /FontInfo get dup
  /UnderlinePosition get Ts mul /To exch def
  /UnderlineThickness get Ts mul /Tt exch def
  ux uy To add moveto  Tcx uy To add lineto
  Tt setlinewidth stroke
  grestore
} bd
/OLE {
  /Tcx currentpoint pop def
  gsave
  newpath
  cf findfont cs scalefont dup
  /FontMatrix get 0 get /Ts exch def /FontInfo get dup
  /UnderlinePosition get Ts mul /To exch def
  /UnderlineThickness get Ts mul /Tt exch def
  ux uy To add cs add moveto Tcx uy To add cs add lineto
  Tt setlinewidth stroke
  grestore
} bd
/SOE {
  /Tcx currentpoint pop def
  gsave
  newpath
  cf findfont cs scalefont dup
  /FontMatrix get 0 get /Ts exch def /FontInfo get dup
  /UnderlinePosition get Ts mul /To exch def
  /UnderlineThickness get Ts mul /Tt exch def
  ux uy To add cs 10 mul 26 idiv add moveto Tcx uy To add cs 10 mul 26 idiv add lineto
  Tt setlinewidth stroke
  grestore
} bd
/QT {
/Y22 exch store
/X22 exch store
/Y21 exch store
/X21 exch store
currentpoint
/Y21 load 2 mul add 3 div exch
/X21 load 2 mul add 3 div exch
/X21 load 2 mul /X22 load add 3 div
/Y21 load 2 mul /Y22 load add 3 div
/X22 load /Y22 load curveto
} bd
/SSPD {
dup length /d exch dict def
{
/v exch def
/k exch def
currentpagedevice k known {
/cpdv currentpagedevice k get def
v cpdv ne {
/upd false def
/nullv v type /nulltype eq def
/nullcpdv cpdv type /nulltype eq def
nullv nullcpdv or
{
/upd true def
} {
/sametype v type cpdv type eq def
sametype {
v type /arraytype eq {
/vlen v length def
/cpdvlen cpdv length def
vlen cpdvlen eq {
0 1 vlen 1 sub {
/i exch def
/obj v i get def
/cpdobj cpdv i get def
obj cpdobj ne {
/upd true def
exit
} if
} for
} {
/upd true def
} ifelse
} {
v type /dicttype eq {
v {
/dv exch def
/dk exch def
/cpddv cpdv dk get def
dv cpddv ne {
/upd true def
exit
} if
} forall
} {
/upd true def
} ifelse
} ifelse
} if
} ifelse
upd true eq {
d k v put
} if
} if
} if
} forall
d length 0 gt {
d setpagedevice
} if
} bd
%%EndResource
%%BeginResource: procset (Apache XML Graphics EPS ProcSet) 1.0 0
%%Version: 1.0 0
%%Copyright: (Copyright 2002-2003 The Apache Software Foundation. License terms: http://www.apache.org/licenses/LICENSE-2.0)
/BeginEPSF { %def
/b4_Inc_state save def         % Save state for cleanup
/dict_count countdictstack def % Count objects on dict stack
/op_count count 1 sub def      % Count objects on operand stack
userdict begin                 % Push userdict on dict stack
/showpage { } def              % Redefine showpage, { } = null proc
0 setgray 0 setlinecap         % Prepare graphics state
1 setlinewidth 0 setlinejoin
10 setmiterlimit [ ] 0 setdash newpath
/languagelevel where           % If level not equal to 1 then
{pop languagelevel             % set strokeadjust and
1 ne                           % overprint to their defaults.
{false setstrokeadjust false setoverprint
} if
} if
} bd
/EndEPSF { %def
count op_count sub {pop} repeat            % Clean up stacks
countdictstack dict_count sub {end} repeat
b4_Inc_state restore
} bd
%%EndResource
%FOPBeginFontDict
%%IncludeResource: font Courier-Bold
%%IncludeResource: font Helvetica
%%IncludeResource: font Courier-BoldOblique
%%IncludeResource: font Courier-Oblique
%%IncludeResource: font Times-Roman
%%IncludeResource: font Helvetica-BoldOblique
%%IncludeResource: font Helvetica-Bold
%%IncludeResource: font Helvetica-Oblique
%%IncludeResource: font Times-BoldItalic
%%IncludeResource: font Courier
%%IncludeResource: font Times-Italic
%%IncludeResource: font Times-Bold
%%IncludeResource: font Symbol
%%IncludeResource: font ZapfDingbats
%FOPEndFontDict
%%BeginResource: encoding WinAnsiEncoding
/WinAnsiEncoding [
/.notdef /.notdef /.notdef /.notdef /.notdef
/.notdef /.notdef /.notdef /.notdef /.notdef
/.notdef /.notdef /.notdef /.notdef /.notdef
/.notdef /.notdef /.notdef /.notdef /.notdef
/.notdef /.notdef /.notdef /.notdef /.notdef
/.notdef /.notdef /.notdef /.notdef /.notdef
/.notdef /.notdef /space /exclam /quotedbl
/numbersign /dollar /percent /ampersand /quotesingle
/parenleft /parenright /asterisk /plus /comma
/hyphen /period /slash /zero /one
/two /three /four /five /six
/seven /eight /nine /colon /semicolon
/less /equal /greater /question /at
/A /B /C /D /E
/F /G /H /I /J
/K /L /M /N /O
/P /Q /R /S /T
/U /V /W /X /Y
/Z /bracketleft /backslash /bracketright /asciicircum
/underscore /quoteleft /a /b /c
/d /e /f /g /h
/i /j /k /l /m
/n /o /p /q /r
/s /t /u /v /w
/x /y /z /braceleft /bar
/braceright /asciitilde /bullet /Euro /bullet
/quotesinglbase /florin /quotedblbase /ellipsis /dagger
/daggerdbl /circumflex /perthousand /Scaron /guilsinglleft
/OE /bullet /Zcaron /bullet /bullet
/quoteleft /quoteright /quotedblleft /quotedblright /bullet
/endash /emdash /asciitilde /trademark /scaron
/guilsinglright /oe /bullet /zcaron /Ydieresis
/space /exclamdown /cent /sterling /currency
/yen /brokenbar /section /dieresis /copyright
/ordfeminine /guillemotleft /logicalnot /sfthyphen /registered
/macron /degree /plusminus /twosuperior /threesuperior
/acute /mu /paragraph /middot /cedilla
/onesuperior /ordmasculine /guillemotright /onequarter /onehalf
/threequarters /questiondown /Agrave /Aacute /Acircumflex
/Atilde /Adieresis /Aring /AE /Ccedilla
/Egrave /Eacute /Ecircumflex /Edieresis /Igrave
/Iacute /Icircumflex /Idieresis /Eth /Ntilde
/Ograve /Oacute /Ocircumflex /Otilde /Odieresis
/multiply /Oslash /Ugrave /Uacute /Ucircumflex
/Udieresis /Yacute /Thorn /germandbls /agrave
/aacute /acircumflex /atilde /adieresis /aring
/ae /ccedilla /egrave /eacute /ecircumflex
/edieresis /igrave /iacute /icircumflex /idieresis
/eth /ntilde /ograve /oacute /ocircumflex
/otilde /odieresis /divide /oslash /ugrave
/uacute /ucircumflex /udieresis /yacute /thorn
/ydieresis
] def
%%EndResource
%FOPBeginFontReencode
/Courier-Bold findfont
dup length dict begin
  {1 index /FID ne {def} {pop pop} ifelse} forall
  /Encoding WinAnsiEncoding def
  currentdict
end
/Courier-Bold exch definefont pop
/Helvetica findfont
dup length dict begin
  {1 index /FID ne {def} {pop pop} ifelse} forall
  /Encoding WinAnsiEncoding def
  currentdict
end
/Helvetica exch definefont pop
/Courier-BoldOblique findfont
dup length dict begin
  {1 index /FID ne {def} {pop pop} ifelse} forall
  /Encoding WinAnsiEncoding def
  currentdict
end
/Courier-BoldOblique exch definefont pop
/Courier-Oblique findfont
dup length dict begin
  {1 index /FID ne {def} {pop pop} ifelse} forall
  /Encoding WinAnsiEncoding def
  currentdict
end
/Courier-Oblique exch definefont pop
/Times-Roman findfont
dup length dict begin
  {1 index /FID ne {def} {pop pop} ifelse} forall
  /Encoding WinAnsiEncoding def
  currentdict
end
/Times-Roman exch definefont pop
/Helvetica-BoldOblique findfont
dup length dict begin
  {1 index /FID ne {def} {pop pop} ifelse} forall
  /Encoding WinAnsiEncoding def
  currentdict
end
/Helvetica-BoldOblique exch definefont pop
/Helvetica-Bold findfont
dup length dict begin
  {1 index /FID ne {def} {pop pop} ifelse} forall
  /Encoding WinAnsiEncoding def
  currentdict
end
/Helvetica-Bold exch definefont pop
/Helvetica-Oblique findfont
dup length dict begin
  {1 index /FID ne {def} {pop pop} ifelse} forall
  /Encoding WinAnsiEncoding def
  currentdict
end
/Helvetica-Oblique exch definefont pop
/Times-BoldItalic findfont
dup length dict begin
  {1 index /FID ne {def} {pop pop} ifelse} forall
  /Encoding WinAnsiEncoding def
  currentdict
end
/Times-BoldItalic exch definefont pop
/Courier findfont
dup length dict begin
  {1 index /FID ne {def} {pop pop} ifelse} forall
  /Encoding WinAnsiEncoding def
  currentdict
end
/Courier exch definefont pop
/Times-Italic findfont
dup length dict begin
  {1 index /FID ne {def} {pop pop} ifelse} forall
  /Encoding WinAnsiEncoding def
  currentdict
end
/Times-Italic exch definefont pop
/Times-Bold findfont
dup length dict begin
  {1 index /FID ne {def} {pop pop} ifelse} forall
  /Encoding WinAnsiEncoding def
  currentdict
end
/Times-Bold exch definefont pop
%FOPEndFontReencode
%%EndProlog
%%Page: 1 1
%%PageBoundingBox: 0 0 428 338
%%BeginPageSetup
[1 0 0 -1 0 338] CT
%%EndPageSetup
GS
[0.75 0 0 0.75 0 0.5] CT
N
0 0 M
570 0 L
570 450 L
0 450 L
0 0 L
cp
clip
1 GC
N
0 0 570 450 re
f
GR
GS
[0.75 0 0 0.75 0 0.5] CT
1 GC
N
0 0 570 450 re
f
GR
GS
[0.75 0 0 0.75 0 0.5] CT
1 GC
N
62 400 M
397 400 L
397 34 L
62 34 L
cp
f
GR
GS
[0.75 0 0 0.75 0 0.5] CT
0.149 GC
2 setlinecap
1 LJ
0.667 LW
N
62 400 M
397 400 L
S
GR
GS
[0.75 0 0 0.75 0 0.5] CT
0.149 GC
2 setlinecap
1 LJ
0.667 LW
N
62 34 M
397 34 L
S
GR
GS
[0.75 0 0 0.75 0 0.5] CT
0.149 GC
2 setlinecap
1 LJ
0.667 LW
N
99.222 400 M
99.222 396.34 L
S
GR
GS
[0.75 0 0 0.75 0 0.5] CT
0.149 GC
2 setlinecap
1 LJ
0.667 LW
N
173.667 400 M
173.667 396.34 L
S
GR
GS
[0.75 0 0 0.75 0 0.5] CT
0.149 GC
2 setlinecap
1 LJ
0.667 LW
N
248.111 400 M
248.111 396.34 L
S
GR
GS
[0.75 0 0 0.75 0 0.5] CT
0.149 GC
2 setlinecap
1 LJ
0.667 LW
N
322.556 400 M
322.556 396.34 L
S
GR
GS
[0.75 0 0 0.75 0 0.5] CT
0.149 GC
2 setlinecap
1 LJ
0.667 LW
N
397 400 M
397 396.34 L
S
GR
GS
[0.75 0 0 0.75 0 0.5] CT
0.149 GC
2 setlinecap
1 LJ
0.667 LW
N
99.222 34 M
99.222 37.66 L
S
GR
GS
[0.75 0 0 0.75 0 0.5] CT
0.149 GC
2 setlinecap
1 LJ
0.667 LW
N
173.667 34 M
173.667 37.66 L
S
GR
GS
[0.75 0 0 0.75 0 0.5] CT
0.149 GC
2 setlinecap
1 LJ
0.667 LW
N
248.111 34 M
248.111 37.66 L
S
GR
GS
[0.75 0 0 0.75 0 0.5] CT
0.149 GC
2 setlinecap
1 LJ
0.667 LW
N
322.556 34 M
322.556 37.66 L
S
GR
GS
[0.75 0 0 0.75 0 0.5] CT
0.149 GC
2 setlinecap
1 LJ
0.667 LW
N
397 34 M
397 37.66 L
S
GR
GS
[0.75 0 0 0.75 74.41667 304.50001] CT
0.149 GC
/Helvetica 13.333 F
GS
[1 0 0 1 0 0] CT
-4.5 13 moveto 
1 -1 scale
(2) t 
GR
GR
GS
[0.75 0 0 0.75 130.25 304.50001] CT
0.149 GC
/Helvetica 13.333 F
GS
[1 0 0 1 0 0] CT
-4.5 13 moveto 
1 -1 scale
(4) t 
GR
GR
GS
[0.75 0 0 0.75 186.08334 304.50001] CT
0.149 GC
/Helvetica 13.333 F
GS
[1 0 0 1 0 0] CT
-4.5 13 moveto 
1 -1 scale
(6) t 
GR
GR
GS
[0.75 0 0 0.75 241.91668 304.50001] CT
0.149 GC
/Helvetica 13.333 F
GS
[1 0 0 1 0 0] CT
-4.5 13 moveto 
1 -1 scale
(8) t 
GR
GR
GS
[0.75 0 0 0.75 297.75 304.50001] CT
0.149 GC
/Helvetica 13.333 F
GS
[1 0 0 1 0 0] CT
-8.5 13 moveto 
1 -1 scale
(10) t 
GR
GR
GS
[0.75 0 0 0.75 172.12511 318.24999] CT
0.149 GC
/Helvetica 14.667 F
GS
[1 0 0 1 0 0] CT
-30 14 moveto 
1 -1 scale
(-log\(tol\)) t 
GR
GR
GS
[0.75 0 0 0.75 0 0.5] CT
0.149 GC
2 setlinecap
1 LJ
0.667 LW
N
62 400 M
62 34 L
S
GR
GS
[0.75 0 0 0.75 0 0.5] CT
0.149 GC
2 setlinecap
1 LJ
0.667 LW
N
397 400 M
397 34 L
S
GR
GS
[0.75 0 0 0.75 0 0.5] CT
0.149 GC
2 setlinecap
1 LJ
0.667 LW
N
62 354.145 M
65.66 354.145 L
S
GR
GS
[0.75 0 0 0.75 0 0.5] CT
0.149 GC
2 setlinecap
1 LJ
0.667 LW
N
62 229.113 M
65.66 229.113 L
S
GR
GS
[0.75 0 0 0.75 0 0.5] CT
0.149 GC
2 setlinecap
1 LJ
0.667 LW
N
62 104.08 M
65.66 104.08 L
S
GR
GS
[0.75 0 0 0.75 0 0.5] CT
0.149 GC
2 setlinecap
1 LJ
0.667 LW
N
397 354.145 M
393.34 354.145 L
S
GR
GS
[0.75 0 0 0.75 0 0.5] CT
0.149 GC
2 setlinecap
1 LJ
0.667 LW
N
397 229.113 M
393.34 229.113 L
S
GR
GS
[0.75 0 0 0.75 0 0.5] CT
0.149 GC
2 setlinecap
1 LJ
0.667 LW
N
397 104.08 M
393.34 104.08 L
S
GR
GS
[0.75 0 0 0.75 16.5 271.25] CT
0.149 GC
/Helvetica 13.333 F
GS
[1 0 0 1 0 0] CT
0 0 moveto 
1 -1 scale
(10) t 
GR
GR
GS
[0.75 0 0 0.75 29.25 266.75] CT
0.149 GC
/Helvetica 10.667 F
GS
[1 0 0 1 0 0] CT
0 0 moveto 
1 -1 scale
(-10) t 
GR
GR
GS
[0.75 0 0 0.75 21.75 177.5] CT
0.149 GC
/Helvetica 13.333 F
GS
[1 0 0 1 0 0] CT
0 0 moveto 
1 -1 scale
(10) t 
GR
GR
GS
[0.75 0 0 0.75 34.5 173] CT
0.149 GC
/Helvetica 10.667 F
GS
[1 0 0 1 0 0] CT
0 0 moveto 
1 -1 scale
(-5) t 
GR
GR
GS
[0.75 0 0 0.75 24.75 83.75] CT
0.149 GC
/Helvetica 13.333 F
GS
[1 0 0 1 0 0] CT
0 0 moveto 
1 -1 scale
(10) t 
GR
GR
GS
[0.75 0 0 0.75 37.5 79.25] CT
0.149 GC
/Helvetica 10.667 F
GS
[1 0 0 1 0 0] CT
0 0 moveto 
1 -1 scale
(0) t 
GR
GR
GS
[0 -0.75 0.75 0 13.25 163.24987] CT
0.149 GC
/Helvetica 14.667 F
GS
[1 0 0 1 0 0] CT
-14.5 -4 moveto 
1 -1 scale
(|Pg|) t 
GR
GR
GS
[0.75 0 0 0.75 0 0.5] CT
0 0 1 RC
1 LJ
0.667 LW
N
62 34 M
99.222 34 L
136.444 76.751 L
173.667 98.711 L
210.889 118.886 L
248.111 144.342 L
285.333 165.339 L
322.556 189.772 L
359.778 212.192 L
397 233.621 L
S
GR
GS
[0.75 0 0 0.75 0 0.5] CT
0 0 1 RC
1 LJ
N
66.5 34.5 M
65.736 32.149 L
63.736 30.696 L
61.264 30.696 L
59.264 32.149 L
58.5 34.5 L
59.264 36.851 L
61.264 38.304 L
63.736 38.304 L
65.736 36.851 L
cp
S
GR
GS
[0.75 0 0 0.75 0 0.5] CT
0 0 1 RC
1 LJ
N
103.5 34.5 M
102.736 32.149 L
100.736 30.696 L
98.264 30.696 L
96.264 32.149 L
95.5 34.5 L
96.264 36.851 L
98.264 38.304 L
100.736 38.304 L
102.736 36.851 L
cp
S
GR
GS
[0.75 0 0 0.75 0 0.5] CT
0 0 1 RC
1 LJ
N
140.5 76.5 M
139.736 74.149 L
137.736 72.696 L
135.264 72.696 L
133.264 74.149 L
132.5 76.5 L
133.264 78.851 L
135.264 80.304 L
137.736 80.304 L
139.736 78.851 L
cp
S
GR
GS
[0.75 0 0 0.75 0 0.5] CT
0 0 1 RC
1 LJ
N
177.5 98.5 M
176.736 96.149 L
174.736 94.696 L
172.264 94.696 L
170.264 96.149 L
169.5 98.5 L
170.264 100.851 L
172.264 102.304 L
174.736 102.304 L
176.736 100.851 L
cp
S
GR
GS
[0.75 0 0 0.75 0 0.5] CT
0 0 1 RC
1 LJ
N
214.5 118.5 M
213.736 116.149 L
211.736 114.696 L
209.264 114.696 L
207.264 116.149 L
206.5 118.5 L
207.264 120.851 L
209.264 122.304 L
211.736 122.304 L
213.736 120.851 L
cp
S
GR
GS
[0.75 0 0 0.75 0 0.5] CT
0 0 1 RC
1 LJ
N
252.5 144.5 M
251.736 142.149 L
249.736 140.696 L
247.264 140.696 L
245.264 142.149 L
244.5 144.5 L
245.264 146.851 L
247.264 148.304 L
249.736 148.304 L
251.736 146.851 L
cp
S
GR
GS
[0.75 0 0 0.75 0 0.5] CT
0 0 1 RC
1 LJ
N
289.5 165.5 M
288.736 163.149 L
286.736 161.696 L
284.264 161.696 L
282.264 163.149 L
281.5 165.5 L
282.264 167.851 L
284.264 169.304 L
286.736 169.304 L
288.736 167.851 L
cp
S
GR
GS
[0.75 0 0 0.75 0 0.5] CT
0 0 1 RC
1 LJ
N
326.5 189.5 M
325.736 187.149 L
323.736 185.696 L
321.264 185.696 L
319.264 187.149 L
318.5 189.5 L
319.264 191.851 L
321.264 193.304 L
323.736 193.304 L
325.736 191.851 L
cp
S
GR
GS
[0.75 0 0 0.75 0 0.5] CT
0 0 1 RC
1 LJ
N
363.5 212.5 M
362.736 210.149 L
360.736 208.696 L
358.264 208.696 L
356.264 210.149 L
355.5 212.5 L
356.264 214.851 L
358.264 216.304 L
360.736 216.304 L
362.736 214.851 L
cp
S
GR
GS
[0.75 0 0 0.75 0 0.5] CT
0 0 1 RC
1 LJ
N
401.5 233.5 M
400.736 231.149 L
398.736 229.696 L
396.264 229.696 L
394.264 231.149 L
393.5 233.5 L
394.264 235.851 L
396.264 237.304 L
398.736 237.304 L
400.736 235.851 L
cp
S
GR
GS
[0.75 0 0 0.75 0 0.5] CT
0 1 0 RC
1 LJ
0.667 LW
N
62 34 M
99.222 34 L
136.444 80.499 L
173.667 102.726 L
210.889 131.113 L
248.111 150.505 L
285.333 174.848 L
322.556 201.994 L
359.778 225.574 L
397 246.503 L
S
GR
GS
[0.75 0 0 0.75 0 0.5] CT
0 1 0 RC
1 LJ
N
66.5 33.5 M
65.736 31.149 L
63.736 29.696 L
61.264 29.696 L
59.264 31.149 L
58.5 33.5 L
59.264 35.851 L
61.264 37.304 L
63.736 37.304 L
65.736 35.851 L
cp
S
GR
GS
[0.75 0 0 0.75 0 0.5] CT
0 1 0 RC
1 LJ
N
103.5 34.5 M
102.736 32.149 L
100.736 30.696 L
98.264 30.696 L
96.264 32.149 L
95.5 34.5 L
96.264 36.851 L
98.264 38.304 L
100.736 38.304 L
102.736 36.851 L
cp
S
GR
GS
[0.75 0 0 0.75 0 0.5] CT
0 1 0 RC
1 LJ
N
140.5 80.5 M
139.736 78.149 L
137.736 76.696 L
135.264 76.696 L
133.264 78.149 L
132.5 80.5 L
133.264 82.851 L
135.264 84.304 L
137.736 84.304 L
139.736 82.851 L
cp
S
GR
GS
[0.75 0 0 0.75 0 0.5] CT
0 1 0 RC
1 LJ
N
177.5 102.5 M
176.736 100.149 L
174.736 98.696 L
172.264 98.696 L
170.264 100.149 L
169.5 102.5 L
170.264 104.851 L
172.264 106.304 L
174.736 106.304 L
176.736 104.851 L
cp
S
GR
GS
[0.75 0 0 0.75 0 0.5] CT
0 1 0 RC
1 LJ
N
214.5 131.5 M
213.736 129.149 L
211.736 127.696 L
209.264 127.696 L
207.264 129.149 L
206.5 131.5 L
207.264 133.851 L
209.264 135.304 L
211.736 135.304 L
213.736 133.851 L
cp
S
GR
GS
[0.75 0 0 0.75 0 0.5] CT
0 1 0 RC
1 LJ
N
252.5 150.5 M
251.736 148.149 L
249.736 146.696 L
247.264 146.696 L
245.264 148.149 L
244.5 150.5 L
245.264 152.851 L
247.264 154.304 L
249.736 154.304 L
251.736 152.851 L
cp
S
GR
GS
[0.75 0 0 0.75 0 0.5] CT
0 1 0 RC
1 LJ
N
289.5 174.5 M
288.736 172.149 L
286.736 170.696 L
284.264 170.696 L
282.264 172.149 L
281.5 174.5 L
282.264 176.851 L
284.264 178.304 L
286.736 178.304 L
288.736 176.851 L
cp
S
GR
GS
[0.75 0 0 0.75 0 0.5] CT
0 1 0 RC
1 LJ
N
326.5 201.5 M
325.736 199.149 L
323.736 197.696 L
321.264 197.696 L
319.264 199.149 L
318.5 201.5 L
319.264 203.851 L
321.264 205.304 L
323.736 205.304 L
325.736 203.851 L
cp
S
GR
GS
[0.75 0 0 0.75 0 0.5] CT
0 1 0 RC
1 LJ
N
363.5 225.5 M
362.736 223.149 L
360.736 221.696 L
358.264 221.696 L
356.264 223.149 L
355.5 225.5 L
356.264 227.851 L
358.264 229.304 L
360.736 229.304 L
362.736 227.851 L
cp
S
GR
GS
[0.75 0 0 0.75 0 0.5] CT
0 1 0 RC
1 LJ
N
401.5 246.5 M
400.736 244.149 L
398.736 242.696 L
396.264 242.696 L
394.264 244.149 L
393.5 246.5 L
394.264 248.851 L
396.264 250.304 L
398.736 250.304 L
400.736 248.851 L
cp
S
GR
GS
[0.75 0 0 0.75 0 0.5] CT
1 0 0 RC
1 LJ
0.667 LW
N
62 60.014 M
99.222 87.527 L
136.444 112.547 L
173.667 167.266 L
210.889 201.667 L
248.111 196.888 L
285.333 250.093 L
322.556 295.629 L
359.778 346.764 L
397 400 L
S
GR
GS
[0.75 0 0 0.75 0 0.5] CT
1 0 0 RC
1 LJ
N
66.5 60.5 M
65.736 58.149 L
63.736 56.696 L
61.264 56.696 L
59.264 58.149 L
58.5 60.5 L
59.264 62.851 L
61.264 64.304 L
63.736 64.304 L
65.736 62.851 L
cp
S
GR
GS
[0.75 0 0 0.75 0 0.5] CT
1 0 0 RC
1 LJ
N
103.5 87.5 M
102.736 85.149 L
100.736 83.696 L
98.264 83.696 L
96.264 85.149 L
95.5 87.5 L
96.264 89.851 L
98.264 91.304 L
100.736 91.304 L
102.736 89.851 L
cp
S
GR
GS
[0.75 0 0 0.75 0 0.5] CT
1 0 0 RC
1 LJ
N
140.5 112.5 M
139.736 110.149 L
137.736 108.696 L
135.264 108.696 L
133.264 110.149 L
132.5 112.5 L
133.264 114.851 L
135.264 116.304 L
137.736 116.304 L
139.736 114.851 L
cp
S
GR
GS
[0.75 0 0 0.75 0 0.5] CT
1 0 0 RC
1 LJ
N
177.5 167.5 M
176.736 165.149 L
174.736 163.696 L
172.264 163.696 L
170.264 165.149 L
169.5 167.5 L
170.264 169.851 L
172.264 171.304 L
174.736 171.304 L
176.736 169.851 L
cp
S
GR
GS
[0.75 0 0 0.75 0 0.5] CT
1 0 0 RC
1 LJ
N
214.5 201.5 M
213.736 199.149 L
211.736 197.696 L
209.264 197.696 L
207.264 199.149 L
206.5 201.5 L
207.264 203.851 L
209.264 205.304 L
211.736 205.304 L
213.736 203.851 L
cp
S
GR
GS
[0.75 0 0 0.75 0 0.5] CT
1 0 0 RC
1 LJ
N
252.5 196.5 M
251.736 194.149 L
249.736 192.696 L
247.264 192.696 L
245.264 194.149 L
244.5 196.5 L
245.264 198.851 L
247.264 200.304 L
249.736 200.304 L
251.736 198.851 L
cp
S
GR
GS
[0.75 0 0 0.75 0 0.5] CT
1 0 0 RC
1 LJ
N
289.5 250.5 M
288.736 248.149 L
286.736 246.696 L
284.264 246.696 L
282.264 248.149 L
281.5 250.5 L
282.264 252.851 L
284.264 254.304 L
286.736 254.304 L
288.736 252.851 L
cp
S
GR
GS
[0.75 0 0 0.75 0 0.5] CT
1 0 0 RC
1 LJ
N
326.5 295.5 M
325.736 293.149 L
323.736 291.696 L
321.264 291.696 L
319.264 293.149 L
318.5 295.5 L
319.264 297.851 L
321.264 299.304 L
323.736 299.304 L
325.736 297.851 L
cp
S
GR
GS
[0.75 0 0 0.75 0 0.5] CT
1 0 0 RC
1 LJ
N
363.5 346.5 M
362.736 344.149 L
360.736 342.696 L
358.264 342.696 L
356.264 344.149 L
355.5 346.5 L
356.264 348.851 L
358.264 350.304 L
360.736 350.304 L
362.736 348.851 L
cp
S
GR
GS
[0.75 0 0 0.75 0 0.5] CT
1 0 0 RC
1 LJ
N
401.5 399.5 M
400.736 397.149 L
398.736 395.696 L
396.264 395.696 L
394.264 397.149 L
393.5 399.5 L
394.264 401.851 L
396.264 403.304 L
398.736 403.304 L
400.736 401.851 L
cp
S
GR
GS
[0.75 0 0 0.75 0 0.5] CT
0 1 1 RC
1 LJ
0.667 LW
N
62 59.044 M
99.222 102.838 L
136.444 110.478 L
173.667 158.364 L
210.889 186.857 L
248.111 197.498 L
285.333 294.494 L
322.556 246.828 L
359.778 291.847 L
397 341.581 L
S
GR
GS
[0.75 0 0 0.75 0 0.5] CT
0 1 1 RC
1 LJ
N
66.5 59.5 M
65.736 57.149 L
63.736 55.696 L
61.264 55.696 L
59.264 57.149 L
58.5 59.5 L
59.264 61.851 L
61.264 63.304 L
63.736 63.304 L
65.736 61.851 L
cp
S
GR
GS
[0.75 0 0 0.75 0 0.5] CT
0 1 1 RC
1 LJ
N
103.5 102.5 M
102.736 100.149 L
100.736 98.696 L
98.264 98.696 L
96.264 100.149 L
95.5 102.5 L
96.264 104.851 L
98.264 106.304 L
100.736 106.304 L
102.736 104.851 L
cp
S
GR
GS
[0.75 0 0 0.75 0 0.5] CT
0 1 1 RC
1 LJ
N
140.5 110.5 M
139.736 108.149 L
137.736 106.696 L
135.264 106.696 L
133.264 108.149 L
132.5 110.5 L
133.264 112.851 L
135.264 114.304 L
137.736 114.304 L
139.736 112.851 L
cp
S
GR
GS
[0.75 0 0 0.75 0 0.5] CT
0 1 1 RC
1 LJ
N
177.5 158.5 M
176.736 156.149 L
174.736 154.696 L
172.264 154.696 L
170.264 156.149 L
169.5 158.5 L
170.264 160.851 L
172.264 162.304 L
174.736 162.304 L
176.736 160.851 L
cp
S
GR
GS
[0.75 0 0 0.75 0 0.5] CT
0 1 1 RC
1 LJ
N
214.5 186.5 M
213.736 184.149 L
211.736 182.696 L
209.264 182.696 L
207.264 184.149 L
206.5 186.5 L
207.264 188.851 L
209.264 190.304 L
211.736 190.304 L
213.736 188.851 L
cp
S
GR
GS
[0.75 0 0 0.75 0 0.5] CT
0 1 1 RC
1 LJ
N
252.5 197.5 M
251.736 195.149 L
249.736 193.696 L
247.264 193.696 L
245.264 195.149 L
244.5 197.5 L
245.264 199.851 L
247.264 201.304 L
249.736 201.304 L
251.736 199.851 L
cp
S
GR
GS
[0.75 0 0 0.75 0 0.5] CT
0 1 1 RC
1 LJ
N
289.5 294.5 M
288.736 292.149 L
286.736 290.696 L
284.264 290.696 L
282.264 292.149 L
281.5 294.5 L
282.264 296.851 L
284.264 298.304 L
286.736 298.304 L
288.736 296.851 L
cp
S
GR
GS
[0.75 0 0 0.75 0 0.5] CT
0 1 1 RC
1 LJ
N
326.5 246.5 M
325.736 244.149 L
323.736 242.696 L
321.264 242.696 L
319.264 244.149 L
318.5 246.5 L
319.264 248.851 L
321.264 250.304 L
323.736 250.304 L
325.736 248.851 L
cp
S
GR
GS
[0.75 0 0 0.75 0 0.5] CT
0 1 1 RC
1 LJ
N
363.5 291.5 M
362.736 289.149 L
360.736 287.696 L
358.264 287.696 L
356.264 289.149 L
355.5 291.5 L
356.264 293.851 L
358.264 295.304 L
360.736 295.304 L
362.736 293.851 L
cp
S
GR
GS
[0.75 0 0 0.75 0 0.5] CT
0 1 1 RC
1 LJ
N
401.5 341.5 M
400.736 339.149 L
398.736 337.696 L
396.264 337.696 L
394.264 339.149 L
393.5 341.5 L
394.264 343.851 L
396.264 345.304 L
398.736 345.304 L
400.736 343.851 L
cp
S
GR
GS
[0.75 0 0 0.75 0 0.5] CT
1 0 1 RC
1 LJ
0.667 LW
N
62 61.091 M
99.222 85.651 L
136.444 113.572 L
173.667 167.266 L
210.889 201.667 L
248.111 196.888 L
285.333 250.093 L
322.556 295.629 L
359.778 346.764 L
397 400 L
S
GR
GS
[0.75 0 0 0.75 0 0.5] CT
1 0 1 RC
1 LJ
N
66.5 61.5 M
65.736 59.149 L
63.736 57.696 L
61.264 57.696 L
59.264 59.149 L
58.5 61.5 L
59.264 63.851 L
61.264 65.304 L
63.736 65.304 L
65.736 63.851 L
cp
S
GR
GS
[0.75 0 0 0.75 0 0.5] CT
1 0 1 RC
1 LJ
N
103.5 85.5 M
102.736 83.149 L
100.736 81.696 L
98.264 81.696 L
96.264 83.149 L
95.5 85.5 L
96.264 87.851 L
98.264 89.304 L
100.736 89.304 L
102.736 87.851 L
cp
S
GR
GS
[0.75 0 0 0.75 0 0.5] CT
1 0 1 RC
1 LJ
N
140.5 113.5 M
139.736 111.149 L
137.736 109.696 L
135.264 109.696 L
133.264 111.149 L
132.5 113.5 L
133.264 115.851 L
135.264 117.304 L
137.736 117.304 L
139.736 115.851 L
cp
S
GR
GS
[0.75 0 0 0.75 0 0.5] CT
1 0 1 RC
1 LJ
N
177.5 167.5 M
176.736 165.149 L
174.736 163.696 L
172.264 163.696 L
170.264 165.149 L
169.5 167.5 L
170.264 169.851 L
172.264 171.304 L
174.736 171.304 L
176.736 169.851 L
cp
S
GR
GS
[0.75 0 0 0.75 0 0.5] CT
1 0 1 RC
1 LJ
N
214.5 201.5 M
213.736 199.149 L
211.736 197.696 L
209.264 197.696 L
207.264 199.149 L
206.5 201.5 L
207.264 203.851 L
209.264 205.304 L
211.736 205.304 L
213.736 203.851 L
cp
S
GR
GS
[0.75 0 0 0.75 0 0.5] CT
1 0 1 RC
1 LJ
N
252.5 196.5 M
251.736 194.149 L
249.736 192.696 L
247.264 192.696 L
245.264 194.149 L
244.5 196.5 L
245.264 198.851 L
247.264 200.304 L
249.736 200.304 L
251.736 198.851 L
cp
S
GR
GS
[0.75 0 0 0.75 0 0.5] CT
1 0 1 RC
1 LJ
N
289.5 250.5 M
288.736 248.149 L
286.736 246.696 L
284.264 246.696 L
282.264 248.149 L
281.5 250.5 L
282.264 252.851 L
284.264 254.304 L
286.736 254.304 L
288.736 252.851 L
cp
S
GR
GS
[0.75 0 0 0.75 0 0.5] CT
1 0 1 RC
1 LJ
N
326.5 295.5 M
325.736 293.149 L
323.736 291.696 L
321.264 291.696 L
319.264 293.149 L
318.5 295.5 L
319.264 297.851 L
321.264 299.304 L
323.736 299.304 L
325.736 297.851 L
cp
S
GR
GS
[0.75 0 0 0.75 0 0.5] CT
1 0 1 RC
1 LJ
N
363.5 346.5 M
362.736 344.149 L
360.736 342.696 L
358.264 342.696 L
356.264 344.149 L
355.5 346.5 L
356.264 348.851 L
358.264 350.304 L
360.736 350.304 L
362.736 348.851 L
cp
S
GR
GS
[0.75 0 0 0.75 0 0.5] CT
1 0 1 RC
1 LJ
N
401.5 399.5 M
400.736 397.149 L
398.736 395.696 L
396.264 395.696 L
394.264 397.149 L
393.5 399.5 L
394.264 401.851 L
396.264 403.304 L
398.736 403.304 L
400.736 401.851 L
cp
S
GR
GS
[0.75 0 0 0.75 0 0.5] CT
1 LJ
0.667 LW
N
62 62.727 M
99.222 86.047 L
136.444 110.126 L
173.667 140.45 L
210.889 160.592 L
248.111 192.141 L
285.333 214.317 L
322.556 215.495 L
359.778 215.495 L
397 215.495 L
S
GR
GS
[0.75 0 0 0.75 0 0.5] CT
1 LJ
N
66.5 62.5 M
65.736 60.149 L
63.736 58.696 L
61.264 58.696 L
59.264 60.149 L
58.5 62.5 L
59.264 64.851 L
61.264 66.304 L
63.736 66.304 L
65.736 64.851 L
cp
S
GR
GS
[0.75 0 0 0.75 0 0.5] CT
1 LJ
N
103.5 86.5 M
102.736 84.149 L
100.736 82.696 L
98.264 82.696 L
96.264 84.149 L
95.5 86.5 L
96.264 88.851 L
98.264 90.304 L
100.736 90.304 L
102.736 88.851 L
cp
S
GR
GS
[0.75 0 0 0.75 0 0.5] CT
1 LJ
N
140.5 110.5 M
139.736 108.149 L
137.736 106.696 L
135.264 106.696 L
133.264 108.149 L
132.5 110.5 L
133.264 112.851 L
135.264 114.304 L
137.736 114.304 L
139.736 112.851 L
cp
S
GR
GS
[0.75 0 0 0.75 0 0.5] CT
1 LJ
N
177.5 140.5 M
176.736 138.149 L
174.736 136.696 L
172.264 136.696 L
170.264 138.149 L
169.5 140.5 L
170.264 142.851 L
172.264 144.304 L
174.736 144.304 L
176.736 142.851 L
cp
S
GR
GS
[0.75 0 0 0.75 0 0.5] CT
1 LJ
N
214.5 160.5 M
213.736 158.149 L
211.736 156.696 L
209.264 156.696 L
207.264 158.149 L
206.5 160.5 L
207.264 162.851 L
209.264 164.304 L
211.736 164.304 L
213.736 162.851 L
cp
S
GR
GS
[0.75 0 0 0.75 0 0.5] CT
1 LJ
N
252.5 192.5 M
251.736 190.149 L
249.736 188.696 L
247.264 188.696 L
245.264 190.149 L
244.5 192.5 L
245.264 194.851 L
247.264 196.304 L
249.736 196.304 L
251.736 194.851 L
cp
S
GR
GS
[0.75 0 0 0.75 0 0.5] CT
1 LJ
N
289.5 214.5 M
288.736 212.149 L
286.736 210.696 L
284.264 210.696 L
282.264 212.149 L
281.5 214.5 L
282.264 216.851 L
284.264 218.304 L
286.736 218.304 L
288.736 216.851 L
cp
S
GR
GS
[0.75 0 0 0.75 0 0.5] CT
1 LJ
N
326.5 215.5 M
325.736 213.149 L
323.736 211.696 L
321.264 211.696 L
319.264 213.149 L
318.5 215.5 L
319.264 217.851 L
321.264 219.304 L
323.736 219.304 L
325.736 217.851 L
cp
S
GR
GS
[0.75 0 0 0.75 0 0.5] CT
1 LJ
N
363.5 215.5 M
362.736 213.149 L
360.736 211.696 L
358.264 211.696 L
356.264 213.149 L
355.5 215.5 L
356.264 217.851 L
358.264 219.304 L
360.736 219.304 L
362.736 217.851 L
cp
S
GR
GS
[0.75 0 0 0.75 0 0.5] CT
1 LJ
N
401.5 215.5 M
400.736 213.149 L
398.736 211.696 L
396.264 211.696 L
394.264 213.149 L
393.5 215.5 L
394.264 217.851 L
396.264 219.304 L
398.736 219.304 L
400.736 217.851 L
cp
S
GR
GS
[0.75 0 0 0.75 0 0.5] CT
0 0 1 RC
[8 3 2 3] 0 setdash
2 LJ
0.667 LW
N
62 59.103 M
99.222 86.719 L
136.444 110.865 L
173.667 135.063 L
210.889 167.685 L
248.111 184.504 L
285.333 209.076 L
322.556 218.688 L
359.778 218.688 L
397 218.688 L
S
GR
GS
[0.75 0 0 0.75 0 0.5] CT
0 0 1 RC
10.0 ML
N
62.5 64.832 M
66.5 59.5 L
62.5 54.168 L
58.5 59.5 L
cp
S
GR
GS
[0.75 0 0 0.75 0 0.5] CT
0 0 1 RC
10.0 ML
N
99.5 91.832 M
103.5 86.5 L
99.5 81.168 L
95.5 86.5 L
cp
S
GR
GS
[0.75 0 0 0.75 0 0.5] CT
0 0 1 RC
10.0 ML
N
136.5 115.832 M
140.5 110.5 L
136.5 105.168 L
132.5 110.5 L
cp
S
GR
GS
[0.75 0 0 0.75 0 0.5] CT
0 0 1 RC
10.0 ML
N
173.5 140.832 M
177.5 135.5 L
173.5 130.168 L
169.5 135.5 L
cp
S
GR
GS
[0.75 0 0 0.75 0 0.5] CT
0 0 1 RC
10.0 ML
N
210.5 172.832 M
214.5 167.5 L
210.5 162.168 L
206.5 167.5 L
cp
S
GR
GS
[0.75 0 0 0.75 0 0.5] CT
0 0 1 RC
10.0 ML
N
248.5 189.832 M
252.5 184.5 L
248.5 179.168 L
244.5 184.5 L
cp
S
GR
GS
[0.75 0 0 0.75 0 0.5] CT
0 0 1 RC
10.0 ML
N
285.5 214.832 M
289.5 209.5 L
285.5 204.168 L
281.5 209.5 L
cp
S
GR
GS
[0.75 0 0 0.75 0 0.5] CT
0 0 1 RC
10.0 ML
N
322.5 223.832 M
326.5 218.5 L
322.5 213.168 L
318.5 218.5 L
cp
S
GR
GS
[0.75 0 0 0.75 0 0.5] CT
0 0 1 RC
10.0 ML
N
359.5 223.832 M
363.5 218.5 L
359.5 213.168 L
355.5 218.5 L
cp
S
GR
GS
[0.75 0 0 0.75 0 0.5] CT
0 0 1 RC
10.0 ML
N
397.5 223.832 M
401.5 218.5 L
397.5 213.168 L
393.5 218.5 L
cp
S
GR
GS
[0.75 0 0 0.75 0 0.5] CT
0 1 0 RC
[8 3 2 3] 0 setdash
2 LJ
0.667 LW
N
62 61.262 M
99.222 84.655 L
136.444 113.01 L
173.667 134.286 L
210.889 166.409 L
248.111 184.115 L
285.333 209.061 L
322.556 312.127 L
359.778 312.127 L
397 312.127 L
S
GR
GS
[0.75 0 0 0.75 0 0.5] CT
0 1 0 RC
10.0 ML
N
62.5 66.832 M
66.5 61.5 L
62.5 56.168 L
58.5 61.5 L
cp
S
GR
GS
[0.75 0 0 0.75 0 0.5] CT
0 1 0 RC
10.0 ML
N
99.5 89.832 M
103.5 84.5 L
99.5 79.168 L
95.5 84.5 L
cp
S
GR
GS
[0.75 0 0 0.75 0 0.5] CT
0 1 0 RC
10.0 ML
N
136.5 118.832 M
140.5 113.5 L
136.5 108.168 L
132.5 113.5 L
cp
S
GR
GS
[0.75 0 0 0.75 0 0.5] CT
0 1 0 RC
10.0 ML
N
173.5 139.832 M
177.5 134.5 L
173.5 129.168 L
169.5 134.5 L
cp
S
GR
GS
[0.75 0 0 0.75 0 0.5] CT
0 1 0 RC
10.0 ML
N
210.5 171.832 M
214.5 166.5 L
210.5 161.168 L
206.5 166.5 L
cp
S
GR
GS
[0.75 0 0 0.75 0 0.5] CT
0 1 0 RC
10.0 ML
N
248.5 189.832 M
252.5 184.5 L
248.5 179.168 L
244.5 184.5 L
cp
S
GR
GS
[0.75 0 0 0.75 0 0.5] CT
0 1 0 RC
10.0 ML
N
285.5 214.832 M
289.5 209.5 L
285.5 204.168 L
281.5 209.5 L
cp
S
GR
GS
[0.75 0 0 0.75 0 0.5] CT
0 1 0 RC
10.0 ML
N
322.5 317.832 M
326.5 312.5 L
322.5 307.168 L
318.5 312.5 L
cp
S
GR
GS
[0.75 0 0 0.75 0 0.5] CT
0 1 0 RC
10.0 ML
N
359.5 317.832 M
363.5 312.5 L
359.5 307.168 L
355.5 312.5 L
cp
S
GR
GS
[0.75 0 0 0.75 0 0.5] CT
0 1 0 RC
10.0 ML
N
397.5 317.832 M
401.5 312.5 L
397.5 307.168 L
393.5 312.5 L
cp
S
GR
GS
[0.75 0 0 0.75 0 0.5] CT
1 0 0 RC
[8 3 2 3] 0 setdash
2 LJ
0.667 LW
N
62 105.396 M
99.222 132.3 L
136.444 160.825 L
173.667 180.235 L
210.889 206.722 L
248.111 230.75 L
285.333 258.167 L
322.556 287.191 L
359.778 313.387 L
397 333.311 L
S
GR
GS
[0.75 0 0 0.75 0 0.5] CT
1 0 0 RC
10.0 ML
N
62.5 110.832 M
66.5 105.5 L
62.5 100.168 L
58.5 105.5 L
cp
S
GR
GS
[0.75 0 0 0.75 0 0.5] CT
1 0 0 RC
10.0 ML
N
99.5 137.832 M
103.5 132.5 L
99.5 127.168 L
95.5 132.5 L
cp
S
GR
GS
[0.75 0 0 0.75 0 0.5] CT
1 0 0 RC
10.0 ML
N
136.5 165.832 M
140.5 160.5 L
136.5 155.168 L
132.5 160.5 L
cp
S
GR
GS
[0.75 0 0 0.75 0 0.5] CT
1 0 0 RC
10.0 ML
N
173.5 185.832 M
177.5 180.5 L
173.5 175.168 L
169.5 180.5 L
cp
S
GR
GS
[0.75 0 0 0.75 0 0.5] CT
1 0 0 RC
10.0 ML
N
210.5 211.832 M
214.5 206.5 L
210.5 201.168 L
206.5 206.5 L
cp
S
GR
GS
[0.75 0 0 0.75 0 0.5] CT
1 0 0 RC
10.0 ML
N
248.5 235.832 M
252.5 230.5 L
248.5 225.168 L
244.5 230.5 L
cp
S
GR
GS
[0.75 0 0 0.75 0 0.5] CT
1 0 0 RC
10.0 ML
N
285.5 263.832 M
289.5 258.5 L
285.5 253.168 L
281.5 258.5 L
cp
S
GR
GS
[0.75 0 0 0.75 0 0.5] CT
1 0 0 RC
10.0 ML
N
322.5 292.832 M
326.5 287.5 L
322.5 282.168 L
318.5 287.5 L
cp
S
GR
GS
[0.75 0 0 0.75 0 0.5] CT
1 0 0 RC
10.0 ML
N
359.5 318.832 M
363.5 313.5 L
359.5 308.168 L
355.5 313.5 L
cp
S
GR
GS
[0.75 0 0 0.75 0 0.5] CT
1 0 0 RC
10.0 ML
N
397.5 338.832 M
401.5 333.5 L
397.5 328.168 L
393.5 333.5 L
cp
S
GR
GS
[0.75 0 0 0.75 0 0.5] CT
0 1 1 RC
[8 3 2 3] 0 setdash
2 LJ
0.667 LW
N
62 76.594 M
99.222 110.49 L
136.444 110.49 L
173.667 137.439 L
210.889 168.672 L
248.111 194.389 L
285.333 222.11 L
322.556 248.894 L
359.778 274.089 L
397 274.089 L
S
GR
GS
[0.75 0 0 0.75 0 0.5] CT
0 1 1 RC
10.0 ML
N
62.5 81.832 M
66.5 76.5 L
62.5 71.168 L
58.5 76.5 L
cp
S
GR
GS
[0.75 0 0 0.75 0 0.5] CT
0 1 1 RC
10.0 ML
N
99.5 115.832 M
103.5 110.5 L
99.5 105.168 L
95.5 110.5 L
cp
S
GR
GS
[0.75 0 0 0.75 0 0.5] CT
0 1 1 RC
10.0 ML
N
136.5 115.832 M
140.5 110.5 L
136.5 105.168 L
132.5 110.5 L
cp
S
GR
GS
[0.75 0 0 0.75 0 0.5] CT
0 1 1 RC
10.0 ML
N
173.5 142.832 M
177.5 137.5 L
173.5 132.168 L
169.5 137.5 L
cp
S
GR
GS
[0.75 0 0 0.75 0 0.5] CT
0 1 1 RC
10.0 ML
N
210.5 173.832 M
214.5 168.5 L
210.5 163.168 L
206.5 168.5 L
cp
S
GR
GS
[0.75 0 0 0.75 0 0.5] CT
0 1 1 RC
10.0 ML
N
248.5 199.832 M
252.5 194.5 L
248.5 189.168 L
244.5 194.5 L
cp
S
GR
GS
[0.75 0 0 0.75 0 0.5] CT
0 1 1 RC
10.0 ML
N
285.5 227.832 M
289.5 222.5 L
285.5 217.168 L
281.5 222.5 L
cp
S
GR
GS
[0.75 0 0 0.75 0 0.5] CT
0 1 1 RC
10.0 ML
N
322.5 253.832 M
326.5 248.5 L
322.5 243.168 L
318.5 248.5 L
cp
S
GR
GS
[0.75 0 0 0.75 0 0.5] CT
0 1 1 RC
10.0 ML
N
359.5 279.832 M
363.5 274.5 L
359.5 269.168 L
355.5 274.5 L
cp
S
GR
GS
[0.75 0 0 0.75 0 0.5] CT
0 1 1 RC
10.0 ML
N
397.5 279.832 M
401.5 274.5 L
397.5 269.168 L
393.5 274.5 L
cp
S
GR
GS
[0.75 0 0 0.75 0 0.5] CT
1 GC
N
419 192 M
419 34 L
528 34 L
528 192 L
cp
f
GR
GS
[0.75 0 0 0.75 342 33.10252] CT
/Helvetica 12 F
GS
[1 0 0 1 0 0] CT
0 4.5 moveto 
1 -1 scale
(Tmplsqr) t 
GR
GR
GS
[0.75 0 0 0.75 0 0.5] CT
0 0 1 RC
1 LJ
0.667 LW
N
423 43.47 M
453 43.47 L
S
GR
GS
[0.75 0 0 0.75 0 0.5] CT
0 0 1 RC
1 LJ
N
442.5 43.5 M
441.736 41.149 L
439.736 39.696 L
437.264 39.696 L
435.264 41.149 L
434.5 43.5 L
435.264 45.851 L
437.264 47.304 L
439.736 47.304 L
441.736 45.851 L
cp
S
GR
GS
[0.75 0 0 0.75 342 44.69085] CT
/Helvetica 12 F
GS
[1 0 0 1 0 0] CT
0 4.5 moveto 
1 -1 scale
(Tmplsmr) t 
GR
GR
GS
[0.75 0 0 0.75 0 0.5] CT
0 1 0 RC
1 LJ
0.667 LW
N
423 58.921 M
453 58.921 L
S
GR
GS
[0.75 0 0 0.75 0 0.5] CT
0 1 0 RC
1 LJ
N
442.5 58.5 M
441.736 56.149 L
439.736 54.696 L
437.264 54.696 L
435.264 56.149 L
434.5 58.5 L
435.264 60.851 L
437.264 62.304 L
439.736 62.304 L
441.736 60.851 L
cp
S
GR
GS
[0.75 0 0 0.75 342 56.27918] CT
/Helvetica 12 F
GS
[1 0 0 1 0 0] CT
0 4.5 moveto 
1 -1 scale
(Tmppcg) t 
GR
GR
GS
[0.75 0 0 0.75 0 0.5] CT
1 0 0 RC
1 LJ
0.667 LW
N
423 74.372 M
453 74.372 L
S
GR
GS
[0.75 0 0 0.75 0 0.5] CT
1 0 0 RC
1 LJ
N
442.5 74.5 M
441.736 72.149 L
439.736 70.696 L
437.264 70.696 L
435.264 72.149 L
434.5 74.5 L
435.264 76.851 L
437.264 78.304 L
439.736 78.304 L
441.736 76.851 L
cp
S
GR
GS
[0.75 0 0 0.75 342 67.86751] CT
/Helvetica 12 F
GS
[1 0 0 1 0 0] CT
0 4.5 moveto 
1 -1 scale
(Tmpminres) t 
GR
GR
GS
[0.75 0 0 0.75 0 0.5] CT
0 1 1 RC
1 LJ
0.667 LW
N
423 89.823 M
453 89.823 L
S
GR
GS
[0.75 0 0 0.75 0 0.5] CT
0 1 1 RC
1 LJ
N
442.5 89.5 M
441.736 87.149 L
439.736 85.696 L
437.264 85.696 L
435.264 87.149 L
434.5 89.5 L
435.264 91.851 L
437.264 93.304 L
439.736 93.304 L
441.736 91.851 L
cp
S
GR
GS
[0.75 0 0 0.75 342 79.45584] CT
/Helvetica 12 F
GS
[1 0 0 1 0 0] CT
0 4.5 moveto 
1 -1 scale
(Pnb) t 
GR
GR
GS
[0.75 0 0 0.75 0 0.5] CT
1 0 1 RC
1 LJ
0.667 LW
N
423 105.274 M
453 105.274 L
S
GR
GS
[0.75 0 0 0.75 0 0.5] CT
1 0 1 RC
1 LJ
N
442.5 105.5 M
441.736 103.149 L
439.736 101.696 L
437.264 101.696 L
435.264 103.149 L
434.5 105.5 L
435.264 107.851 L
437.264 109.304 L
439.736 109.304 L
441.736 107.851 L
cp
S
GR
GS
[0.75 0 0 0.75 342 91.04416] CT
/Helvetica 12 F
GS
[1 0 0 1 0 0] CT
0 4.5 moveto 
1 -1 scale
(Bb) t 
GR
GR
GS
[0.75 0 0 0.75 0 0.5] CT
1 LJ
0.667 LW
N
423 120.726 M
453 120.726 L
S
GR
GS
[0.75 0 0 0.75 0 0.5] CT
1 LJ
N
442.5 120.5 M
441.736 118.149 L
439.736 116.696 L
437.264 116.696 L
435.264 118.149 L
434.5 120.5 L
435.264 122.851 L
437.264 124.304 L
439.736 124.304 L
441.736 122.851 L
cp
S
GR
GS
[0.75 0 0 0.75 342 102.63249] CT
/Helvetica 12 F
GS
[1 0 0 1 0 0] CT
0 4.5 moveto 
1 -1 scale
(Spg) t 
GR
GR
GS
[0.75 0 0 0.75 0 0.5] CT
0 0 1 RC
[8 3 2 3] 0 setdash
2 LJ
0.667 LW
N
423 136.177 M
453 136.177 L
S
GR
GS
[0.75 0 0 0.75 0 0.5] CT
0 0 1 RC
10.0 ML
N
438.5 141.832 M
442.5 136.5 L
438.5 131.168 L
434.5 136.5 L
cp
S
GR
GS
[0.75 0 0 0.75 342 114.22082] CT
/Helvetica 12 F
GS
[1 0 0 1 0 0] CT
0 4.5 moveto 
1 -1 scale
(Pqn) t 
GR
GR
GS
[0.75 0 0 0.75 0 0.5] CT
0 1 0 RC
[8 3 2 3] 0 setdash
2 LJ
0.667 LW
N
423 151.628 M
453 151.628 L
S
GR
GS
[0.75 0 0 0.75 0 0.5] CT
0 1 0 RC
10.0 ML
N
438.5 156.832 M
442.5 151.5 L
438.5 146.168 L
434.5 151.5 L
cp
S
GR
GS
[0.75 0 0 0.75 342 125.80915] CT
/Helvetica 12 F
GS
[1 0 0 1 0 0] CT
0 4.5 moveto 
1 -1 scale
(Lbfgsb) t 
GR
GR
GS
[0.75 0 0 0.75 0 0.5] CT
1 0 0 RC
[8 3 2 3] 0 setdash
2 LJ
0.667 LW
N
423 167.079 M
453 167.079 L
S
GR
GS
[0.75 0 0 0.75 0 0.5] CT
1 0 0 RC
10.0 ML
N
438.5 172.832 M
442.5 167.5 L
438.5 162.168 L
434.5 167.5 L
cp
S
GR
GS
[0.75 0 0 0.75 342 137.39748] CT
/Helvetica 12 F
GS
[1 0 0 1 0 0] CT
0 4.5 moveto 
1 -1 scale
(Bcflash) t 
GR
GR
GS
[0.75 0 0 0.75 0 0.5] CT
0 1 1 RC
[8 3 2 3] 0 setdash
2 LJ
0.667 LW
N
423 182.53 M
453 182.53 L
S
GR
GS
[0.75 0 0 0.75 0 0.5] CT
0 1 1 RC
10.0 ML
N
438.5 187.832 M
442.5 182.5 L
438.5 177.168 L
434.5 182.5 L
cp
S
GR
GS
[0.75 0 0 0.75 0 0.5] CT
0.149 GC
10.0 ML
0.667 LW
N
419 192 M
419 34 L
528 34 L
528 192 L
cp
S
GR
%%Trailer
%%Pages: 1
%%EOF
