%!PS-Adobe-3.0 EPSF-3.0
%%Creator: (MATLAB, The Mathworks, Inc. Version 9.0.0.341360 \(R2016a\). Operating System: Linux)
%%Title: data/fact1logtoliter.eps
%%CreationDate: 2017-02-04T13:38:30
%%Pages: (atend)
%%BoundingBox:     6     6   397   316
%%LanguageLevel: 3
%%EndComments
%%BeginProlog
%%BeginResource: procset (Apache XML Graphics Std ProcSet) 1.2 0
%%Version: 1.2 0
%%Copyright: (Copyright 2001-2003,2010 The Apache Software Foundation. License terms: http://www.apache.org/licenses/LICENSE-2.0)
/bd{bind def}bind def
/ld{load def}bd
/GR/grestore ld
/M/moveto ld
/LJ/setlinejoin ld
/C/curveto ld
/f/fill ld
/LW/setlinewidth ld
/GC/setgray ld
/t/show ld
/N/newpath ld
/CT/concat ld
/cp/closepath ld
/S/stroke ld
/L/lineto ld
/CC/setcmykcolor ld
/A/ashow ld
/GS/gsave ld
/RC/setrgbcolor ld
/RM/rmoveto ld
/ML/setmiterlimit ld
/re {4 2 roll M
1 index 0 rlineto
0 exch rlineto
neg 0 rlineto
cp } bd
/_ctm matrix def
/_tm matrix def
/BT { _ctm currentmatrix pop matrix _tm copy pop 0 0 moveto } bd
/ET { _ctm setmatrix } bd
/iTm { _ctm setmatrix _tm concat } bd
/Tm { _tm astore pop iTm 0 0 moveto } bd
/ux 0.0 def
/uy 0.0 def
/F {
  /Tp exch def
  /Tf exch def
  Tf findfont Tp scalefont setfont
  /cf Tf def  /cs Tp def
} bd
/ULS {currentpoint /uy exch def /ux exch def} bd
/ULE {
  /Tcx currentpoint pop def
  gsave
  newpath
  cf findfont cs scalefont dup
  /FontMatrix get 0 get /Ts exch def /FontInfo get dup
  /UnderlinePosition get Ts mul /To exch def
  /UnderlineThickness get Ts mul /Tt exch def
  ux uy To add moveto  Tcx uy To add lineto
  Tt setlinewidth stroke
  grestore
} bd
/OLE {
  /Tcx currentpoint pop def
  gsave
  newpath
  cf findfont cs scalefont dup
  /FontMatrix get 0 get /Ts exch def /FontInfo get dup
  /UnderlinePosition get Ts mul /To exch def
  /UnderlineThickness get Ts mul /Tt exch def
  ux uy To add cs add moveto Tcx uy To add cs add lineto
  Tt setlinewidth stroke
  grestore
} bd
/SOE {
  /Tcx currentpoint pop def
  gsave
  newpath
  cf findfont cs scalefont dup
  /FontMatrix get 0 get /Ts exch def /FontInfo get dup
  /UnderlinePosition get Ts mul /To exch def
  /UnderlineThickness get Ts mul /Tt exch def
  ux uy To add cs 10 mul 26 idiv add moveto Tcx uy To add cs 10 mul 26 idiv add lineto
  Tt setlinewidth stroke
  grestore
} bd
/QT {
/Y22 exch store
/X22 exch store
/Y21 exch store
/X21 exch store
currentpoint
/Y21 load 2 mul add 3 div exch
/X21 load 2 mul add 3 div exch
/X21 load 2 mul /X22 load add 3 div
/Y21 load 2 mul /Y22 load add 3 div
/X22 load /Y22 load curveto
} bd
/SSPD {
dup length /d exch dict def
{
/v exch def
/k exch def
currentpagedevice k known {
/cpdv currentpagedevice k get def
v cpdv ne {
/upd false def
/nullv v type /nulltype eq def
/nullcpdv cpdv type /nulltype eq def
nullv nullcpdv or
{
/upd true def
} {
/sametype v type cpdv type eq def
sametype {
v type /arraytype eq {
/vlen v length def
/cpdvlen cpdv length def
vlen cpdvlen eq {
0 1 vlen 1 sub {
/i exch def
/obj v i get def
/cpdobj cpdv i get def
obj cpdobj ne {
/upd true def
exit
} if
} for
} {
/upd true def
} ifelse
} {
v type /dicttype eq {
v {
/dv exch def
/dk exch def
/cpddv cpdv dk get def
dv cpddv ne {
/upd true def
exit
} if
} forall
} {
/upd true def
} ifelse
} ifelse
} if
} ifelse
upd true eq {
d k v put
} if
} if
} if
} forall
d length 0 gt {
d setpagedevice
} if
} bd
%%EndResource
%%BeginResource: procset (Apache XML Graphics EPS ProcSet) 1.0 0
%%Version: 1.0 0
%%Copyright: (Copyright 2002-2003 The Apache Software Foundation. License terms: http://www.apache.org/licenses/LICENSE-2.0)
/BeginEPSF { %def
/b4_Inc_state save def         % Save state for cleanup
/dict_count countdictstack def % Count objects on dict stack
/op_count count 1 sub def      % Count objects on operand stack
userdict begin                 % Push userdict on dict stack
/showpage { } def              % Redefine showpage, { } = null proc
0 setgray 0 setlinecap         % Prepare graphics state
1 setlinewidth 0 setlinejoin
10 setmiterlimit [ ] 0 setdash newpath
/languagelevel where           % If level not equal to 1 then
{pop languagelevel             % set strokeadjust and
1 ne                           % overprint to their defaults.
{false setstrokeadjust false setoverprint
} if
} if
} bd
/EndEPSF { %def
count op_count sub {pop} repeat            % Clean up stacks
countdictstack dict_count sub {end} repeat
b4_Inc_state restore
} bd
%%EndResource
%FOPBeginFontDict
%%IncludeResource: font Courier-Bold
%%IncludeResource: font Helvetica
%%IncludeResource: font Courier-BoldOblique
%%IncludeResource: font Courier-Oblique
%%IncludeResource: font Times-Roman
%%IncludeResource: font Helvetica-BoldOblique
%%IncludeResource: font Helvetica-Bold
%%IncludeResource: font Helvetica-Oblique
%%IncludeResource: font Times-BoldItalic
%%IncludeResource: font Courier
%%IncludeResource: font Times-Italic
%%IncludeResource: font Times-Bold
%%IncludeResource: font Symbol
%%IncludeResource: font ZapfDingbats
%FOPEndFontDict
%%BeginResource: encoding WinAnsiEncoding
/WinAnsiEncoding [
/.notdef /.notdef /.notdef /.notdef /.notdef
/.notdef /.notdef /.notdef /.notdef /.notdef
/.notdef /.notdef /.notdef /.notdef /.notdef
/.notdef /.notdef /.notdef /.notdef /.notdef
/.notdef /.notdef /.notdef /.notdef /.notdef
/.notdef /.notdef /.notdef /.notdef /.notdef
/.notdef /.notdef /space /exclam /quotedbl
/numbersign /dollar /percent /ampersand /quotesingle
/parenleft /parenright /asterisk /plus /comma
/hyphen /period /slash /zero /one
/two /three /four /five /six
/seven /eight /nine /colon /semicolon
/less /equal /greater /question /at
/A /B /C /D /E
/F /G /H /I /J
/K /L /M /N /O
/P /Q /R /S /T
/U /V /W /X /Y
/Z /bracketleft /backslash /bracketright /asciicircum
/underscore /quoteleft /a /b /c
/d /e /f /g /h
/i /j /k /l /m
/n /o /p /q /r
/s /t /u /v /w
/x /y /z /braceleft /bar
/braceright /asciitilde /bullet /Euro /bullet
/quotesinglbase /florin /quotedblbase /ellipsis /dagger
/daggerdbl /circumflex /perthousand /Scaron /guilsinglleft
/OE /bullet /Zcaron /bullet /bullet
/quoteleft /quoteright /quotedblleft /quotedblright /bullet
/endash /emdash /asciitilde /trademark /scaron
/guilsinglright /oe /bullet /zcaron /Ydieresis
/space /exclamdown /cent /sterling /currency
/yen /brokenbar /section /dieresis /copyright
/ordfeminine /guillemotleft /logicalnot /sfthyphen /registered
/macron /degree /plusminus /twosuperior /threesuperior
/acute /mu /paragraph /middot /cedilla
/onesuperior /ordmasculine /guillemotright /onequarter /onehalf
/threequarters /questiondown /Agrave /Aacute /Acircumflex
/Atilde /Adieresis /Aring /AE /Ccedilla
/Egrave /Eacute /Ecircumflex /Edieresis /Igrave
/Iacute /Icircumflex /Idieresis /Eth /Ntilde
/Ograve /Oacute /Ocircumflex /Otilde /Odieresis
/multiply /Oslash /Ugrave /Uacute /Ucircumflex
/Udieresis /Yacute /Thorn /germandbls /agrave
/aacute /acircumflex /atilde /adieresis /aring
/ae /ccedilla /egrave /eacute /ecircumflex
/edieresis /igrave /iacute /icircumflex /idieresis
/eth /ntilde /ograve /oacute /ocircumflex
/otilde /odieresis /divide /oslash /ugrave
/uacute /ucircumflex /udieresis /yacute /thorn
/ydieresis
] def
%%EndResource
%FOPBeginFontReencode
/Courier-Bold findfont
dup length dict begin
  {1 index /FID ne {def} {pop pop} ifelse} forall
  /Encoding WinAnsiEncoding def
  currentdict
end
/Courier-Bold exch definefont pop
/Helvetica findfont
dup length dict begin
  {1 index /FID ne {def} {pop pop} ifelse} forall
  /Encoding WinAnsiEncoding def
  currentdict
end
/Helvetica exch definefont pop
/Courier-BoldOblique findfont
dup length dict begin
  {1 index /FID ne {def} {pop pop} ifelse} forall
  /Encoding WinAnsiEncoding def
  currentdict
end
/Courier-BoldOblique exch definefont pop
/Courier-Oblique findfont
dup length dict begin
  {1 index /FID ne {def} {pop pop} ifelse} forall
  /Encoding WinAnsiEncoding def
  currentdict
end
/Courier-Oblique exch definefont pop
/Times-Roman findfont
dup length dict begin
  {1 index /FID ne {def} {pop pop} ifelse} forall
  /Encoding WinAnsiEncoding def
  currentdict
end
/Times-Roman exch definefont pop
/Helvetica-BoldOblique findfont
dup length dict begin
  {1 index /FID ne {def} {pop pop} ifelse} forall
  /Encoding WinAnsiEncoding def
  currentdict
end
/Helvetica-BoldOblique exch definefont pop
/Helvetica-Bold findfont
dup length dict begin
  {1 index /FID ne {def} {pop pop} ifelse} forall
  /Encoding WinAnsiEncoding def
  currentdict
end
/Helvetica-Bold exch definefont pop
/Helvetica-Oblique findfont
dup length dict begin
  {1 index /FID ne {def} {pop pop} ifelse} forall
  /Encoding WinAnsiEncoding def
  currentdict
end
/Helvetica-Oblique exch definefont pop
/Times-BoldItalic findfont
dup length dict begin
  {1 index /FID ne {def} {pop pop} ifelse} forall
  /Encoding WinAnsiEncoding def
  currentdict
end
/Times-BoldItalic exch definefont pop
/Courier findfont
dup length dict begin
  {1 index /FID ne {def} {pop pop} ifelse} forall
  /Encoding WinAnsiEncoding def
  currentdict
end
/Courier exch definefont pop
/Times-Italic findfont
dup length dict begin
  {1 index /FID ne {def} {pop pop} ifelse} forall
  /Encoding WinAnsiEncoding def
  currentdict
end
/Times-Italic exch definefont pop
/Times-Bold findfont
dup length dict begin
  {1 index /FID ne {def} {pop pop} ifelse} forall
  /Encoding WinAnsiEncoding def
  currentdict
end
/Times-Bold exch definefont pop
%FOPEndFontReencode
%%EndProlog
%%Page: 1 1
%%PageBoundingBox: 0 0 428 338
%%BeginPageSetup
[1 0 0 -1 0 338] CT
%%EndPageSetup
GS
[0.75 0 0 0.75 0 0.5] CT
N
0 0 M
570 0 L
570 450 L
0 450 L
0 0 L
cp
clip
1 GC
N
0 0 570 450 re
f
GR
GS
[0.75 0 0 0.75 0 0.5] CT
1 GC
N
0 0 570 450 re
f
GR
GS
[0.75 0 0 0.75 0 0.5] CT
1 GC
N
57 400 M
397 400 L
397 34 L
57 34 L
cp
f
GR
GS
[0.75 0 0 0.75 0 0.5] CT
0.149 GC
2 setlinecap
1 LJ
0.667 LW
N
57 400 M
397 400 L
S
GR
GS
[0.75 0 0 0.75 0 0.5] CT
0.149 GC
2 setlinecap
1 LJ
0.667 LW
N
57 34 M
397 34 L
S
GR
GS
[0.75 0 0 0.75 0 0.5] CT
0.149 GC
2 setlinecap
1 LJ
0.667 LW
N
94.778 400 M
94.778 396.34 L
S
GR
GS
[0.75 0 0 0.75 0 0.5] CT
0.149 GC
2 setlinecap
1 LJ
0.667 LW
N
170.333 400 M
170.333 396.34 L
S
GR
GS
[0.75 0 0 0.75 0 0.5] CT
0.149 GC
2 setlinecap
1 LJ
0.667 LW
N
245.889 400 M
245.889 396.34 L
S
GR
GS
[0.75 0 0 0.75 0 0.5] CT
0.149 GC
2 setlinecap
1 LJ
0.667 LW
N
321.444 400 M
321.444 396.34 L
S
GR
GS
[0.75 0 0 0.75 0 0.5] CT
0.149 GC
2 setlinecap
1 LJ
0.667 LW
N
397 400 M
397 396.34 L
S
GR
GS
[0.75 0 0 0.75 0 0.5] CT
0.149 GC
2 setlinecap
1 LJ
0.667 LW
N
94.778 34 M
94.778 37.66 L
S
GR
GS
[0.75 0 0 0.75 0 0.5] CT
0.149 GC
2 setlinecap
1 LJ
0.667 LW
N
170.333 34 M
170.333 37.66 L
S
GR
GS
[0.75 0 0 0.75 0 0.5] CT
0.149 GC
2 setlinecap
1 LJ
0.667 LW
N
245.889 34 M
245.889 37.66 L
S
GR
GS
[0.75 0 0 0.75 0 0.5] CT
0.149 GC
2 setlinecap
1 LJ
0.667 LW
N
321.444 34 M
321.444 37.66 L
S
GR
GS
[0.75 0 0 0.75 0 0.5] CT
0.149 GC
2 setlinecap
1 LJ
0.667 LW
N
397 34 M
397 37.66 L
S
GR
GS
[0.75 0 0 0.75 71.08333 304.50001] CT
0.149 GC
/Helvetica 13.333 F
GS
[1 0 0 1 0 0] CT
-4.5 13 moveto 
1 -1 scale
(2) t 
GR
GR
GS
[0.75 0 0 0.75 127.75001 304.50001] CT
0.149 GC
/Helvetica 13.333 F
GS
[1 0 0 1 0 0] CT
-4.5 13 moveto 
1 -1 scale
(4) t 
GR
GR
GS
[0.75 0 0 0.75 184.41668 304.50001] CT
0.149 GC
/Helvetica 13.333 F
GS
[1 0 0 1 0 0] CT
-4.5 13 moveto 
1 -1 scale
(6) t 
GR
GR
GS
[0.75 0 0 0.75 241.08334 304.50001] CT
0.149 GC
/Helvetica 13.333 F
GS
[1 0 0 1 0 0] CT
-4.5 13 moveto 
1 -1 scale
(8) t 
GR
GR
GS
[0.75 0 0 0.75 297.75 304.50001] CT
0.149 GC
/Helvetica 13.333 F
GS
[1 0 0 1 0 0] CT
-8.5 13 moveto 
1 -1 scale
(10) t 
GR
GR
GS
[0.75 0 0 0.75 170.25013 318.24999] CT
0.149 GC
/Helvetica 14.667 F
GS
[1 0 0 1 0 0] CT
-30 14 moveto 
1 -1 scale
(-log\(tol\)) t 
GR
GR
GS
[0.75 0 0 0.75 0 0.5] CT
0.149 GC
2 setlinecap
1 LJ
0.667 LW
N
57 400 M
57 34 L
S
GR
GS
[0.75 0 0 0.75 0 0.5] CT
0.149 GC
2 setlinecap
1 LJ
0.667 LW
N
397 400 M
397 34 L
S
GR
GS
[0.75 0 0 0.75 0 0.5] CT
0.149 GC
2 setlinecap
1 LJ
0.667 LW
N
57 400 M
60.66 400 L
S
GR
GS
[0.75 0 0 0.75 0 0.5] CT
0.149 GC
2 setlinecap
1 LJ
0.667 LW
N
57 264.173 M
60.66 264.173 L
S
GR
GS
[0.75 0 0 0.75 0 0.5] CT
0.149 GC
2 setlinecap
1 LJ
0.667 LW
N
57 128.346 M
60.66 128.346 L
S
GR
GS
[0.75 0 0 0.75 0 0.5] CT
0.149 GC
2 setlinecap
1 LJ
0.667 LW
N
397 400 M
393.34 400 L
S
GR
GS
[0.75 0 0 0.75 0 0.5] CT
0.149 GC
2 setlinecap
1 LJ
0.667 LW
N
397 264.173 M
393.34 264.173 L
S
GR
GS
[0.75 0 0 0.75 0 0.5] CT
0.149 GC
2 setlinecap
1 LJ
0.667 LW
N
397 128.346 M
393.34 128.346 L
S
GR
GS
[0.75 0 0 0.75 0 0.5] CT
0.149 GC
2 setlinecap
1 LJ
0.667 LW
N
57 359.112 M
58.83 359.112 L
S
GR
GS
[0.75 0 0 0.75 0 0.5] CT
0.149 GC
2 setlinecap
1 LJ
0.667 LW
N
57 335.194 M
58.83 335.194 L
S
GR
GS
[0.75 0 0 0.75 0 0.5] CT
0.149 GC
2 setlinecap
1 LJ
0.667 LW
N
57 318.224 M
58.83 318.224 L
S
GR
GS
[0.75 0 0 0.75 0 0.5] CT
0.149 GC
2 setlinecap
1 LJ
0.667 LW
N
57 305.061 M
58.83 305.061 L
S
GR
GS
[0.75 0 0 0.75 0 0.5] CT
0.149 GC
2 setlinecap
1 LJ
0.667 LW
N
57 294.306 M
58.83 294.306 L
S
GR
GS
[0.75 0 0 0.75 0 0.5] CT
0.149 GC
2 setlinecap
1 LJ
0.667 LW
N
57 285.213 M
58.83 285.213 L
S
GR
GS
[0.75 0 0 0.75 0 0.5] CT
0.149 GC
2 setlinecap
1 LJ
0.667 LW
N
57 277.336 M
58.83 277.336 L
S
GR
GS
[0.75 0 0 0.75 0 0.5] CT
0.149 GC
2 setlinecap
1 LJ
0.667 LW
N
57 270.388 M
58.83 270.388 L
S
GR
GS
[0.75 0 0 0.75 0 0.5] CT
0.149 GC
2 setlinecap
1 LJ
0.667 LW
N
57 223.285 M
58.83 223.285 L
S
GR
GS
[0.75 0 0 0.75 0 0.5] CT
0.149 GC
2 setlinecap
1 LJ
0.667 LW
N
57 199.367 M
58.83 199.367 L
S
GR
GS
[0.75 0 0 0.75 0 0.5] CT
0.149 GC
2 setlinecap
1 LJ
0.667 LW
N
57 182.397 M
58.83 182.397 L
S
GR
GS
[0.75 0 0 0.75 0 0.5] CT
0.149 GC
2 setlinecap
1 LJ
0.667 LW
N
57 169.234 M
58.83 169.234 L
S
GR
GS
[0.75 0 0 0.75 0 0.5] CT
0.149 GC
2 setlinecap
1 LJ
0.667 LW
N
57 158.479 M
58.83 158.479 L
S
GR
GS
[0.75 0 0 0.75 0 0.5] CT
0.149 GC
2 setlinecap
1 LJ
0.667 LW
N
57 149.386 M
58.83 149.386 L
S
GR
GS
[0.75 0 0 0.75 0 0.5] CT
0.149 GC
2 setlinecap
1 LJ
0.667 LW
N
57 141.509 M
58.83 141.509 L
S
GR
GS
[0.75 0 0 0.75 0 0.5] CT
0.149 GC
2 setlinecap
1 LJ
0.667 LW
N
57 134.561 M
58.83 134.561 L
S
GR
GS
[0.75 0 0 0.75 0 0.5] CT
0.149 GC
2 setlinecap
1 LJ
0.667 LW
N
57 87.458 M
58.83 87.458 L
S
GR
GS
[0.75 0 0 0.75 0 0.5] CT
0.149 GC
2 setlinecap
1 LJ
0.667 LW
N
57 63.54 M
58.83 63.54 L
S
GR
GS
[0.75 0 0 0.75 0 0.5] CT
0.149 GC
2 setlinecap
1 LJ
0.667 LW
N
57 46.57 M
58.83 46.57 L
S
GR
GS
[0.75 0 0 0.75 0 0.5] CT
0.149 GC
2 setlinecap
1 LJ
0.667 LW
N
397 359.112 M
395.17 359.112 L
S
GR
GS
[0.75 0 0 0.75 0 0.5] CT
0.149 GC
2 setlinecap
1 LJ
0.667 LW
N
397 335.194 M
395.17 335.194 L
S
GR
GS
[0.75 0 0 0.75 0 0.5] CT
0.149 GC
2 setlinecap
1 LJ
0.667 LW
N
397 318.224 M
395.17 318.224 L
S
GR
GS
[0.75 0 0 0.75 0 0.5] CT
0.149 GC
2 setlinecap
1 LJ
0.667 LW
N
397 305.061 M
395.17 305.061 L
S
GR
GS
[0.75 0 0 0.75 0 0.5] CT
0.149 GC
2 setlinecap
1 LJ
0.667 LW
N
397 294.306 M
395.17 294.306 L
S
GR
GS
[0.75 0 0 0.75 0 0.5] CT
0.149 GC
2 setlinecap
1 LJ
0.667 LW
N
397 285.213 M
395.17 285.213 L
S
GR
GS
[0.75 0 0 0.75 0 0.5] CT
0.149 GC
2 setlinecap
1 LJ
0.667 LW
N
397 277.336 M
395.17 277.336 L
S
GR
GS
[0.75 0 0 0.75 0 0.5] CT
0.149 GC
2 setlinecap
1 LJ
0.667 LW
N
397 270.388 M
395.17 270.388 L
S
GR
GS
[0.75 0 0 0.75 0 0.5] CT
0.149 GC
2 setlinecap
1 LJ
0.667 LW
N
397 223.285 M
395.17 223.285 L
S
GR
GS
[0.75 0 0 0.75 0 0.5] CT
0.149 GC
2 setlinecap
1 LJ
0.667 LW
N
397 199.367 M
395.17 199.367 L
S
GR
GS
[0.75 0 0 0.75 0 0.5] CT
0.149 GC
2 setlinecap
1 LJ
0.667 LW
N
397 182.397 M
395.17 182.397 L
S
GR
GS
[0.75 0 0 0.75 0 0.5] CT
0.149 GC
2 setlinecap
1 LJ
0.667 LW
N
397 169.234 M
395.17 169.234 L
S
GR
GS
[0.75 0 0 0.75 0 0.5] CT
0.149 GC
2 setlinecap
1 LJ
0.667 LW
N
397 158.479 M
395.17 158.479 L
S
GR
GS
[0.75 0 0 0.75 0 0.5] CT
0.149 GC
2 setlinecap
1 LJ
0.667 LW
N
397 149.386 M
395.17 149.386 L
S
GR
GS
[0.75 0 0 0.75 0 0.5] CT
0.149 GC
2 setlinecap
1 LJ
0.667 LW
N
397 141.509 M
395.17 141.509 L
S
GR
GS
[0.75 0 0 0.75 0 0.5] CT
0.149 GC
2 setlinecap
1 LJ
0.667 LW
N
397 134.561 M
395.17 134.561 L
S
GR
GS
[0.75 0 0 0.75 0 0.5] CT
0.149 GC
2 setlinecap
1 LJ
0.667 LW
N
397 87.458 M
395.17 87.458 L
S
GR
GS
[0.75 0 0 0.75 0 0.5] CT
0.149 GC
2 setlinecap
1 LJ
0.667 LW
N
397 63.54 M
395.17 63.54 L
S
GR
GS
[0.75 0 0 0.75 0 0.5] CT
0.149 GC
2 setlinecap
1 LJ
0.667 LW
N
397 46.57 M
395.17 46.57 L
S
GR
GS
[0.75 0 0 0.75 21 305.75] CT
0.149 GC
/Helvetica 13.333 F
GS
[1 0 0 1 0 0] CT
0 0 moveto 
1 -1 scale
(10) t 
GR
GR
GS
[0.75 0 0 0.75 33.75 301.25] CT
0.149 GC
/Helvetica 10.667 F
GS
[1 0 0 1 0 0] CT
0 0 moveto 
1 -1 scale
(0) t 
GR
GR
GS
[0.75 0 0 0.75 21 203.75] CT
0.149 GC
/Helvetica 13.333 F
GS
[1 0 0 1 0 0] CT
0 0 moveto 
1 -1 scale
(10) t 
GR
GR
GS
[0.75 0 0 0.75 33.75 199.25] CT
0.149 GC
/Helvetica 10.667 F
GS
[1 0 0 1 0 0] CT
0 0 moveto 
1 -1 scale
(1) t 
GR
GR
GS
[0.75 0 0 0.75 21 101.75] CT
0.149 GC
/Helvetica 13.333 F
GS
[1 0 0 1 0 0] CT
0 0 moveto 
1 -1 scale
(10) t 
GR
GR
GS
[0.75 0 0 0.75 33.75 97.25] CT
0.149 GC
/Helvetica 10.667 F
GS
[1 0 0 1 0 0] CT
0 0 moveto 
1 -1 scale
(2) t 
GR
GR
GS
[0 -0.75 0.75 0 17.75 163.24987] CT
0.149 GC
/Helvetica 14.667 F
GS
[1 0 0 1 0 0] CT
-19.5 -4 moveto 
1 -1 scale
(#iter) t 
GR
GR
GS
[0.75 0 0 0.75 0 0.5] CT
0 0 1 RC
1 LJ
0.667 LW
N
57 400 M
94.778 400 L
132.556 335.194 L
170.333 335.194 L
208.111 335.194 L
245.889 335.194 L
283.667 335.194 L
321.444 335.194 L
359.222 335.194 L
397 335.194 L
S
GR
GS
[0.75 0 0 0.75 0 0.5] CT
0 0 1 RC
1 LJ
N
61.5 399.5 M
60.736 397.149 L
58.736 395.696 L
56.264 395.696 L
54.264 397.149 L
53.5 399.5 L
54.264 401.851 L
56.264 403.304 L
58.736 403.304 L
60.736 401.851 L
cp
S
GR
GS
[0.75 0 0 0.75 0 0.5] CT
0 0 1 RC
1 LJ
N
98.5 399.5 M
97.736 397.149 L
95.736 395.696 L
93.264 395.696 L
91.264 397.149 L
90.5 399.5 L
91.264 401.851 L
93.264 403.304 L
95.736 403.304 L
97.736 401.851 L
cp
S
GR
GS
[0.75 0 0 0.75 0 0.5] CT
0 0 1 RC
1 LJ
N
136.5 335.5 M
135.736 333.149 L
133.736 331.696 L
131.264 331.696 L
129.264 333.149 L
128.5 335.5 L
129.264 337.851 L
131.264 339.304 L
133.736 339.304 L
135.736 337.851 L
cp
S
GR
GS
[0.75 0 0 0.75 0 0.5] CT
0 0 1 RC
1 LJ
N
174.5 335.5 M
173.736 333.149 L
171.736 331.696 L
169.264 331.696 L
167.264 333.149 L
166.5 335.5 L
167.264 337.851 L
169.264 339.304 L
171.736 339.304 L
173.736 337.851 L
cp
S
GR
GS
[0.75 0 0 0.75 0 0.5] CT
0 0 1 RC
1 LJ
N
212.5 335.5 M
211.736 333.149 L
209.736 331.696 L
207.264 331.696 L
205.264 333.149 L
204.5 335.5 L
205.264 337.851 L
207.264 339.304 L
209.736 339.304 L
211.736 337.851 L
cp
S
GR
GS
[0.75 0 0 0.75 0 0.5] CT
0 0 1 RC
1 LJ
N
249.5 335.5 M
248.736 333.149 L
246.736 331.696 L
244.264 331.696 L
242.264 333.149 L
241.5 335.5 L
242.264 337.851 L
244.264 339.304 L
246.736 339.304 L
248.736 337.851 L
cp
S
GR
GS
[0.75 0 0 0.75 0 0.5] CT
0 0 1 RC
1 LJ
N
287.5 335.5 M
286.736 333.149 L
284.736 331.696 L
282.264 331.696 L
280.264 333.149 L
279.5 335.5 L
280.264 337.851 L
282.264 339.304 L
284.736 339.304 L
286.736 337.851 L
cp
S
GR
GS
[0.75 0 0 0.75 0 0.5] CT
0 0 1 RC
1 LJ
N
325.5 335.5 M
324.736 333.149 L
322.736 331.696 L
320.264 331.696 L
318.264 333.149 L
317.5 335.5 L
318.264 337.851 L
320.264 339.304 L
322.736 339.304 L
324.736 337.851 L
cp
S
GR
GS
[0.75 0 0 0.75 0 0.5] CT
0 0 1 RC
1 LJ
N
363.5 335.5 M
362.736 333.149 L
360.736 331.696 L
358.264 331.696 L
356.264 333.149 L
355.5 335.5 L
356.264 337.851 L
358.264 339.304 L
360.736 339.304 L
362.736 337.851 L
cp
S
GR
GS
[0.75 0 0 0.75 0 0.5] CT
0 0 1 RC
1 LJ
N
401.5 335.5 M
400.736 333.149 L
398.736 331.696 L
396.264 331.696 L
394.264 333.149 L
393.5 335.5 L
394.264 337.851 L
396.264 339.304 L
398.736 339.304 L
400.736 337.851 L
cp
S
GR
GS
[0.75 0 0 0.75 0 0.5] CT
0 1 0 RC
1 LJ
0.667 LW
N
57 400 M
94.778 400 L
132.556 335.194 L
170.333 335.194 L
208.111 335.194 L
245.889 335.194 L
283.667 335.194 L
321.444 335.194 L
359.222 335.194 L
397 335.194 L
S
GR
GS
[0.75 0 0 0.75 0 0.5] CT
0 1 0 RC
1 LJ
N
61.5 399.5 M
60.736 397.149 L
58.736 395.696 L
56.264 395.696 L
54.264 397.149 L
53.5 399.5 L
54.264 401.851 L
56.264 403.304 L
58.736 403.304 L
60.736 401.851 L
cp
S
GR
GS
[0.75 0 0 0.75 0 0.5] CT
0 1 0 RC
1 LJ
N
98.5 399.5 M
97.736 397.149 L
95.736 395.696 L
93.264 395.696 L
91.264 397.149 L
90.5 399.5 L
91.264 401.851 L
93.264 403.304 L
95.736 403.304 L
97.736 401.851 L
cp
S
GR
GS
[0.75 0 0 0.75 0 0.5] CT
0 1 0 RC
1 LJ
N
136.5 335.5 M
135.736 333.149 L
133.736 331.696 L
131.264 331.696 L
129.264 333.149 L
128.5 335.5 L
129.264 337.851 L
131.264 339.304 L
133.736 339.304 L
135.736 337.851 L
cp
S
GR
GS
[0.75 0 0 0.75 0 0.5] CT
0 1 0 RC
1 LJ
N
174.5 335.5 M
173.736 333.149 L
171.736 331.696 L
169.264 331.696 L
167.264 333.149 L
166.5 335.5 L
167.264 337.851 L
169.264 339.304 L
171.736 339.304 L
173.736 337.851 L
cp
S
GR
GS
[0.75 0 0 0.75 0 0.5] CT
0 1 0 RC
1 LJ
N
212.5 335.5 M
211.736 333.149 L
209.736 331.696 L
207.264 331.696 L
205.264 333.149 L
204.5 335.5 L
205.264 337.851 L
207.264 339.304 L
209.736 339.304 L
211.736 337.851 L
cp
S
GR
GS
[0.75 0 0 0.75 0 0.5] CT
0 1 0 RC
1 LJ
N
249.5 335.5 M
248.736 333.149 L
246.736 331.696 L
244.264 331.696 L
242.264 333.149 L
241.5 335.5 L
242.264 337.851 L
244.264 339.304 L
246.736 339.304 L
248.736 337.851 L
cp
S
GR
GS
[0.75 0 0 0.75 0 0.5] CT
0 1 0 RC
1 LJ
N
287.5 335.5 M
286.736 333.149 L
284.736 331.696 L
282.264 331.696 L
280.264 333.149 L
279.5 335.5 L
280.264 337.851 L
282.264 339.304 L
284.736 339.304 L
286.736 337.851 L
cp
S
GR
GS
[0.75 0 0 0.75 0 0.5] CT
0 1 0 RC
1 LJ
N
325.5 335.5 M
324.736 333.149 L
322.736 331.696 L
320.264 331.696 L
318.264 333.149 L
317.5 335.5 L
318.264 337.851 L
320.264 339.304 L
322.736 339.304 L
324.736 337.851 L
cp
S
GR
GS
[0.75 0 0 0.75 0 0.5] CT
0 1 0 RC
1 LJ
N
363.5 335.5 M
362.736 333.149 L
360.736 331.696 L
358.264 331.696 L
356.264 333.149 L
355.5 335.5 L
356.264 337.851 L
358.264 339.304 L
360.736 339.304 L
362.736 337.851 L
cp
S
GR
GS
[0.75 0 0 0.75 0 0.5] CT
0 1 0 RC
1 LJ
N
401.5 335.5 M
400.736 333.149 L
398.736 331.696 L
396.264 331.696 L
394.264 333.149 L
393.5 335.5 L
394.264 337.851 L
396.264 339.304 L
398.736 339.304 L
400.736 337.851 L
cp
S
GR
GS
[0.75 0 0 0.75 0 0.5] CT
1 0 0 RC
1 LJ
0.667 LW
N
57 258.551 M
94.778 232.872 L
132.556 258.551 L
170.333 318.224 L
208.111 335.194 L
245.889 359.112 L
283.667 359.112 L
321.444 359.112 L
359.222 359.112 L
397 359.112 L
S
GR
GS
[0.75 0 0 0.75 0 0.5] CT
1 0 0 RC
1 LJ
N
61.5 258.5 M
60.736 256.149 L
58.736 254.696 L
56.264 254.696 L
54.264 256.149 L
53.5 258.5 L
54.264 260.851 L
56.264 262.304 L
58.736 262.304 L
60.736 260.851 L
cp
S
GR
GS
[0.75 0 0 0.75 0 0.5] CT
1 0 0 RC
1 LJ
N
98.5 232.5 M
97.736 230.149 L
95.736 228.696 L
93.264 228.696 L
91.264 230.149 L
90.5 232.5 L
91.264 234.851 L
93.264 236.304 L
95.736 236.304 L
97.736 234.851 L
cp
S
GR
GS
[0.75 0 0 0.75 0 0.5] CT
1 0 0 RC
1 LJ
N
136.5 258.5 M
135.736 256.149 L
133.736 254.696 L
131.264 254.696 L
129.264 256.149 L
128.5 258.5 L
129.264 260.851 L
131.264 262.304 L
133.736 262.304 L
135.736 260.851 L
cp
S
GR
GS
[0.75 0 0 0.75 0 0.5] CT
1 0 0 RC
1 LJ
N
174.5 318.5 M
173.736 316.149 L
171.736 314.696 L
169.264 314.696 L
167.264 316.149 L
166.5 318.5 L
167.264 320.851 L
169.264 322.304 L
171.736 322.304 L
173.736 320.851 L
cp
S
GR
GS
[0.75 0 0 0.75 0 0.5] CT
1 0 0 RC
1 LJ
N
212.5 335.5 M
211.736 333.149 L
209.736 331.696 L
207.264 331.696 L
205.264 333.149 L
204.5 335.5 L
205.264 337.851 L
207.264 339.304 L
209.736 339.304 L
211.736 337.851 L
cp
S
GR
GS
[0.75 0 0 0.75 0 0.5] CT
1 0 0 RC
1 LJ
N
249.5 359.5 M
248.736 357.149 L
246.736 355.696 L
244.264 355.696 L
242.264 357.149 L
241.5 359.5 L
242.264 361.851 L
244.264 363.304 L
246.736 363.304 L
248.736 361.851 L
cp
S
GR
GS
[0.75 0 0 0.75 0 0.5] CT
1 0 0 RC
1 LJ
N
287.5 359.5 M
286.736 357.149 L
284.736 355.696 L
282.264 355.696 L
280.264 357.149 L
279.5 359.5 L
280.264 361.851 L
282.264 363.304 L
284.736 363.304 L
286.736 361.851 L
cp
S
GR
GS
[0.75 0 0 0.75 0 0.5] CT
1 0 0 RC
1 LJ
N
325.5 359.5 M
324.736 357.149 L
322.736 355.696 L
320.264 355.696 L
318.264 357.149 L
317.5 359.5 L
318.264 361.851 L
320.264 363.304 L
322.736 363.304 L
324.736 361.851 L
cp
S
GR
GS
[0.75 0 0 0.75 0 0.5] CT
1 0 0 RC
1 LJ
N
363.5 359.5 M
362.736 357.149 L
360.736 355.696 L
358.264 355.696 L
356.264 357.149 L
355.5 359.5 L
356.264 361.851 L
358.264 363.304 L
360.736 363.304 L
362.736 361.851 L
cp
S
GR
GS
[0.75 0 0 0.75 0 0.5] CT
1 0 0 RC
1 LJ
N
401.5 359.5 M
400.736 357.149 L
398.736 355.696 L
396.264 355.696 L
394.264 357.149 L
393.5 359.5 L
394.264 361.851 L
396.264 363.304 L
398.736 363.304 L
400.736 361.851 L
cp
S
GR
GS
[0.75 0 0 0.75 0 0.5] CT
0 1 1 RC
1 LJ
0.667 LW
N
57 98.449 M
94.778 34 L
132.556 111.969 L
170.333 264.173 L
208.111 305.061 L
245.889 335.194 L
283.667 335.194 L
321.444 359.112 L
359.222 359.112 L
397 359.112 L
S
GR
GS
[0.75 0 0 0.75 0 0.5] CT
0 1 1 RC
1 LJ
N
61.5 98.5 M
60.736 96.149 L
58.736 94.696 L
56.264 94.696 L
54.264 96.149 L
53.5 98.5 L
54.264 100.851 L
56.264 102.304 L
58.736 102.304 L
60.736 100.851 L
cp
S
GR
GS
[0.75 0 0 0.75 0 0.5] CT
0 1 1 RC
1 LJ
N
98.5 33.5 M
97.736 31.149 L
95.736 29.696 L
93.264 29.696 L
91.264 31.149 L
90.5 33.5 L
91.264 35.851 L
93.264 37.304 L
95.736 37.304 L
97.736 35.851 L
cp
S
GR
GS
[0.75 0 0 0.75 0 0.5] CT
0 1 1 RC
1 LJ
N
136.5 111.5 M
135.736 109.149 L
133.736 107.696 L
131.264 107.696 L
129.264 109.149 L
128.5 111.5 L
129.264 113.851 L
131.264 115.304 L
133.736 115.304 L
135.736 113.851 L
cp
S
GR
GS
[0.75 0 0 0.75 0 0.5] CT
0 1 1 RC
1 LJ
N
174.5 264.5 M
173.736 262.149 L
171.736 260.696 L
169.264 260.696 L
167.264 262.149 L
166.5 264.5 L
167.264 266.851 L
169.264 268.304 L
171.736 268.304 L
173.736 266.851 L
cp
S
GR
GS
[0.75 0 0 0.75 0 0.5] CT
0 1 1 RC
1 LJ
N
212.5 305.5 M
211.736 303.149 L
209.736 301.696 L
207.264 301.696 L
205.264 303.149 L
204.5 305.5 L
205.264 307.851 L
207.264 309.304 L
209.736 309.304 L
211.736 307.851 L
cp
S
GR
GS
[0.75 0 0 0.75 0 0.5] CT
0 1 1 RC
1 LJ
N
249.5 335.5 M
248.736 333.149 L
246.736 331.696 L
244.264 331.696 L
242.264 333.149 L
241.5 335.5 L
242.264 337.851 L
244.264 339.304 L
246.736 339.304 L
248.736 337.851 L
cp
S
GR
GS
[0.75 0 0 0.75 0 0.5] CT
0 1 1 RC
1 LJ
N
287.5 335.5 M
286.736 333.149 L
284.736 331.696 L
282.264 331.696 L
280.264 333.149 L
279.5 335.5 L
280.264 337.851 L
282.264 339.304 L
284.736 339.304 L
286.736 337.851 L
cp
S
GR
GS
[0.75 0 0 0.75 0 0.5] CT
0 1 1 RC
1 LJ
N
325.5 359.5 M
324.736 357.149 L
322.736 355.696 L
320.264 355.696 L
318.264 357.149 L
317.5 359.5 L
318.264 361.851 L
320.264 363.304 L
322.736 363.304 L
324.736 361.851 L
cp
S
GR
GS
[0.75 0 0 0.75 0 0.5] CT
0 1 1 RC
1 LJ
N
363.5 359.5 M
362.736 357.149 L
360.736 355.696 L
358.264 355.696 L
356.264 357.149 L
355.5 359.5 L
356.264 361.851 L
358.264 363.304 L
360.736 363.304 L
362.736 361.851 L
cp
S
GR
GS
[0.75 0 0 0.75 0 0.5] CT
0 1 1 RC
1 LJ
N
401.5 359.5 M
400.736 357.149 L
398.736 355.696 L
396.264 355.696 L
394.264 357.149 L
393.5 359.5 L
394.264 361.851 L
396.264 363.304 L
398.736 363.304 L
400.736 361.851 L
cp
S
GR
GS
[0.75 0 0 0.75 0 0.5] CT
1 0 1 RC
1 LJ
0.667 LW
N
57 248.696 M
94.778 229.5 L
132.556 248.696 L
170.333 305.061 L
208.111 318.224 L
245.889 335.194 L
283.667 335.194 L
321.444 335.194 L
359.222 335.194 L
397 335.194 L
S
GR
GS
[0.75 0 0 0.75 0 0.5] CT
1 0 1 RC
1 LJ
N
61.5 248.5 M
60.736 246.149 L
58.736 244.696 L
56.264 244.696 L
54.264 246.149 L
53.5 248.5 L
54.264 250.851 L
56.264 252.304 L
58.736 252.304 L
60.736 250.851 L
cp
S
GR
GS
[0.75 0 0 0.75 0 0.5] CT
1 0 1 RC
1 LJ
N
98.5 229.5 M
97.736 227.149 L
95.736 225.696 L
93.264 225.696 L
91.264 227.149 L
90.5 229.5 L
91.264 231.851 L
93.264 233.304 L
95.736 233.304 L
97.736 231.851 L
cp
S
GR
GS
[0.75 0 0 0.75 0 0.5] CT
1 0 1 RC
1 LJ
N
136.5 248.5 M
135.736 246.149 L
133.736 244.696 L
131.264 244.696 L
129.264 246.149 L
128.5 248.5 L
129.264 250.851 L
131.264 252.304 L
133.736 252.304 L
135.736 250.851 L
cp
S
GR
GS
[0.75 0 0 0.75 0 0.5] CT
1 0 1 RC
1 LJ
N
174.5 305.5 M
173.736 303.149 L
171.736 301.696 L
169.264 301.696 L
167.264 303.149 L
166.5 305.5 L
167.264 307.851 L
169.264 309.304 L
171.736 309.304 L
173.736 307.851 L
cp
S
GR
GS
[0.75 0 0 0.75 0 0.5] CT
1 0 1 RC
1 LJ
N
212.5 318.5 M
211.736 316.149 L
209.736 314.696 L
207.264 314.696 L
205.264 316.149 L
204.5 318.5 L
205.264 320.851 L
207.264 322.304 L
209.736 322.304 L
211.736 320.851 L
cp
S
GR
GS
[0.75 0 0 0.75 0 0.5] CT
1 0 1 RC
1 LJ
N
249.5 335.5 M
248.736 333.149 L
246.736 331.696 L
244.264 331.696 L
242.264 333.149 L
241.5 335.5 L
242.264 337.851 L
244.264 339.304 L
246.736 339.304 L
248.736 337.851 L
cp
S
GR
GS
[0.75 0 0 0.75 0 0.5] CT
1 0 1 RC
1 LJ
N
287.5 335.5 M
286.736 333.149 L
284.736 331.696 L
282.264 331.696 L
280.264 333.149 L
279.5 335.5 L
280.264 337.851 L
282.264 339.304 L
284.736 339.304 L
286.736 337.851 L
cp
S
GR
GS
[0.75 0 0 0.75 0 0.5] CT
1 0 1 RC
1 LJ
N
325.5 335.5 M
324.736 333.149 L
322.736 331.696 L
320.264 331.696 L
318.264 333.149 L
317.5 335.5 L
318.264 337.851 L
320.264 339.304 L
322.736 339.304 L
324.736 337.851 L
cp
S
GR
GS
[0.75 0 0 0.75 0 0.5] CT
1 0 1 RC
1 LJ
N
363.5 335.5 M
362.736 333.149 L
360.736 331.696 L
358.264 331.696 L
356.264 333.149 L
355.5 335.5 L
356.264 337.851 L
358.264 339.304 L
360.736 339.304 L
362.736 337.851 L
cp
S
GR
GS
[0.75 0 0 0.75 0 0.5] CT
1 0 1 RC
1 LJ
N
401.5 335.5 M
400.736 333.149 L
398.736 331.696 L
396.264 331.696 L
394.264 333.149 L
393.5 335.5 L
394.264 337.851 L
396.264 339.304 L
398.736 339.304 L
400.736 337.851 L
cp
S
GR
GS
[0.75 0 0 0.75 0 0.5] CT
1 LJ
0.667 LW
N
57 203.437 M
94.778 141.509 L
132.556 140.053 L
170.333 113.325 L
208.111 106.428 L
245.889 98.806 L
283.667 86.871 L
321.444 86.58 L
359.222 86.58 L
397 86.58 L
S
GR
GS
[0.75 0 0 0.75 0 0.5] CT
1 LJ
N
61.5 203.5 M
60.736 201.149 L
58.736 199.696 L
56.264 199.696 L
54.264 201.149 L
53.5 203.5 L
54.264 205.851 L
56.264 207.304 L
58.736 207.304 L
60.736 205.851 L
cp
S
GR
GS
[0.75 0 0 0.75 0 0.5] CT
1 LJ
N
98.5 141.5 M
97.736 139.149 L
95.736 137.696 L
93.264 137.696 L
91.264 139.149 L
90.5 141.5 L
91.264 143.851 L
93.264 145.304 L
95.736 145.304 L
97.736 143.851 L
cp
S
GR
GS
[0.75 0 0 0.75 0 0.5] CT
1 LJ
N
136.5 140.5 M
135.736 138.149 L
133.736 136.696 L
131.264 136.696 L
129.264 138.149 L
128.5 140.5 L
129.264 142.851 L
131.264 144.304 L
133.736 144.304 L
135.736 142.851 L
cp
S
GR
GS
[0.75 0 0 0.75 0 0.5] CT
1 LJ
N
174.5 113.5 M
173.736 111.149 L
171.736 109.696 L
169.264 109.696 L
167.264 111.149 L
166.5 113.5 L
167.264 115.851 L
169.264 117.304 L
171.736 117.304 L
173.736 115.851 L
cp
S
GR
GS
[0.75 0 0 0.75 0 0.5] CT
1 LJ
N
212.5 106.5 M
211.736 104.149 L
209.736 102.696 L
207.264 102.696 L
205.264 104.149 L
204.5 106.5 L
205.264 108.851 L
207.264 110.304 L
209.736 110.304 L
211.736 108.851 L
cp
S
GR
GS
[0.75 0 0 0.75 0 0.5] CT
1 LJ
N
249.5 98.5 M
248.736 96.149 L
246.736 94.696 L
244.264 94.696 L
242.264 96.149 L
241.5 98.5 L
242.264 100.851 L
244.264 102.304 L
246.736 102.304 L
248.736 100.851 L
cp
S
GR
GS
[0.75 0 0 0.75 0 0.5] CT
1 LJ
N
287.5 86.5 M
286.736 84.149 L
284.736 82.696 L
282.264 82.696 L
280.264 84.149 L
279.5 86.5 L
280.264 88.851 L
282.264 90.304 L
284.736 90.304 L
286.736 88.851 L
cp
S
GR
GS
[0.75 0 0 0.75 0 0.5] CT
1 LJ
N
325.5 86.5 M
324.736 84.149 L
322.736 82.696 L
320.264 82.696 L
318.264 84.149 L
317.5 86.5 L
318.264 88.851 L
320.264 90.304 L
322.736 90.304 L
324.736 88.851 L
cp
S
GR
GS
[0.75 0 0 0.75 0 0.5] CT
1 LJ
N
363.5 86.5 M
362.736 84.149 L
360.736 82.696 L
358.264 82.696 L
356.264 84.149 L
355.5 86.5 L
356.264 88.851 L
358.264 90.304 L
360.736 90.304 L
362.736 88.851 L
cp
S
GR
GS
[0.75 0 0 0.75 0 0.5] CT
1 LJ
N
401.5 86.5 M
400.736 84.149 L
398.736 82.696 L
396.264 82.696 L
394.264 84.149 L
393.5 86.5 L
394.264 88.851 L
396.264 90.304 L
398.736 90.304 L
400.736 88.851 L
cp
S
GR
GS
[0.75 0 0 0.75 0 0.5] CT
0 0 1 RC
[8 3 2 3] 0 setdash
2 LJ
0.667 LW
N
57 193.745 M
94.778 139.337 L
132.556 122.19 L
170.333 100.991 L
208.111 92.377 L
245.889 84.862 L
283.667 73.591 L
321.444 70.414 L
359.222 70.414 L
397 70.414 L
S
GR
GS
[0.75 0 0 0.75 0 0.5] CT
0 0 1 RC
10.0 ML
N
57.5 198.832 M
61.5 193.5 L
57.5 188.168 L
53.5 193.5 L
cp
S
GR
GS
[0.75 0 0 0.75 0 0.5] CT
0 0 1 RC
10.0 ML
N
94.5 144.832 M
98.5 139.5 L
94.5 134.168 L
90.5 139.5 L
cp
S
GR
GS
[0.75 0 0 0.75 0 0.5] CT
0 0 1 RC
10.0 ML
N
132.5 127.832 M
136.5 122.5 L
132.5 117.168 L
128.5 122.5 L
cp
S
GR
GS
[0.75 0 0 0.75 0 0.5] CT
0 0 1 RC
10.0 ML
N
170.5 105.832 M
174.5 100.5 L
170.5 95.168 L
166.5 100.5 L
cp
S
GR
GS
[0.75 0 0 0.75 0 0.5] CT
0 0 1 RC
10.0 ML
N
208.5 97.832 M
212.5 92.5 L
208.5 87.168 L
204.5 92.5 L
cp
S
GR
GS
[0.75 0 0 0.75 0 0.5] CT
0 0 1 RC
10.0 ML
N
245.5 89.832 M
249.5 84.5 L
245.5 79.168 L
241.5 84.5 L
cp
S
GR
GS
[0.75 0 0 0.75 0 0.5] CT
0 0 1 RC
10.0 ML
N
283.5 78.832 M
287.5 73.5 L
283.5 68.168 L
279.5 73.5 L
cp
S
GR
GS
[0.75 0 0 0.75 0 0.5] CT
0 0 1 RC
10.0 ML
N
321.5 75.832 M
325.5 70.5 L
321.5 65.168 L
317.5 70.5 L
cp
S
GR
GS
[0.75 0 0 0.75 0 0.5] CT
0 0 1 RC
10.0 ML
N
359.5 75.832 M
363.5 70.5 L
359.5 65.168 L
355.5 70.5 L
cp
S
GR
GS
[0.75 0 0 0.75 0 0.5] CT
0 0 1 RC
10.0 ML
N
397.5 75.832 M
401.5 70.5 L
397.5 65.168 L
393.5 70.5 L
cp
S
GR
GS
[0.75 0 0 0.75 0 0.5] CT
0 1 0 RC
[8 3 2 3] 0 setdash
2 LJ
0.667 LW
N
57 359.112 M
94.778 359.112 L
132.556 359.112 L
170.333 359.112 L
208.111 359.112 L
245.889 359.112 L
283.667 359.112 L
321.444 335.194 L
359.222 335.194 L
397 335.194 L
S
GR
GS
[0.75 0 0 0.75 0 0.5] CT
0 1 0 RC
10.0 ML
N
57.5 364.832 M
61.5 359.5 L
57.5 354.168 L
53.5 359.5 L
cp
S
GR
GS
[0.75 0 0 0.75 0 0.5] CT
0 1 0 RC
10.0 ML
N
94.5 364.832 M
98.5 359.5 L
94.5 354.168 L
90.5 359.5 L
cp
S
GR
GS
[0.75 0 0 0.75 0 0.5] CT
0 1 0 RC
10.0 ML
N
132.5 364.832 M
136.5 359.5 L
132.5 354.168 L
128.5 359.5 L
cp
S
GR
GS
[0.75 0 0 0.75 0 0.5] CT
0 1 0 RC
10.0 ML
N
170.5 364.832 M
174.5 359.5 L
170.5 354.168 L
166.5 359.5 L
cp
S
GR
GS
[0.75 0 0 0.75 0 0.5] CT
0 1 0 RC
10.0 ML
N
208.5 364.832 M
212.5 359.5 L
208.5 354.168 L
204.5 359.5 L
cp
S
GR
GS
[0.75 0 0 0.75 0 0.5] CT
0 1 0 RC
10.0 ML
N
245.5 364.832 M
249.5 359.5 L
245.5 354.168 L
241.5 359.5 L
cp
S
GR
GS
[0.75 0 0 0.75 0 0.5] CT
0 1 0 RC
10.0 ML
N
283.5 364.832 M
287.5 359.5 L
283.5 354.168 L
279.5 359.5 L
cp
S
GR
GS
[0.75 0 0 0.75 0 0.5] CT
0 1 0 RC
10.0 ML
N
321.5 340.832 M
325.5 335.5 L
321.5 330.168 L
317.5 335.5 L
cp
S
GR
GS
[0.75 0 0 0.75 0 0.5] CT
0 1 0 RC
10.0 ML
N
359.5 340.832 M
363.5 335.5 L
359.5 330.168 L
355.5 335.5 L
cp
S
GR
GS
[0.75 0 0 0.75 0 0.5] CT
0 1 0 RC
10.0 ML
N
397.5 340.832 M
401.5 335.5 L
397.5 330.168 L
393.5 335.5 L
cp
S
GR
GS
[0.75 0 0 0.75 0 0.5] CT
1 0 0 RC
[8 3 2 3] 0 setdash
2 LJ
0.667 LW
N
57 232.872 M
94.778 188.612 L
132.556 161.505 L
170.333 150.235 L
208.111 135.887 L
245.889 122.19 L
283.667 111.969 L
321.444 103.647 L
359.222 96.013 L
397 90.484 L
S
GR
GS
[0.75 0 0 0.75 0 0.5] CT
1 0 0 RC
10.0 ML
N
57.5 237.832 M
61.5 232.5 L
57.5 227.168 L
53.5 232.5 L
cp
S
GR
GS
[0.75 0 0 0.75 0 0.5] CT
1 0 0 RC
10.0 ML
N
94.5 193.832 M
98.5 188.5 L
94.5 183.168 L
90.5 188.5 L
cp
S
GR
GS
[0.75 0 0 0.75 0 0.5] CT
1 0 0 RC
10.0 ML
N
132.5 166.832 M
136.5 161.5 L
132.5 156.168 L
128.5 161.5 L
cp
S
GR
GS
[0.75 0 0 0.75 0 0.5] CT
1 0 0 RC
10.0 ML
N
170.5 155.832 M
174.5 150.5 L
170.5 145.168 L
166.5 150.5 L
cp
S
GR
GS
[0.75 0 0 0.75 0 0.5] CT
1 0 0 RC
10.0 ML
N
208.5 140.832 M
212.5 135.5 L
208.5 130.168 L
204.5 135.5 L
cp
S
GR
GS
[0.75 0 0 0.75 0 0.5] CT
1 0 0 RC
10.0 ML
N
245.5 127.832 M
249.5 122.5 L
245.5 117.168 L
241.5 122.5 L
cp
S
GR
GS
[0.75 0 0 0.75 0 0.5] CT
1 0 0 RC
10.0 ML
N
283.5 116.832 M
287.5 111.5 L
283.5 106.168 L
279.5 111.5 L
cp
S
GR
GS
[0.75 0 0 0.75 0 0.5] CT
1 0 0 RC
10.0 ML
N
321.5 108.832 M
325.5 103.5 L
321.5 98.168 L
317.5 103.5 L
cp
S
GR
GS
[0.75 0 0 0.75 0 0.5] CT
1 0 0 RC
10.0 ML
N
359.5 101.832 M
363.5 96.5 L
359.5 91.168 L
355.5 96.5 L
cp
S
GR
GS
[0.75 0 0 0.75 0 0.5] CT
1 0 0 RC
10.0 ML
N
397.5 95.832 M
401.5 90.5 L
397.5 85.168 L
393.5 90.5 L
cp
S
GR
GS
[0.75 0 0 0.75 0 0.5] CT
0 1 1 RC
[8 3 2 3] 0 setdash
2 LJ
0.667 LW
N
57 294.306 M
94.778 285.213 L
132.556 285.213 L
170.333 277.336 L
208.111 270.388 L
245.889 264.173 L
283.667 258.551 L
321.444 253.418 L
359.222 248.696 L
397 248.696 L
S
GR
GS
[0.75 0 0 0.75 0 0.5] CT
0 1 1 RC
10.0 ML
N
57.5 299.832 M
61.5 294.5 L
57.5 289.168 L
53.5 294.5 L
cp
S
GR
GS
[0.75 0 0 0.75 0 0.5] CT
0 1 1 RC
10.0 ML
N
94.5 290.832 M
98.5 285.5 L
94.5 280.168 L
90.5 285.5 L
cp
S
GR
GS
[0.75 0 0 0.75 0 0.5] CT
0 1 1 RC
10.0 ML
N
132.5 290.832 M
136.5 285.5 L
132.5 280.168 L
128.5 285.5 L
cp
S
GR
GS
[0.75 0 0 0.75 0 0.5] CT
0 1 1 RC
10.0 ML
N
170.5 282.832 M
174.5 277.5 L
170.5 272.168 L
166.5 277.5 L
cp
S
GR
GS
[0.75 0 0 0.75 0 0.5] CT
0 1 1 RC
10.0 ML
N
208.5 275.832 M
212.5 270.5 L
208.5 265.168 L
204.5 270.5 L
cp
S
GR
GS
[0.75 0 0 0.75 0 0.5] CT
0 1 1 RC
10.0 ML
N
245.5 269.832 M
249.5 264.5 L
245.5 259.168 L
241.5 264.5 L
cp
S
GR
GS
[0.75 0 0 0.75 0 0.5] CT
0 1 1 RC
10.0 ML
N
283.5 263.832 M
287.5 258.5 L
283.5 253.168 L
279.5 258.5 L
cp
S
GR
GS
[0.75 0 0 0.75 0 0.5] CT
0 1 1 RC
10.0 ML
N
321.5 258.832 M
325.5 253.5 L
321.5 248.168 L
317.5 253.5 L
cp
S
GR
GS
[0.75 0 0 0.75 0 0.5] CT
0 1 1 RC
10.0 ML
N
359.5 253.832 M
363.5 248.5 L
359.5 243.168 L
355.5 248.5 L
cp
S
GR
GS
[0.75 0 0 0.75 0 0.5] CT
0 1 1 RC
10.0 ML
N
397.5 253.832 M
401.5 248.5 L
397.5 243.168 L
393.5 248.5 L
cp
S
GR
GS
[0.75 0 0 0.75 0 0.5] CT
1 GC
N
419 192 M
419 34 L
528 34 L
528 192 L
cp
f
GR
GS
[0.75 0 0 0.75 342 33.10252] CT
/Helvetica 12 F
GS
[1 0 0 1 0 0] CT
0 4.5 moveto 
1 -1 scale
(Tmplsqr) t 
GR
GR
GS
[0.75 0 0 0.75 0 0.5] CT
0 0 1 RC
1 LJ
0.667 LW
N
423 43.47 M
453 43.47 L
S
GR
GS
[0.75 0 0 0.75 0 0.5] CT
0 0 1 RC
1 LJ
N
442.5 43.5 M
441.736 41.149 L
439.736 39.696 L
437.264 39.696 L
435.264 41.149 L
434.5 43.5 L
435.264 45.851 L
437.264 47.304 L
439.736 47.304 L
441.736 45.851 L
cp
S
GR
GS
[0.75 0 0 0.75 342 44.69085] CT
/Helvetica 12 F
GS
[1 0 0 1 0 0] CT
0 4.5 moveto 
1 -1 scale
(Tmplsmr) t 
GR
GR
GS
[0.75 0 0 0.75 0 0.5] CT
0 1 0 RC
1 LJ
0.667 LW
N
423 58.921 M
453 58.921 L
S
GR
GS
[0.75 0 0 0.75 0 0.5] CT
0 1 0 RC
1 LJ
N
442.5 58.5 M
441.736 56.149 L
439.736 54.696 L
437.264 54.696 L
435.264 56.149 L
434.5 58.5 L
435.264 60.851 L
437.264 62.304 L
439.736 62.304 L
441.736 60.851 L
cp
S
GR
GS
[0.75 0 0 0.75 342 56.27918] CT
/Helvetica 12 F
GS
[1 0 0 1 0 0] CT
0 4.5 moveto 
1 -1 scale
(Tmppcg) t 
GR
GR
GS
[0.75 0 0 0.75 0 0.5] CT
1 0 0 RC
1 LJ
0.667 LW
N
423 74.372 M
453 74.372 L
S
GR
GS
[0.75 0 0 0.75 0 0.5] CT
1 0 0 RC
1 LJ
N
442.5 74.5 M
441.736 72.149 L
439.736 70.696 L
437.264 70.696 L
435.264 72.149 L
434.5 74.5 L
435.264 76.851 L
437.264 78.304 L
439.736 78.304 L
441.736 76.851 L
cp
S
GR
GS
[0.75 0 0 0.75 342 67.86751] CT
/Helvetica 12 F
GS
[1 0 0 1 0 0] CT
0 4.5 moveto 
1 -1 scale
(Tmpminres) t 
GR
GR
GS
[0.75 0 0 0.75 0 0.5] CT
0 1 1 RC
1 LJ
0.667 LW
N
423 89.823 M
453 89.823 L
S
GR
GS
[0.75 0 0 0.75 0 0.5] CT
0 1 1 RC
1 LJ
N
442.5 89.5 M
441.736 87.149 L
439.736 85.696 L
437.264 85.696 L
435.264 87.149 L
434.5 89.5 L
435.264 91.851 L
437.264 93.304 L
439.736 93.304 L
441.736 91.851 L
cp
S
GR
GS
[0.75 0 0 0.75 342 79.45584] CT
/Helvetica 12 F
GS
[1 0 0 1 0 0] CT
0 4.5 moveto 
1 -1 scale
(Pnb) t 
GR
GR
GS
[0.75 0 0 0.75 0 0.5] CT
1 0 1 RC
1 LJ
0.667 LW
N
423 105.274 M
453 105.274 L
S
GR
GS
[0.75 0 0 0.75 0 0.5] CT
1 0 1 RC
1 LJ
N
442.5 105.5 M
441.736 103.149 L
439.736 101.696 L
437.264 101.696 L
435.264 103.149 L
434.5 105.5 L
435.264 107.851 L
437.264 109.304 L
439.736 109.304 L
441.736 107.851 L
cp
S
GR
GS
[0.75 0 0 0.75 342 91.04416] CT
/Helvetica 12 F
GS
[1 0 0 1 0 0] CT
0 4.5 moveto 
1 -1 scale
(Bb) t 
GR
GR
GS
[0.75 0 0 0.75 0 0.5] CT
1 LJ
0.667 LW
N
423 120.726 M
453 120.726 L
S
GR
GS
[0.75 0 0 0.75 0 0.5] CT
1 LJ
N
442.5 120.5 M
441.736 118.149 L
439.736 116.696 L
437.264 116.696 L
435.264 118.149 L
434.5 120.5 L
435.264 122.851 L
437.264 124.304 L
439.736 124.304 L
441.736 122.851 L
cp
S
GR
GS
[0.75 0 0 0.75 342 102.63249] CT
/Helvetica 12 F
GS
[1 0 0 1 0 0] CT
0 4.5 moveto 
1 -1 scale
(Spg) t 
GR
GR
GS
[0.75 0 0 0.75 0 0.5] CT
0 0 1 RC
[8 3 2 3] 0 setdash
2 LJ
0.667 LW
N
423 136.177 M
453 136.177 L
S
GR
GS
[0.75 0 0 0.75 0 0.5] CT
0 0 1 RC
10.0 ML
N
438.5 141.832 M
442.5 136.5 L
438.5 131.168 L
434.5 136.5 L
cp
S
GR
GS
[0.75 0 0 0.75 342 114.22082] CT
/Helvetica 12 F
GS
[1 0 0 1 0 0] CT
0 4.5 moveto 
1 -1 scale
(Pqn) t 
GR
GR
GS
[0.75 0 0 0.75 0 0.5] CT
0 1 0 RC
[8 3 2 3] 0 setdash
2 LJ
0.667 LW
N
423 151.628 M
453 151.628 L
S
GR
GS
[0.75 0 0 0.75 0 0.5] CT
0 1 0 RC
10.0 ML
N
438.5 156.832 M
442.5 151.5 L
438.5 146.168 L
434.5 151.5 L
cp
S
GR
GS
[0.75 0 0 0.75 342 125.80915] CT
/Helvetica 12 F
GS
[1 0 0 1 0 0] CT
0 4.5 moveto 
1 -1 scale
(Lbfgsb) t 
GR
GR
GS
[0.75 0 0 0.75 0 0.5] CT
1 0 0 RC
[8 3 2 3] 0 setdash
2 LJ
0.667 LW
N
423 167.079 M
453 167.079 L
S
GR
GS
[0.75 0 0 0.75 0 0.5] CT
1 0 0 RC
10.0 ML
N
438.5 172.832 M
442.5 167.5 L
438.5 162.168 L
434.5 167.5 L
cp
S
GR
GS
[0.75 0 0 0.75 342 137.39748] CT
/Helvetica 12 F
GS
[1 0 0 1 0 0] CT
0 4.5 moveto 
1 -1 scale
(Bcflash) t 
GR
GR
GS
[0.75 0 0 0.75 0 0.5] CT
0 1 1 RC
[8 3 2 3] 0 setdash
2 LJ
0.667 LW
N
423 182.53 M
453 182.53 L
S
GR
GS
[0.75 0 0 0.75 0 0.5] CT
0 1 1 RC
10.0 ML
N
438.5 187.832 M
442.5 182.5 L
438.5 177.168 L
434.5 182.5 L
cp
S
GR
GS
[0.75 0 0 0.75 0 0.5] CT
0.149 GC
10.0 ML
0.667 LW
N
419 192 M
419 34 L
528 34 L
528 192 L
cp
S
GR
%%Trailer
%%Pages: 1
%%EOF
