%!PS-Adobe-3.0 EPSF-3.0
%%Creator: (MATLAB, The Mathworks, Inc. Version 9.0.0.341360 \(R2016a\). Operating System: Linux)
%%Title: data/fact1logtolRT.eps
%%CreationDate: 2017-02-04T13:38:34
%%Pages: (atend)
%%BoundingBox:     6     6   397   316
%%LanguageLevel: 3
%%EndComments
%%BeginProlog
%%BeginResource: procset (Apache XML Graphics Std ProcSet) 1.2 0
%%Version: 1.2 0
%%Copyright: (Copyright 2001-2003,2010 The Apache Software Foundation. License terms: http://www.apache.org/licenses/LICENSE-2.0)
/bd{bind def}bind def
/ld{load def}bd
/GR/grestore ld
/M/moveto ld
/LJ/setlinejoin ld
/C/curveto ld
/f/fill ld
/LW/setlinewidth ld
/GC/setgray ld
/t/show ld
/N/newpath ld
/CT/concat ld
/cp/closepath ld
/S/stroke ld
/L/lineto ld
/CC/setcmykcolor ld
/A/ashow ld
/GS/gsave ld
/RC/setrgbcolor ld
/RM/rmoveto ld
/ML/setmiterlimit ld
/re {4 2 roll M
1 index 0 rlineto
0 exch rlineto
neg 0 rlineto
cp } bd
/_ctm matrix def
/_tm matrix def
/BT { _ctm currentmatrix pop matrix _tm copy pop 0 0 moveto } bd
/ET { _ctm setmatrix } bd
/iTm { _ctm setmatrix _tm concat } bd
/Tm { _tm astore pop iTm 0 0 moveto } bd
/ux 0.0 def
/uy 0.0 def
/F {
  /Tp exch def
  /Tf exch def
  Tf findfont Tp scalefont setfont
  /cf Tf def  /cs Tp def
} bd
/ULS {currentpoint /uy exch def /ux exch def} bd
/ULE {
  /Tcx currentpoint pop def
  gsave
  newpath
  cf findfont cs scalefont dup
  /FontMatrix get 0 get /Ts exch def /FontInfo get dup
  /UnderlinePosition get Ts mul /To exch def
  /UnderlineThickness get Ts mul /Tt exch def
  ux uy To add moveto  Tcx uy To add lineto
  Tt setlinewidth stroke
  grestore
} bd
/OLE {
  /Tcx currentpoint pop def
  gsave
  newpath
  cf findfont cs scalefont dup
  /FontMatrix get 0 get /Ts exch def /FontInfo get dup
  /UnderlinePosition get Ts mul /To exch def
  /UnderlineThickness get Ts mul /Tt exch def
  ux uy To add cs add moveto Tcx uy To add cs add lineto
  Tt setlinewidth stroke
  grestore
} bd
/SOE {
  /Tcx currentpoint pop def
  gsave
  newpath
  cf findfont cs scalefont dup
  /FontMatrix get 0 get /Ts exch def /FontInfo get dup
  /UnderlinePosition get Ts mul /To exch def
  /UnderlineThickness get Ts mul /Tt exch def
  ux uy To add cs 10 mul 26 idiv add moveto Tcx uy To add cs 10 mul 26 idiv add lineto
  Tt setlinewidth stroke
  grestore
} bd
/QT {
/Y22 exch store
/X22 exch store
/Y21 exch store
/X21 exch store
currentpoint
/Y21 load 2 mul add 3 div exch
/X21 load 2 mul add 3 div exch
/X21 load 2 mul /X22 load add 3 div
/Y21 load 2 mul /Y22 load add 3 div
/X22 load /Y22 load curveto
} bd
/SSPD {
dup length /d exch dict def
{
/v exch def
/k exch def
currentpagedevice k known {
/cpdv currentpagedevice k get def
v cpdv ne {
/upd false def
/nullv v type /nulltype eq def
/nullcpdv cpdv type /nulltype eq def
nullv nullcpdv or
{
/upd true def
} {
/sametype v type cpdv type eq def
sametype {
v type /arraytype eq {
/vlen v length def
/cpdvlen cpdv length def
vlen cpdvlen eq {
0 1 vlen 1 sub {
/i exch def
/obj v i get def
/cpdobj cpdv i get def
obj cpdobj ne {
/upd true def
exit
} if
} for
} {
/upd true def
} ifelse
} {
v type /dicttype eq {
v {
/dv exch def
/dk exch def
/cpddv cpdv dk get def
dv cpddv ne {
/upd true def
exit
} if
} forall
} {
/upd true def
} ifelse
} ifelse
} if
} ifelse
upd true eq {
d k v put
} if
} if
} if
} forall
d length 0 gt {
d setpagedevice
} if
} bd
%%EndResource
%%BeginResource: procset (Apache XML Graphics EPS ProcSet) 1.0 0
%%Version: 1.0 0
%%Copyright: (Copyright 2002-2003 The Apache Software Foundation. License terms: http://www.apache.org/licenses/LICENSE-2.0)
/BeginEPSF { %def
/b4_Inc_state save def         % Save state for cleanup
/dict_count countdictstack def % Count objects on dict stack
/op_count count 1 sub def      % Count objects on operand stack
userdict begin                 % Push userdict on dict stack
/showpage { } def              % Redefine showpage, { } = null proc
0 setgray 0 setlinecap         % Prepare graphics state
1 setlinewidth 0 setlinejoin
10 setmiterlimit [ ] 0 setdash newpath
/languagelevel where           % If level not equal to 1 then
{pop languagelevel             % set strokeadjust and
1 ne                           % overprint to their defaults.
{false setstrokeadjust false setoverprint
} if
} if
} bd
/EndEPSF { %def
count op_count sub {pop} repeat            % Clean up stacks
countdictstack dict_count sub {end} repeat
b4_Inc_state restore
} bd
%%EndResource
%FOPBeginFontDict
%%IncludeResource: font Courier-Bold
%%IncludeResource: font Helvetica
%%IncludeResource: font Courier-BoldOblique
%%IncludeResource: font Courier-Oblique
%%IncludeResource: font Times-Roman
%%IncludeResource: font Helvetica-BoldOblique
%%IncludeResource: font Helvetica-Bold
%%IncludeResource: font Helvetica-Oblique
%%IncludeResource: font Times-BoldItalic
%%IncludeResource: font Courier
%%IncludeResource: font Times-Italic
%%IncludeResource: font Times-Bold
%%IncludeResource: font Symbol
%%IncludeResource: font ZapfDingbats
%FOPEndFontDict
%%BeginResource: encoding WinAnsiEncoding
/WinAnsiEncoding [
/.notdef /.notdef /.notdef /.notdef /.notdef
/.notdef /.notdef /.notdef /.notdef /.notdef
/.notdef /.notdef /.notdef /.notdef /.notdef
/.notdef /.notdef /.notdef /.notdef /.notdef
/.notdef /.notdef /.notdef /.notdef /.notdef
/.notdef /.notdef /.notdef /.notdef /.notdef
/.notdef /.notdef /space /exclam /quotedbl
/numbersign /dollar /percent /ampersand /quotesingle
/parenleft /parenright /asterisk /plus /comma
/hyphen /period /slash /zero /one
/two /three /four /five /six
/seven /eight /nine /colon /semicolon
/less /equal /greater /question /at
/A /B /C /D /E
/F /G /H /I /J
/K /L /M /N /O
/P /Q /R /S /T
/U /V /W /X /Y
/Z /bracketleft /backslash /bracketright /asciicircum
/underscore /quoteleft /a /b /c
/d /e /f /g /h
/i /j /k /l /m
/n /o /p /q /r
/s /t /u /v /w
/x /y /z /braceleft /bar
/braceright /asciitilde /bullet /Euro /bullet
/quotesinglbase /florin /quotedblbase /ellipsis /dagger
/daggerdbl /circumflex /perthousand /Scaron /guilsinglleft
/OE /bullet /Zcaron /bullet /bullet
/quoteleft /quoteright /quotedblleft /quotedblright /bullet
/endash /emdash /asciitilde /trademark /scaron
/guilsinglright /oe /bullet /zcaron /Ydieresis
/space /exclamdown /cent /sterling /currency
/yen /brokenbar /section /dieresis /copyright
/ordfeminine /guillemotleft /logicalnot /sfthyphen /registered
/macron /degree /plusminus /twosuperior /threesuperior
/acute /mu /paragraph /middot /cedilla
/onesuperior /ordmasculine /guillemotright /onequarter /onehalf
/threequarters /questiondown /Agrave /Aacute /Acircumflex
/Atilde /Adieresis /Aring /AE /Ccedilla
/Egrave /Eacute /Ecircumflex /Edieresis /Igrave
/Iacute /Icircumflex /Idieresis /Eth /Ntilde
/Ograve /Oacute /Ocircumflex /Otilde /Odieresis
/multiply /Oslash /Ugrave /Uacute /Ucircumflex
/Udieresis /Yacute /Thorn /germandbls /agrave
/aacute /acircumflex /atilde /adieresis /aring
/ae /ccedilla /egrave /eacute /ecircumflex
/edieresis /igrave /iacute /icircumflex /idieresis
/eth /ntilde /ograve /oacute /ocircumflex
/otilde /odieresis /divide /oslash /ugrave
/uacute /ucircumflex /udieresis /yacute /thorn
/ydieresis
] def
%%EndResource
%FOPBeginFontReencode
/Courier-Bold findfont
dup length dict begin
  {1 index /FID ne {def} {pop pop} ifelse} forall
  /Encoding WinAnsiEncoding def
  currentdict
end
/Courier-Bold exch definefont pop
/Helvetica findfont
dup length dict begin
  {1 index /FID ne {def} {pop pop} ifelse} forall
  /Encoding WinAnsiEncoding def
  currentdict
end
/Helvetica exch definefont pop
/Courier-BoldOblique findfont
dup length dict begin
  {1 index /FID ne {def} {pop pop} ifelse} forall
  /Encoding WinAnsiEncoding def
  currentdict
end
/Courier-BoldOblique exch definefont pop
/Courier-Oblique findfont
dup length dict begin
  {1 index /FID ne {def} {pop pop} ifelse} forall
  /Encoding WinAnsiEncoding def
  currentdict
end
/Courier-Oblique exch definefont pop
/Times-Roman findfont
dup length dict begin
  {1 index /FID ne {def} {pop pop} ifelse} forall
  /Encoding WinAnsiEncoding def
  currentdict
end
/Times-Roman exch definefont pop
/Helvetica-BoldOblique findfont
dup length dict begin
  {1 index /FID ne {def} {pop pop} ifelse} forall
  /Encoding WinAnsiEncoding def
  currentdict
end
/Helvetica-BoldOblique exch definefont pop
/Helvetica-Bold findfont
dup length dict begin
  {1 index /FID ne {def} {pop pop} ifelse} forall
  /Encoding WinAnsiEncoding def
  currentdict
end
/Helvetica-Bold exch definefont pop
/Helvetica-Oblique findfont
dup length dict begin
  {1 index /FID ne {def} {pop pop} ifelse} forall
  /Encoding WinAnsiEncoding def
  currentdict
end
/Helvetica-Oblique exch definefont pop
/Times-BoldItalic findfont
dup length dict begin
  {1 index /FID ne {def} {pop pop} ifelse} forall
  /Encoding WinAnsiEncoding def
  currentdict
end
/Times-BoldItalic exch definefont pop
/Courier findfont
dup length dict begin
  {1 index /FID ne {def} {pop pop} ifelse} forall
  /Encoding WinAnsiEncoding def
  currentdict
end
/Courier exch definefont pop
/Times-Italic findfont
dup length dict begin
  {1 index /FID ne {def} {pop pop} ifelse} forall
  /Encoding WinAnsiEncoding def
  currentdict
end
/Times-Italic exch definefont pop
/Times-Bold findfont
dup length dict begin
  {1 index /FID ne {def} {pop pop} ifelse} forall
  /Encoding WinAnsiEncoding def
  currentdict
end
/Times-Bold exch definefont pop
%FOPEndFontReencode
%%EndProlog
%%Page: 1 1
%%PageBoundingBox: 0 0 428 338
%%BeginPageSetup
[1 0 0 -1 0 338] CT
%%EndPageSetup
GS
[0.75 0 0 0.75 0 0.5] CT
N
0 0 M
570 0 L
570 450 L
0 450 L
0 0 L
cp
clip
1 GC
N
0 0 570 450 re
f
GR
GS
[0.75 0 0 0.75 0 0.5] CT
1 GC
N
0 0 570 450 re
f
GR
GS
[0.75 0 0 0.75 0 0.5] CT
1 GC
N
57 400 M
397 400 L
397 34 L
57 34 L
cp
f
GR
GS
[0.75 0 0 0.75 0 0.5] CT
0.149 GC
2 setlinecap
1 LJ
0.667 LW
N
57 400 M
397 400 L
S
GR
GS
[0.75 0 0 0.75 0 0.5] CT
0.149 GC
2 setlinecap
1 LJ
0.667 LW
N
57 34 M
397 34 L
S
GR
GS
[0.75 0 0 0.75 0 0.5] CT
0.149 GC
2 setlinecap
1 LJ
0.667 LW
N
94.778 400 M
94.778 396.34 L
S
GR
GS
[0.75 0 0 0.75 0 0.5] CT
0.149 GC
2 setlinecap
1 LJ
0.667 LW
N
170.333 400 M
170.333 396.34 L
S
GR
GS
[0.75 0 0 0.75 0 0.5] CT
0.149 GC
2 setlinecap
1 LJ
0.667 LW
N
245.889 400 M
245.889 396.34 L
S
GR
GS
[0.75 0 0 0.75 0 0.5] CT
0.149 GC
2 setlinecap
1 LJ
0.667 LW
N
321.444 400 M
321.444 396.34 L
S
GR
GS
[0.75 0 0 0.75 0 0.5] CT
0.149 GC
2 setlinecap
1 LJ
0.667 LW
N
397 400 M
397 396.34 L
S
GR
GS
[0.75 0 0 0.75 0 0.5] CT
0.149 GC
2 setlinecap
1 LJ
0.667 LW
N
94.778 34 M
94.778 37.66 L
S
GR
GS
[0.75 0 0 0.75 0 0.5] CT
0.149 GC
2 setlinecap
1 LJ
0.667 LW
N
170.333 34 M
170.333 37.66 L
S
GR
GS
[0.75 0 0 0.75 0 0.5] CT
0.149 GC
2 setlinecap
1 LJ
0.667 LW
N
245.889 34 M
245.889 37.66 L
S
GR
GS
[0.75 0 0 0.75 0 0.5] CT
0.149 GC
2 setlinecap
1 LJ
0.667 LW
N
321.444 34 M
321.444 37.66 L
S
GR
GS
[0.75 0 0 0.75 0 0.5] CT
0.149 GC
2 setlinecap
1 LJ
0.667 LW
N
397 34 M
397 37.66 L
S
GR
GS
[0.75 0 0 0.75 71.08333 304.50001] CT
0.149 GC
/Helvetica 13.333 F
GS
[1 0 0 1 0 0] CT
-4.5 13 moveto 
1 -1 scale
(2) t 
GR
GR
GS
[0.75 0 0 0.75 127.75001 304.50001] CT
0.149 GC
/Helvetica 13.333 F
GS
[1 0 0 1 0 0] CT
-4.5 13 moveto 
1 -1 scale
(4) t 
GR
GR
GS
[0.75 0 0 0.75 184.41668 304.50001] CT
0.149 GC
/Helvetica 13.333 F
GS
[1 0 0 1 0 0] CT
-4.5 13 moveto 
1 -1 scale
(6) t 
GR
GR
GS
[0.75 0 0 0.75 241.08334 304.50001] CT
0.149 GC
/Helvetica 13.333 F
GS
[1 0 0 1 0 0] CT
-4.5 13 moveto 
1 -1 scale
(8) t 
GR
GR
GS
[0.75 0 0 0.75 297.75 304.50001] CT
0.149 GC
/Helvetica 13.333 F
GS
[1 0 0 1 0 0] CT
-8.5 13 moveto 
1 -1 scale
(10) t 
GR
GR
GS
[0.75 0 0 0.75 170.25013 318.24999] CT
0.149 GC
/Helvetica 14.667 F
GS
[1 0 0 1 0 0] CT
-30 14 moveto 
1 -1 scale
(-log\(tol\)) t 
GR
GR
GS
[0.75 0 0 0.75 0 0.5] CT
0.149 GC
2 setlinecap
1 LJ
0.667 LW
N
57 400 M
57 34 L
S
GR
GS
[0.75 0 0 0.75 0 0.5] CT
0.149 GC
2 setlinecap
1 LJ
0.667 LW
N
397 400 M
397 34 L
S
GR
GS
[0.75 0 0 0.75 0 0.5] CT
0.149 GC
2 setlinecap
1 LJ
0.667 LW
N
57 272.809 M
60.66 272.809 L
S
GR
GS
[0.75 0 0 0.75 0 0.5] CT
0.149 GC
2 setlinecap
1 LJ
0.667 LW
N
57 114.39 M
60.66 114.39 L
S
GR
GS
[0.75 0 0 0.75 0 0.5] CT
0.149 GC
2 setlinecap
1 LJ
0.667 LW
N
397 272.809 M
393.34 272.809 L
S
GR
GS
[0.75 0 0 0.75 0 0.5] CT
0.149 GC
2 setlinecap
1 LJ
0.667 LW
N
397 114.39 M
393.34 114.39 L
S
GR
GS
[0.75 0 0 0.75 0 0.5] CT
0.149 GC
2 setlinecap
1 LJ
0.667 LW
N
57 383.538 M
58.83 383.538 L
S
GR
GS
[0.75 0 0 0.75 0 0.5] CT
0.149 GC
2 setlinecap
1 LJ
0.667 LW
N
57 355.642 M
58.83 355.642 L
S
GR
GS
[0.75 0 0 0.75 0 0.5] CT
0.149 GC
2 setlinecap
1 LJ
0.667 LW
N
57 335.849 M
58.83 335.849 L
S
GR
GS
[0.75 0 0 0.75 0 0.5] CT
0.149 GC
2 setlinecap
1 LJ
0.667 LW
N
57 320.497 M
58.83 320.497 L
S
GR
GS
[0.75 0 0 0.75 0 0.5] CT
0.149 GC
2 setlinecap
1 LJ
0.667 LW
N
57 307.953 M
58.83 307.953 L
S
GR
GS
[0.75 0 0 0.75 0 0.5] CT
0.149 GC
2 setlinecap
1 LJ
0.667 LW
N
57 297.348 M
58.83 297.348 L
S
GR
GS
[0.75 0 0 0.75 0 0.5] CT
0.149 GC
2 setlinecap
1 LJ
0.667 LW
N
57 288.161 M
58.83 288.161 L
S
GR
GS
[0.75 0 0 0.75 0 0.5] CT
0.149 GC
2 setlinecap
1 LJ
0.667 LW
N
57 280.057 M
58.83 280.057 L
S
GR
GS
[0.75 0 0 0.75 0 0.5] CT
0.149 GC
2 setlinecap
1 LJ
0.667 LW
N
57 225.12 M
58.83 225.12 L
S
GR
GS
[0.75 0 0 0.75 0 0.5] CT
0.149 GC
2 setlinecap
1 LJ
0.667 LW
N
57 197.224 M
58.83 197.224 L
S
GR
GS
[0.75 0 0 0.75 0 0.5] CT
0.149 GC
2 setlinecap
1 LJ
0.667 LW
N
57 177.431 M
58.83 177.431 L
S
GR
GS
[0.75 0 0 0.75 0 0.5] CT
0.149 GC
2 setlinecap
1 LJ
0.667 LW
N
57 162.079 M
58.83 162.079 L
S
GR
GS
[0.75 0 0 0.75 0 0.5] CT
0.149 GC
2 setlinecap
1 LJ
0.667 LW
N
57 149.535 M
58.83 149.535 L
S
GR
GS
[0.75 0 0 0.75 0 0.5] CT
0.149 GC
2 setlinecap
1 LJ
0.667 LW
N
57 138.93 M
58.83 138.93 L
S
GR
GS
[0.75 0 0 0.75 0 0.5] CT
0.149 GC
2 setlinecap
1 LJ
0.667 LW
N
57 129.743 M
58.83 129.743 L
S
GR
GS
[0.75 0 0 0.75 0 0.5] CT
0.149 GC
2 setlinecap
1 LJ
0.667 LW
N
57 121.639 M
58.83 121.639 L
S
GR
GS
[0.75 0 0 0.75 0 0.5] CT
0.149 GC
2 setlinecap
1 LJ
0.667 LW
N
57 66.702 M
58.83 66.702 L
S
GR
GS
[0.75 0 0 0.75 0 0.5] CT
0.149 GC
2 setlinecap
1 LJ
0.667 LW
N
57 38.806 M
58.83 38.806 L
S
GR
GS
[0.75 0 0 0.75 0 0.5] CT
0.149 GC
2 setlinecap
1 LJ
0.667 LW
N
397 383.538 M
395.17 383.538 L
S
GR
GS
[0.75 0 0 0.75 0 0.5] CT
0.149 GC
2 setlinecap
1 LJ
0.667 LW
N
397 355.642 M
395.17 355.642 L
S
GR
GS
[0.75 0 0 0.75 0 0.5] CT
0.149 GC
2 setlinecap
1 LJ
0.667 LW
N
397 335.849 M
395.17 335.849 L
S
GR
GS
[0.75 0 0 0.75 0 0.5] CT
0.149 GC
2 setlinecap
1 LJ
0.667 LW
N
397 320.497 M
395.17 320.497 L
S
GR
GS
[0.75 0 0 0.75 0 0.5] CT
0.149 GC
2 setlinecap
1 LJ
0.667 LW
N
397 307.953 M
395.17 307.953 L
S
GR
GS
[0.75 0 0 0.75 0 0.5] CT
0.149 GC
2 setlinecap
1 LJ
0.667 LW
N
397 297.348 M
395.17 297.348 L
S
GR
GS
[0.75 0 0 0.75 0 0.5] CT
0.149 GC
2 setlinecap
1 LJ
0.667 LW
N
397 288.161 M
395.17 288.161 L
S
GR
GS
[0.75 0 0 0.75 0 0.5] CT
0.149 GC
2 setlinecap
1 LJ
0.667 LW
N
397 280.057 M
395.17 280.057 L
S
GR
GS
[0.75 0 0 0.75 0 0.5] CT
0.149 GC
2 setlinecap
1 LJ
0.667 LW
N
397 225.12 M
395.17 225.12 L
S
GR
GS
[0.75 0 0 0.75 0 0.5] CT
0.149 GC
2 setlinecap
1 LJ
0.667 LW
N
397 197.224 M
395.17 197.224 L
S
GR
GS
[0.75 0 0 0.75 0 0.5] CT
0.149 GC
2 setlinecap
1 LJ
0.667 LW
N
397 177.431 M
395.17 177.431 L
S
GR
GS
[0.75 0 0 0.75 0 0.5] CT
0.149 GC
2 setlinecap
1 LJ
0.667 LW
N
397 162.079 M
395.17 162.079 L
S
GR
GS
[0.75 0 0 0.75 0 0.5] CT
0.149 GC
2 setlinecap
1 LJ
0.667 LW
N
397 149.535 M
395.17 149.535 L
S
GR
GS
[0.75 0 0 0.75 0 0.5] CT
0.149 GC
2 setlinecap
1 LJ
0.667 LW
N
397 138.93 M
395.17 138.93 L
S
GR
GS
[0.75 0 0 0.75 0 0.5] CT
0.149 GC
2 setlinecap
1 LJ
0.667 LW
N
397 129.743 M
395.17 129.743 L
S
GR
GS
[0.75 0 0 0.75 0 0.5] CT
0.149 GC
2 setlinecap
1 LJ
0.667 LW
N
397 121.639 M
395.17 121.639 L
S
GR
GS
[0.75 0 0 0.75 0 0.5] CT
0.149 GC
2 setlinecap
1 LJ
0.667 LW
N
397 66.702 M
395.17 66.702 L
S
GR
GS
[0.75 0 0 0.75 0 0.5] CT
0.149 GC
2 setlinecap
1 LJ
0.667 LW
N
397 38.806 M
395.17 38.806 L
S
GR
GS
[0.75 0 0 0.75 21 210.5] CT
0.149 GC
/Helvetica 13.333 F
GS
[1 0 0 1 0 0] CT
0 0 moveto 
1 -1 scale
(10) t 
GR
GR
GS
[0.75 0 0 0.75 33.75 206] CT
0.149 GC
/Helvetica 10.667 F
GS
[1 0 0 1 0 0] CT
0 0 moveto 
1 -1 scale
(0) t 
GR
GR
GS
[0.75 0 0 0.75 21 91.25] CT
0.149 GC
/Helvetica 13.333 F
GS
[1 0 0 1 0 0] CT
0 0 moveto 
1 -1 scale
(10) t 
GR
GR
GS
[0.75 0 0 0.75 33.75 86.75] CT
0.149 GC
/Helvetica 10.667 F
GS
[1 0 0 1 0 0] CT
0 0 moveto 
1 -1 scale
(1) t 
GR
GR
GS
[0 -0.75 0.75 0 17.75 163.24987] CT
0.149 GC
/Helvetica 14.667 F
GS
[1 0 0 1 0 0] CT
-10 -4 moveto 
1 -1 scale
(RT) t 
GR
GR
GS
[0.75 0 0 0.75 0 0.5] CT
0 0 1 RC
1 LJ
0.667 LW
N
57 357.223 M
94.778 338.355 L
132.556 251.649 L
170.333 224.39 L
208.111 210.087 L
245.889 202.864 L
283.667 181.384 L
321.444 165.379 L
359.222 163.019 L
397 151.833 L
S
GR
GS
[0.75 0 0 0.75 0 0.5] CT
0 0 1 RC
1 LJ
N
61.5 357.5 M
60.736 355.149 L
58.736 353.696 L
56.264 353.696 L
54.264 355.149 L
53.5 357.5 L
54.264 359.851 L
56.264 361.304 L
58.736 361.304 L
60.736 359.851 L
cp
S
GR
GS
[0.75 0 0 0.75 0 0.5] CT
0 0 1 RC
1 LJ
N
98.5 338.5 M
97.736 336.149 L
95.736 334.696 L
93.264 334.696 L
91.264 336.149 L
90.5 338.5 L
91.264 340.851 L
93.264 342.304 L
95.736 342.304 L
97.736 340.851 L
cp
S
GR
GS
[0.75 0 0 0.75 0 0.5] CT
0 0 1 RC
1 LJ
N
136.5 251.5 M
135.736 249.149 L
133.736 247.696 L
131.264 247.696 L
129.264 249.149 L
128.5 251.5 L
129.264 253.851 L
131.264 255.304 L
133.736 255.304 L
135.736 253.851 L
cp
S
GR
GS
[0.75 0 0 0.75 0 0.5] CT
0 0 1 RC
1 LJ
N
174.5 224.5 M
173.736 222.149 L
171.736 220.696 L
169.264 220.696 L
167.264 222.149 L
166.5 224.5 L
167.264 226.851 L
169.264 228.304 L
171.736 228.304 L
173.736 226.851 L
cp
S
GR
GS
[0.75 0 0 0.75 0 0.5] CT
0 0 1 RC
1 LJ
N
212.5 210.5 M
211.736 208.149 L
209.736 206.696 L
207.264 206.696 L
205.264 208.149 L
204.5 210.5 L
205.264 212.851 L
207.264 214.304 L
209.736 214.304 L
211.736 212.851 L
cp
S
GR
GS
[0.75 0 0 0.75 0 0.5] CT
0 0 1 RC
1 LJ
N
249.5 202.5 M
248.736 200.149 L
246.736 198.696 L
244.264 198.696 L
242.264 200.149 L
241.5 202.5 L
242.264 204.851 L
244.264 206.304 L
246.736 206.304 L
248.736 204.851 L
cp
S
GR
GS
[0.75 0 0 0.75 0 0.5] CT
0 0 1 RC
1 LJ
N
287.5 181.5 M
286.736 179.149 L
284.736 177.696 L
282.264 177.696 L
280.264 179.149 L
279.5 181.5 L
280.264 183.851 L
282.264 185.304 L
284.736 185.304 L
286.736 183.851 L
cp
S
GR
GS
[0.75 0 0 0.75 0 0.5] CT
0 0 1 RC
1 LJ
N
325.5 165.5 M
324.736 163.149 L
322.736 161.696 L
320.264 161.696 L
318.264 163.149 L
317.5 165.5 L
318.264 167.851 L
320.264 169.304 L
322.736 169.304 L
324.736 167.851 L
cp
S
GR
GS
[0.75 0 0 0.75 0 0.5] CT
0 0 1 RC
1 LJ
N
363.5 163.5 M
362.736 161.149 L
360.736 159.696 L
358.264 159.696 L
356.264 161.149 L
355.5 163.5 L
356.264 165.851 L
358.264 167.304 L
360.736 167.304 L
362.736 165.851 L
cp
S
GR
GS
[0.75 0 0 0.75 0 0.5] CT
0 0 1 RC
1 LJ
N
401.5 151.5 M
400.736 149.149 L
398.736 147.696 L
396.264 147.696 L
394.264 149.149 L
393.5 151.5 L
394.264 153.851 L
396.264 155.304 L
398.736 155.304 L
400.736 153.851 L
cp
S
GR
GS
[0.75 0 0 0.75 0 0.5] CT
0 1 0 RC
1 LJ
0.667 LW
N
57 400 M
94.778 336.937 L
132.556 251.523 L
170.333 231.843 L
208.111 210.108 L
245.889 190.811 L
283.667 179.68 L
321.444 171.774 L
359.222 158.416 L
397 154.144 L
S
GR
GS
[0.75 0 0 0.75 0 0.5] CT
0 1 0 RC
1 LJ
N
61.5 399.5 M
60.736 397.149 L
58.736 395.696 L
56.264 395.696 L
54.264 397.149 L
53.5 399.5 L
54.264 401.851 L
56.264 403.304 L
58.736 403.304 L
60.736 401.851 L
cp
S
GR
GS
[0.75 0 0 0.75 0 0.5] CT
0 1 0 RC
1 LJ
N
98.5 336.5 M
97.736 334.149 L
95.736 332.696 L
93.264 332.696 L
91.264 334.149 L
90.5 336.5 L
91.264 338.851 L
93.264 340.304 L
95.736 340.304 L
97.736 338.851 L
cp
S
GR
GS
[0.75 0 0 0.75 0 0.5] CT
0 1 0 RC
1 LJ
N
136.5 251.5 M
135.736 249.149 L
133.736 247.696 L
131.264 247.696 L
129.264 249.149 L
128.5 251.5 L
129.264 253.851 L
131.264 255.304 L
133.736 255.304 L
135.736 253.851 L
cp
S
GR
GS
[0.75 0 0 0.75 0 0.5] CT
0 1 0 RC
1 LJ
N
174.5 231.5 M
173.736 229.149 L
171.736 227.696 L
169.264 227.696 L
167.264 229.149 L
166.5 231.5 L
167.264 233.851 L
169.264 235.304 L
171.736 235.304 L
173.736 233.851 L
cp
S
GR
GS
[0.75 0 0 0.75 0 0.5] CT
0 1 0 RC
1 LJ
N
212.5 210.5 M
211.736 208.149 L
209.736 206.696 L
207.264 206.696 L
205.264 208.149 L
204.5 210.5 L
205.264 212.851 L
207.264 214.304 L
209.736 214.304 L
211.736 212.851 L
cp
S
GR
GS
[0.75 0 0 0.75 0 0.5] CT
0 1 0 RC
1 LJ
N
249.5 190.5 M
248.736 188.149 L
246.736 186.696 L
244.264 186.696 L
242.264 188.149 L
241.5 190.5 L
242.264 192.851 L
244.264 194.304 L
246.736 194.304 L
248.736 192.851 L
cp
S
GR
GS
[0.75 0 0 0.75 0 0.5] CT
0 1 0 RC
1 LJ
N
287.5 179.5 M
286.736 177.149 L
284.736 175.696 L
282.264 175.696 L
280.264 177.149 L
279.5 179.5 L
280.264 181.851 L
282.264 183.304 L
284.736 183.304 L
286.736 181.851 L
cp
S
GR
GS
[0.75 0 0 0.75 0 0.5] CT
0 1 0 RC
1 LJ
N
325.5 171.5 M
324.736 169.149 L
322.736 167.696 L
320.264 167.696 L
318.264 169.149 L
317.5 171.5 L
318.264 173.851 L
320.264 175.304 L
322.736 175.304 L
324.736 173.851 L
cp
S
GR
GS
[0.75 0 0 0.75 0 0.5] CT
0 1 0 RC
1 LJ
N
363.5 158.5 M
362.736 156.149 L
360.736 154.696 L
358.264 154.696 L
356.264 156.149 L
355.5 158.5 L
356.264 160.851 L
358.264 162.304 L
360.736 162.304 L
362.736 160.851 L
cp
S
GR
GS
[0.75 0 0 0.75 0 0.5] CT
0 1 0 RC
1 LJ
N
401.5 154.5 M
400.736 152.149 L
398.736 150.696 L
396.264 150.696 L
394.264 152.149 L
393.5 154.5 L
394.264 156.851 L
396.264 158.304 L
398.736 158.304 L
400.736 156.851 L
cp
S
GR
GS
[0.75 0 0 0.75 0 0.5] CT
1 0 0 RC
1 LJ
0.667 LW
N
57 254.379 M
94.778 228.988 L
132.556 243.103 L
170.333 256.609 L
208.111 256.872 L
245.889 270.045 L
283.667 247.733 L
321.444 238.863 L
359.222 227.074 L
397 217.681 L
S
GR
GS
[0.75 0 0 0.75 0 0.5] CT
1 0 0 RC
1 LJ
N
61.5 254.5 M
60.736 252.149 L
58.736 250.696 L
56.264 250.696 L
54.264 252.149 L
53.5 254.5 L
54.264 256.851 L
56.264 258.304 L
58.736 258.304 L
60.736 256.851 L
cp
S
GR
GS
[0.75 0 0 0.75 0 0.5] CT
1 0 0 RC
1 LJ
N
98.5 228.5 M
97.736 226.149 L
95.736 224.696 L
93.264 224.696 L
91.264 226.149 L
90.5 228.5 L
91.264 230.851 L
93.264 232.304 L
95.736 232.304 L
97.736 230.851 L
cp
S
GR
GS
[0.75 0 0 0.75 0 0.5] CT
1 0 0 RC
1 LJ
N
136.5 243.5 M
135.736 241.149 L
133.736 239.696 L
131.264 239.696 L
129.264 241.149 L
128.5 243.5 L
129.264 245.851 L
131.264 247.304 L
133.736 247.304 L
135.736 245.851 L
cp
S
GR
GS
[0.75 0 0 0.75 0 0.5] CT
1 0 0 RC
1 LJ
N
174.5 256.5 M
173.736 254.149 L
171.736 252.696 L
169.264 252.696 L
167.264 254.149 L
166.5 256.5 L
167.264 258.851 L
169.264 260.304 L
171.736 260.304 L
173.736 258.851 L
cp
S
GR
GS
[0.75 0 0 0.75 0 0.5] CT
1 0 0 RC
1 LJ
N
212.5 256.5 M
211.736 254.149 L
209.736 252.696 L
207.264 252.696 L
205.264 254.149 L
204.5 256.5 L
205.264 258.851 L
207.264 260.304 L
209.736 260.304 L
211.736 258.851 L
cp
S
GR
GS
[0.75 0 0 0.75 0 0.5] CT
1 0 0 RC
1 LJ
N
249.5 270.5 M
248.736 268.149 L
246.736 266.696 L
244.264 266.696 L
242.264 268.149 L
241.5 270.5 L
242.264 272.851 L
244.264 274.304 L
246.736 274.304 L
248.736 272.851 L
cp
S
GR
GS
[0.75 0 0 0.75 0 0.5] CT
1 0 0 RC
1 LJ
N
287.5 247.5 M
286.736 245.149 L
284.736 243.696 L
282.264 243.696 L
280.264 245.149 L
279.5 247.5 L
280.264 249.851 L
282.264 251.304 L
284.736 251.304 L
286.736 249.851 L
cp
S
GR
GS
[0.75 0 0 0.75 0 0.5] CT
1 0 0 RC
1 LJ
N
325.5 238.5 M
324.736 236.149 L
322.736 234.696 L
320.264 234.696 L
318.264 236.149 L
317.5 238.5 L
318.264 240.851 L
320.264 242.304 L
322.736 242.304 L
324.736 240.851 L
cp
S
GR
GS
[0.75 0 0 0.75 0 0.5] CT
1 0 0 RC
1 LJ
N
363.5 227.5 M
362.736 225.149 L
360.736 223.696 L
358.264 223.696 L
356.264 225.149 L
355.5 227.5 L
356.264 229.851 L
358.264 231.304 L
360.736 231.304 L
362.736 229.851 L
cp
S
GR
GS
[0.75 0 0 0.75 0 0.5] CT
1 0 0 RC
1 LJ
N
401.5 217.5 M
400.736 215.149 L
398.736 213.696 L
396.264 213.696 L
394.264 215.149 L
393.5 217.5 L
394.264 219.851 L
396.264 221.304 L
398.736 221.304 L
400.736 219.851 L
cp
S
GR
GS
[0.75 0 0 0.75 0 0.5] CT
0 1 1 RC
1 LJ
0.667 LW
N
57 107.134 M
94.778 34 L
132.556 122.238 L
170.333 244.475 L
208.111 256.937 L
245.889 259.559 L
283.667 236.241 L
321.444 254.388 L
359.222 242.219 L
397 229.034 L
S
GR
GS
[0.75 0 0 0.75 0 0.5] CT
0 1 1 RC
1 LJ
N
61.5 107.5 M
60.736 105.149 L
58.736 103.696 L
56.264 103.696 L
54.264 105.149 L
53.5 107.5 L
54.264 109.851 L
56.264 111.304 L
58.736 111.304 L
60.736 109.851 L
cp
S
GR
GS
[0.75 0 0 0.75 0 0.5] CT
0 1 1 RC
1 LJ
N
98.5 33.5 M
97.736 31.149 L
95.736 29.696 L
93.264 29.696 L
91.264 31.149 L
90.5 33.5 L
91.264 35.851 L
93.264 37.304 L
95.736 37.304 L
97.736 35.851 L
cp
S
GR
GS
[0.75 0 0 0.75 0 0.5] CT
0 1 1 RC
1 LJ
N
136.5 122.5 M
135.736 120.149 L
133.736 118.696 L
131.264 118.696 L
129.264 120.149 L
128.5 122.5 L
129.264 124.851 L
131.264 126.304 L
133.736 126.304 L
135.736 124.851 L
cp
S
GR
GS
[0.75 0 0 0.75 0 0.5] CT
0 1 1 RC
1 LJ
N
174.5 244.5 M
173.736 242.149 L
171.736 240.696 L
169.264 240.696 L
167.264 242.149 L
166.5 244.5 L
167.264 246.851 L
169.264 248.304 L
171.736 248.304 L
173.736 246.851 L
cp
S
GR
GS
[0.75 0 0 0.75 0 0.5] CT
0 1 1 RC
1 LJ
N
212.5 256.5 M
211.736 254.149 L
209.736 252.696 L
207.264 252.696 L
205.264 254.149 L
204.5 256.5 L
205.264 258.851 L
207.264 260.304 L
209.736 260.304 L
211.736 258.851 L
cp
S
GR
GS
[0.75 0 0 0.75 0 0.5] CT
0 1 1 RC
1 LJ
N
249.5 259.5 M
248.736 257.149 L
246.736 255.696 L
244.264 255.696 L
242.264 257.149 L
241.5 259.5 L
242.264 261.851 L
244.264 263.304 L
246.736 263.304 L
248.736 261.851 L
cp
S
GR
GS
[0.75 0 0 0.75 0 0.5] CT
0 1 1 RC
1 LJ
N
287.5 236.5 M
286.736 234.149 L
284.736 232.696 L
282.264 232.696 L
280.264 234.149 L
279.5 236.5 L
280.264 238.851 L
282.264 240.304 L
284.736 240.304 L
286.736 238.851 L
cp
S
GR
GS
[0.75 0 0 0.75 0 0.5] CT
0 1 1 RC
1 LJ
N
325.5 254.5 M
324.736 252.149 L
322.736 250.696 L
320.264 250.696 L
318.264 252.149 L
317.5 254.5 L
318.264 256.851 L
320.264 258.304 L
322.736 258.304 L
324.736 256.851 L
cp
S
GR
GS
[0.75 0 0 0.75 0 0.5] CT
0 1 1 RC
1 LJ
N
363.5 242.5 M
362.736 240.149 L
360.736 238.696 L
358.264 238.696 L
356.264 240.149 L
355.5 242.5 L
356.264 244.851 L
358.264 246.304 L
360.736 246.304 L
362.736 244.851 L
cp
S
GR
GS
[0.75 0 0 0.75 0 0.5] CT
0 1 1 RC
1 LJ
N
401.5 229.5 M
400.736 227.149 L
398.736 225.696 L
396.264 225.696 L
394.264 227.149 L
393.5 229.5 L
394.264 231.851 L
396.264 233.304 L
398.736 233.304 L
400.736 231.851 L
cp
S
GR
GS
[0.75 0 0 0.75 0 0.5] CT
1 0 1 RC
1 LJ
0.667 LW
N
57 223.236 M
94.778 197.188 L
132.556 195.977 L
170.333 210.58 L
208.111 202.718 L
245.889 209.453 L
283.667 186.579 L
321.444 179.419 L
359.222 124.038 L
397 68.526 L
S
GR
GS
[0.75 0 0 0.75 0 0.5] CT
1 0 1 RC
1 LJ
N
61.5 223.5 M
60.736 221.149 L
58.736 219.696 L
56.264 219.696 L
54.264 221.149 L
53.5 223.5 L
54.264 225.851 L
56.264 227.304 L
58.736 227.304 L
60.736 225.851 L
cp
S
GR
GS
[0.75 0 0 0.75 0 0.5] CT
1 0 1 RC
1 LJ
N
98.5 197.5 M
97.736 195.149 L
95.736 193.696 L
93.264 193.696 L
91.264 195.149 L
90.5 197.5 L
91.264 199.851 L
93.264 201.304 L
95.736 201.304 L
97.736 199.851 L
cp
S
GR
GS
[0.75 0 0 0.75 0 0.5] CT
1 0 1 RC
1 LJ
N
136.5 195.5 M
135.736 193.149 L
133.736 191.696 L
131.264 191.696 L
129.264 193.149 L
128.5 195.5 L
129.264 197.851 L
131.264 199.304 L
133.736 199.304 L
135.736 197.851 L
cp
S
GR
GS
[0.75 0 0 0.75 0 0.5] CT
1 0 1 RC
1 LJ
N
174.5 210.5 M
173.736 208.149 L
171.736 206.696 L
169.264 206.696 L
167.264 208.149 L
166.5 210.5 L
167.264 212.851 L
169.264 214.304 L
171.736 214.304 L
173.736 212.851 L
cp
S
GR
GS
[0.75 0 0 0.75 0 0.5] CT
1 0 1 RC
1 LJ
N
212.5 202.5 M
211.736 200.149 L
209.736 198.696 L
207.264 198.696 L
205.264 200.149 L
204.5 202.5 L
205.264 204.851 L
207.264 206.304 L
209.736 206.304 L
211.736 204.851 L
cp
S
GR
GS
[0.75 0 0 0.75 0 0.5] CT
1 0 1 RC
1 LJ
N
249.5 209.5 M
248.736 207.149 L
246.736 205.696 L
244.264 205.696 L
242.264 207.149 L
241.5 209.5 L
242.264 211.851 L
244.264 213.304 L
246.736 213.304 L
248.736 211.851 L
cp
S
GR
GS
[0.75 0 0 0.75 0 0.5] CT
1 0 1 RC
1 LJ
N
287.5 186.5 M
286.736 184.149 L
284.736 182.696 L
282.264 182.696 L
280.264 184.149 L
279.5 186.5 L
280.264 188.851 L
282.264 190.304 L
284.736 190.304 L
286.736 188.851 L
cp
S
GR
GS
[0.75 0 0 0.75 0 0.5] CT
1 0 1 RC
1 LJ
N
325.5 179.5 M
324.736 177.149 L
322.736 175.696 L
320.264 175.696 L
318.264 177.149 L
317.5 179.5 L
318.264 181.851 L
320.264 183.304 L
322.736 183.304 L
324.736 181.851 L
cp
S
GR
GS
[0.75 0 0 0.75 0 0.5] CT
1 0 1 RC
1 LJ
N
363.5 124.5 M
362.736 122.149 L
360.736 120.696 L
358.264 120.696 L
356.264 122.149 L
355.5 124.5 L
356.264 126.851 L
358.264 128.304 L
360.736 128.304 L
362.736 126.851 L
cp
S
GR
GS
[0.75 0 0 0.75 0 0.5] CT
1 0 1 RC
1 LJ
N
401.5 68.5 M
400.736 66.149 L
398.736 64.696 L
396.264 64.696 L
394.264 66.149 L
393.5 68.5 L
394.264 70.851 L
396.264 72.304 L
398.736 72.304 L
400.736 70.851 L
cp
S
GR
GS
[0.75 0 0 0.75 0 0.5] CT
1 LJ
0.667 LW
N
57 274.137 M
94.778 202.608 L
132.556 206.955 L
170.333 170.279 L
208.111 160.213 L
245.889 153.407 L
283.667 140.894 L
321.444 140.382 L
359.222 141.736 L
397 138.956 L
S
GR
GS
[0.75 0 0 0.75 0 0.5] CT
1 LJ
N
61.5 274.5 M
60.736 272.149 L
58.736 270.696 L
56.264 270.696 L
54.264 272.149 L
53.5 274.5 L
54.264 276.851 L
56.264 278.304 L
58.736 278.304 L
60.736 276.851 L
cp
S
GR
GS
[0.75 0 0 0.75 0 0.5] CT
1 LJ
N
98.5 202.5 M
97.736 200.149 L
95.736 198.696 L
93.264 198.696 L
91.264 200.149 L
90.5 202.5 L
91.264 204.851 L
93.264 206.304 L
95.736 206.304 L
97.736 204.851 L
cp
S
GR
GS
[0.75 0 0 0.75 0 0.5] CT
1 LJ
N
136.5 206.5 M
135.736 204.149 L
133.736 202.696 L
131.264 202.696 L
129.264 204.149 L
128.5 206.5 L
129.264 208.851 L
131.264 210.304 L
133.736 210.304 L
135.736 208.851 L
cp
S
GR
GS
[0.75 0 0 0.75 0 0.5] CT
1 LJ
N
174.5 170.5 M
173.736 168.149 L
171.736 166.696 L
169.264 166.696 L
167.264 168.149 L
166.5 170.5 L
167.264 172.851 L
169.264 174.304 L
171.736 174.304 L
173.736 172.851 L
cp
S
GR
GS
[0.75 0 0 0.75 0 0.5] CT
1 LJ
N
212.5 160.5 M
211.736 158.149 L
209.736 156.696 L
207.264 156.696 L
205.264 158.149 L
204.5 160.5 L
205.264 162.851 L
207.264 164.304 L
209.736 164.304 L
211.736 162.851 L
cp
S
GR
GS
[0.75 0 0 0.75 0 0.5] CT
1 LJ
N
249.5 153.5 M
248.736 151.149 L
246.736 149.696 L
244.264 149.696 L
242.264 151.149 L
241.5 153.5 L
242.264 155.851 L
244.264 157.304 L
246.736 157.304 L
248.736 155.851 L
cp
S
GR
GS
[0.75 0 0 0.75 0 0.5] CT
1 LJ
N
287.5 140.5 M
286.736 138.149 L
284.736 136.696 L
282.264 136.696 L
280.264 138.149 L
279.5 140.5 L
280.264 142.851 L
282.264 144.304 L
284.736 144.304 L
286.736 142.851 L
cp
S
GR
GS
[0.75 0 0 0.75 0 0.5] CT
1 LJ
N
325.5 140.5 M
324.736 138.149 L
322.736 136.696 L
320.264 136.696 L
318.264 138.149 L
317.5 140.5 L
318.264 142.851 L
320.264 144.304 L
322.736 144.304 L
324.736 142.851 L
cp
S
GR
GS
[0.75 0 0 0.75 0 0.5] CT
1 LJ
N
363.5 141.5 M
362.736 139.149 L
360.736 137.696 L
358.264 137.696 L
356.264 139.149 L
355.5 141.5 L
356.264 143.851 L
358.264 145.304 L
360.736 145.304 L
362.736 143.851 L
cp
S
GR
GS
[0.75 0 0 0.75 0 0.5] CT
1 LJ
N
401.5 138.5 M
400.736 136.149 L
398.736 134.696 L
396.264 134.696 L
394.264 136.149 L
393.5 138.5 L
394.264 140.851 L
396.264 142.304 L
398.736 142.304 L
400.736 140.851 L
cp
S
GR
GS
[0.75 0 0 0.75 0 0.5] CT
0 0 1 RC
[8 3 2 3] 0 setdash
2 LJ
0.667 LW
N
57 272.456 M
94.778 213.417 L
132.556 190.713 L
170.333 167.38 L
208.111 158.001 L
245.889 147.63 L
283.667 135.614 L
321.444 131.952 L
359.222 132.917 L
397 130.88 L
S
GR
GS
[0.75 0 0 0.75 0 0.5] CT
0 0 1 RC
10.0 ML
N
57.5 277.832 M
61.5 272.5 L
57.5 267.168 L
53.5 272.5 L
cp
S
GR
GS
[0.75 0 0 0.75 0 0.5] CT
0 0 1 RC
10.0 ML
N
94.5 218.832 M
98.5 213.5 L
94.5 208.168 L
90.5 213.5 L
cp
S
GR
GS
[0.75 0 0 0.75 0 0.5] CT
0 0 1 RC
10.0 ML
N
132.5 195.832 M
136.5 190.5 L
132.5 185.168 L
128.5 190.5 L
cp
S
GR
GS
[0.75 0 0 0.75 0 0.5] CT
0 0 1 RC
10.0 ML
N
170.5 172.832 M
174.5 167.5 L
170.5 162.168 L
166.5 167.5 L
cp
S
GR
GS
[0.75 0 0 0.75 0 0.5] CT
0 0 1 RC
10.0 ML
N
208.5 163.832 M
212.5 158.5 L
208.5 153.168 L
204.5 158.5 L
cp
S
GR
GS
[0.75 0 0 0.75 0 0.5] CT
0 0 1 RC
10.0 ML
N
245.5 152.832 M
249.5 147.5 L
245.5 142.168 L
241.5 147.5 L
cp
S
GR
GS
[0.75 0 0 0.75 0 0.5] CT
0 0 1 RC
10.0 ML
N
283.5 140.832 M
287.5 135.5 L
283.5 130.168 L
279.5 135.5 L
cp
S
GR
GS
[0.75 0 0 0.75 0 0.5] CT
0 0 1 RC
10.0 ML
N
321.5 136.832 M
325.5 131.5 L
321.5 126.168 L
317.5 131.5 L
cp
S
GR
GS
[0.75 0 0 0.75 0 0.5] CT
0 0 1 RC
10.0 ML
N
359.5 137.832 M
363.5 132.5 L
359.5 127.168 L
355.5 132.5 L
cp
S
GR
GS
[0.75 0 0 0.75 0 0.5] CT
0 0 1 RC
10.0 ML
N
397.5 135.832 M
401.5 130.5 L
397.5 125.168 L
393.5 130.5 L
cp
S
GR
GS
[0.75 0 0 0.75 0 0.5] CT
0 1 0 RC
[8 3 2 3] 0 setdash
2 LJ
0.667 LW
N
57 246.195 M
94.778 213.523 L
132.556 193.195 L
170.333 166.507 L
208.111 153.579 L
245.889 142.137 L
283.667 120.369 L
321.444 106.322 L
359.222 107.388 L
397 105.808 L
S
GR
GS
[0.75 0 0 0.75 0 0.5] CT
0 1 0 RC
10.0 ML
N
57.5 251.832 M
61.5 246.5 L
57.5 241.168 L
53.5 246.5 L
cp
S
GR
GS
[0.75 0 0 0.75 0 0.5] CT
0 1 0 RC
10.0 ML
N
94.5 218.832 M
98.5 213.5 L
94.5 208.168 L
90.5 213.5 L
cp
S
GR
GS
[0.75 0 0 0.75 0 0.5] CT
0 1 0 RC
10.0 ML
N
132.5 198.832 M
136.5 193.5 L
132.5 188.168 L
128.5 193.5 L
cp
S
GR
GS
[0.75 0 0 0.75 0 0.5] CT
0 1 0 RC
10.0 ML
N
170.5 171.832 M
174.5 166.5 L
170.5 161.168 L
166.5 166.5 L
cp
S
GR
GS
[0.75 0 0 0.75 0 0.5] CT
0 1 0 RC
10.0 ML
N
208.5 158.832 M
212.5 153.5 L
208.5 148.168 L
204.5 153.5 L
cp
S
GR
GS
[0.75 0 0 0.75 0 0.5] CT
0 1 0 RC
10.0 ML
N
245.5 147.832 M
249.5 142.5 L
245.5 137.168 L
241.5 142.5 L
cp
S
GR
GS
[0.75 0 0 0.75 0 0.5] CT
0 1 0 RC
10.0 ML
N
283.5 125.832 M
287.5 120.5 L
283.5 115.168 L
279.5 120.5 L
cp
S
GR
GS
[0.75 0 0 0.75 0 0.5] CT
0 1 0 RC
10.0 ML
N
321.5 111.832 M
325.5 106.5 L
321.5 101.168 L
317.5 106.5 L
cp
S
GR
GS
[0.75 0 0 0.75 0 0.5] CT
0 1 0 RC
10.0 ML
N
359.5 112.832 M
363.5 107.5 L
359.5 102.168 L
355.5 107.5 L
cp
S
GR
GS
[0.75 0 0 0.75 0 0.5] CT
0 1 0 RC
10.0 ML
N
397.5 110.832 M
401.5 105.5 L
397.5 100.168 L
393.5 105.5 L
cp
S
GR
GS
[0.75 0 0 0.75 0 0.5] CT
1 0 0 RC
[8 3 2 3] 0 setdash
2 LJ
0.667 LW
N
57 250.6 M
94.778 202.518 L
132.556 170.549 L
170.333 155.248 L
208.111 140.538 L
245.889 121.571 L
283.667 112.486 L
321.444 99.859 L
359.222 90.905 L
397 84.38 L
S
GR
GS
[0.75 0 0 0.75 0 0.5] CT
1 0 0 RC
10.0 ML
N
57.5 255.832 M
61.5 250.5 L
57.5 245.168 L
53.5 250.5 L
cp
S
GR
GS
[0.75 0 0 0.75 0 0.5] CT
1 0 0 RC
10.0 ML
N
94.5 207.832 M
98.5 202.5 L
94.5 197.168 L
90.5 202.5 L
cp
S
GR
GS
[0.75 0 0 0.75 0 0.5] CT
1 0 0 RC
10.0 ML
N
132.5 175.832 M
136.5 170.5 L
132.5 165.168 L
128.5 170.5 L
cp
S
GR
GS
[0.75 0 0 0.75 0 0.5] CT
1 0 0 RC
10.0 ML
N
170.5 160.832 M
174.5 155.5 L
170.5 150.168 L
166.5 155.5 L
cp
S
GR
GS
[0.75 0 0 0.75 0 0.5] CT
1 0 0 RC
10.0 ML
N
208.5 145.832 M
212.5 140.5 L
208.5 135.168 L
204.5 140.5 L
cp
S
GR
GS
[0.75 0 0 0.75 0 0.5] CT
1 0 0 RC
10.0 ML
N
245.5 126.832 M
249.5 121.5 L
245.5 116.168 L
241.5 121.5 L
cp
S
GR
GS
[0.75 0 0 0.75 0 0.5] CT
1 0 0 RC
10.0 ML
N
283.5 117.832 M
287.5 112.5 L
283.5 107.168 L
279.5 112.5 L
cp
S
GR
GS
[0.75 0 0 0.75 0 0.5] CT
1 0 0 RC
10.0 ML
N
321.5 104.832 M
325.5 99.5 L
321.5 94.168 L
317.5 99.5 L
cp
S
GR
GS
[0.75 0 0 0.75 0 0.5] CT
1 0 0 RC
10.0 ML
N
359.5 95.832 M
363.5 90.5 L
359.5 85.168 L
355.5 90.5 L
cp
S
GR
GS
[0.75 0 0 0.75 0 0.5] CT
1 0 0 RC
10.0 ML
N
397.5 89.832 M
401.5 84.5 L
397.5 79.168 L
393.5 84.5 L
cp
S
GR
GS
[0.75 0 0 0.75 0 0.5] CT
0 1 1 RC
[8 3 2 3] 0 setdash
2 LJ
0.667 LW
N
57 257.371 M
94.778 247.952 L
132.556 245.932 L
170.333 231.542 L
208.111 219.303 L
245.889 204.967 L
283.667 193.833 L
321.444 188.491 L
359.222 181.209 L
397 180.087 L
S
GR
GS
[0.75 0 0 0.75 0 0.5] CT
0 1 1 RC
10.0 ML
N
57.5 262.832 M
61.5 257.5 L
57.5 252.168 L
53.5 257.5 L
cp
S
GR
GS
[0.75 0 0 0.75 0 0.5] CT
0 1 1 RC
10.0 ML
N
94.5 252.832 M
98.5 247.5 L
94.5 242.168 L
90.5 247.5 L
cp
S
GR
GS
[0.75 0 0 0.75 0 0.5] CT
0 1 1 RC
10.0 ML
N
132.5 250.832 M
136.5 245.5 L
132.5 240.168 L
128.5 245.5 L
cp
S
GR
GS
[0.75 0 0 0.75 0 0.5] CT
0 1 1 RC
10.0 ML
N
170.5 236.832 M
174.5 231.5 L
170.5 226.168 L
166.5 231.5 L
cp
S
GR
GS
[0.75 0 0 0.75 0 0.5] CT
0 1 1 RC
10.0 ML
N
208.5 224.832 M
212.5 219.5 L
208.5 214.168 L
204.5 219.5 L
cp
S
GR
GS
[0.75 0 0 0.75 0 0.5] CT
0 1 1 RC
10.0 ML
N
245.5 209.832 M
249.5 204.5 L
245.5 199.168 L
241.5 204.5 L
cp
S
GR
GS
[0.75 0 0 0.75 0 0.5] CT
0 1 1 RC
10.0 ML
N
283.5 198.832 M
287.5 193.5 L
283.5 188.168 L
279.5 193.5 L
cp
S
GR
GS
[0.75 0 0 0.75 0 0.5] CT
0 1 1 RC
10.0 ML
N
321.5 193.832 M
325.5 188.5 L
321.5 183.168 L
317.5 188.5 L
cp
S
GR
GS
[0.75 0 0 0.75 0 0.5] CT
0 1 1 RC
10.0 ML
N
359.5 186.832 M
363.5 181.5 L
359.5 176.168 L
355.5 181.5 L
cp
S
GR
GS
[0.75 0 0 0.75 0 0.5] CT
0 1 1 RC
10.0 ML
N
397.5 185.832 M
401.5 180.5 L
397.5 175.168 L
393.5 180.5 L
cp
S
GR
GS
[0.75 0 0 0.75 0 0.5] CT
1 GC
N
419 192 M
419 34 L
528 34 L
528 192 L
cp
f
GR
GS
[0.75 0 0 0.75 342 33.10252] CT
/Helvetica 12 F
GS
[1 0 0 1 0 0] CT
0 4.5 moveto 
1 -1 scale
(Tmplsqr) t 
GR
GR
GS
[0.75 0 0 0.75 0 0.5] CT
0 0 1 RC
1 LJ
0.667 LW
N
423 43.47 M
453 43.47 L
S
GR
GS
[0.75 0 0 0.75 0 0.5] CT
0 0 1 RC
1 LJ
N
442.5 43.5 M
441.736 41.149 L
439.736 39.696 L
437.264 39.696 L
435.264 41.149 L
434.5 43.5 L
435.264 45.851 L
437.264 47.304 L
439.736 47.304 L
441.736 45.851 L
cp
S
GR
GS
[0.75 0 0 0.75 342 44.69085] CT
/Helvetica 12 F
GS
[1 0 0 1 0 0] CT
0 4.5 moveto 
1 -1 scale
(Tmplsmr) t 
GR
GR
GS
[0.75 0 0 0.75 0 0.5] CT
0 1 0 RC
1 LJ
0.667 LW
N
423 58.921 M
453 58.921 L
S
GR
GS
[0.75 0 0 0.75 0 0.5] CT
0 1 0 RC
1 LJ
N
442.5 58.5 M
441.736 56.149 L
439.736 54.696 L
437.264 54.696 L
435.264 56.149 L
434.5 58.5 L
435.264 60.851 L
437.264 62.304 L
439.736 62.304 L
441.736 60.851 L
cp
S
GR
GS
[0.75 0 0 0.75 342 56.27918] CT
/Helvetica 12 F
GS
[1 0 0 1 0 0] CT
0 4.5 moveto 
1 -1 scale
(Tmppcg) t 
GR
GR
GS
[0.75 0 0 0.75 0 0.5] CT
1 0 0 RC
1 LJ
0.667 LW
N
423 74.372 M
453 74.372 L
S
GR
GS
[0.75 0 0 0.75 0 0.5] CT
1 0 0 RC
1 LJ
N
442.5 74.5 M
441.736 72.149 L
439.736 70.696 L
437.264 70.696 L
435.264 72.149 L
434.5 74.5 L
435.264 76.851 L
437.264 78.304 L
439.736 78.304 L
441.736 76.851 L
cp
S
GR
GS
[0.75 0 0 0.75 342 67.86751] CT
/Helvetica 12 F
GS
[1 0 0 1 0 0] CT
0 4.5 moveto 
1 -1 scale
(Tmpminres) t 
GR
GR
GS
[0.75 0 0 0.75 0 0.5] CT
0 1 1 RC
1 LJ
0.667 LW
N
423 89.823 M
453 89.823 L
S
GR
GS
[0.75 0 0 0.75 0 0.5] CT
0 1 1 RC
1 LJ
N
442.5 89.5 M
441.736 87.149 L
439.736 85.696 L
437.264 85.696 L
435.264 87.149 L
434.5 89.5 L
435.264 91.851 L
437.264 93.304 L
439.736 93.304 L
441.736 91.851 L
cp
S
GR
GS
[0.75 0 0 0.75 342 79.45584] CT
/Helvetica 12 F
GS
[1 0 0 1 0 0] CT
0 4.5 moveto 
1 -1 scale
(Pnb) t 
GR
GR
GS
[0.75 0 0 0.75 0 0.5] CT
1 0 1 RC
1 LJ
0.667 LW
N
423 105.274 M
453 105.274 L
S
GR
GS
[0.75 0 0 0.75 0 0.5] CT
1 0 1 RC
1 LJ
N
442.5 105.5 M
441.736 103.149 L
439.736 101.696 L
437.264 101.696 L
435.264 103.149 L
434.5 105.5 L
435.264 107.851 L
437.264 109.304 L
439.736 109.304 L
441.736 107.851 L
cp
S
GR
GS
[0.75 0 0 0.75 342 91.04416] CT
/Helvetica 12 F
GS
[1 0 0 1 0 0] CT
0 4.5 moveto 
1 -1 scale
(Bb) t 
GR
GR
GS
[0.75 0 0 0.75 0 0.5] CT
1 LJ
0.667 LW
N
423 120.726 M
453 120.726 L
S
GR
GS
[0.75 0 0 0.75 0 0.5] CT
1 LJ
N
442.5 120.5 M
441.736 118.149 L
439.736 116.696 L
437.264 116.696 L
435.264 118.149 L
434.5 120.5 L
435.264 122.851 L
437.264 124.304 L
439.736 124.304 L
441.736 122.851 L
cp
S
GR
GS
[0.75 0 0 0.75 342 102.63249] CT
/Helvetica 12 F
GS
[1 0 0 1 0 0] CT
0 4.5 moveto 
1 -1 scale
(Spg) t 
GR
GR
GS
[0.75 0 0 0.75 0 0.5] CT
0 0 1 RC
[8 3 2 3] 0 setdash
2 LJ
0.667 LW
N
423 136.177 M
453 136.177 L
S
GR
GS
[0.75 0 0 0.75 0 0.5] CT
0 0 1 RC
10.0 ML
N
438.5 141.832 M
442.5 136.5 L
438.5 131.168 L
434.5 136.5 L
cp
S
GR
GS
[0.75 0 0 0.75 342 114.22082] CT
/Helvetica 12 F
GS
[1 0 0 1 0 0] CT
0 4.5 moveto 
1 -1 scale
(Pqn) t 
GR
GR
GS
[0.75 0 0 0.75 0 0.5] CT
0 1 0 RC
[8 3 2 3] 0 setdash
2 LJ
0.667 LW
N
423 151.628 M
453 151.628 L
S
GR
GS
[0.75 0 0 0.75 0 0.5] CT
0 1 0 RC
10.0 ML
N
438.5 156.832 M
442.5 151.5 L
438.5 146.168 L
434.5 151.5 L
cp
S
GR
GS
[0.75 0 0 0.75 342 125.80915] CT
/Helvetica 12 F
GS
[1 0 0 1 0 0] CT
0 4.5 moveto 
1 -1 scale
(Lbfgsb) t 
GR
GR
GS
[0.75 0 0 0.75 0 0.5] CT
1 0 0 RC
[8 3 2 3] 0 setdash
2 LJ
0.667 LW
N
423 167.079 M
453 167.079 L
S
GR
GS
[0.75 0 0 0.75 0 0.5] CT
1 0 0 RC
10.0 ML
N
438.5 172.832 M
442.5 167.5 L
438.5 162.168 L
434.5 167.5 L
cp
S
GR
GS
[0.75 0 0 0.75 342 137.39748] CT
/Helvetica 12 F
GS
[1 0 0 1 0 0] CT
0 4.5 moveto 
1 -1 scale
(Bcflash) t 
GR
GR
GS
[0.75 0 0 0.75 0 0.5] CT
0 1 1 RC
[8 3 2 3] 0 setdash
2 LJ
0.667 LW
N
423 182.53 M
453 182.53 L
S
GR
GS
[0.75 0 0 0.75 0 0.5] CT
0 1 1 RC
10.0 ML
N
438.5 187.832 M
442.5 182.5 L
438.5 177.168 L
434.5 182.5 L
cp
S
GR
GS
[0.75 0 0 0.75 0 0.5] CT
0.149 GC
10.0 ML
0.667 LW
N
419 192 M
419 34 L
528 34 L
528 192 L
cp
S
GR
%%Trailer
%%Pages: 1
%%EOF
