%!PS-Adobe-3.0 EPSF-3.0
%%Creator: (MATLAB, The Mathworks, Inc. Version 9.0.0.341360 \(R2016a\). Operating System: Linux)
%%Title: data/fact4logtolPg.eps
%%CreationDate: 2017-02-04T13:28:36
%%Pages: (atend)
%%BoundingBox:     1     6   397   316
%%LanguageLevel: 3
%%EndComments
%%BeginProlog
%%BeginResource: procset (Apache XML Graphics Std ProcSet) 1.2 0
%%Version: 1.2 0
%%Copyright: (Copyright 2001-2003,2010 The Apache Software Foundation. License terms: http://www.apache.org/licenses/LICENSE-2.0)
/bd{bind def}bind def
/ld{load def}bd
/GR/grestore ld
/M/moveto ld
/LJ/setlinejoin ld
/C/curveto ld
/f/fill ld
/LW/setlinewidth ld
/GC/setgray ld
/t/show ld
/N/newpath ld
/CT/concat ld
/cp/closepath ld
/S/stroke ld
/L/lineto ld
/CC/setcmykcolor ld
/A/ashow ld
/GS/gsave ld
/RC/setrgbcolor ld
/RM/rmoveto ld
/ML/setmiterlimit ld
/re {4 2 roll M
1 index 0 rlineto
0 exch rlineto
neg 0 rlineto
cp } bd
/_ctm matrix def
/_tm matrix def
/BT { _ctm currentmatrix pop matrix _tm copy pop 0 0 moveto } bd
/ET { _ctm setmatrix } bd
/iTm { _ctm setmatrix _tm concat } bd
/Tm { _tm astore pop iTm 0 0 moveto } bd
/ux 0.0 def
/uy 0.0 def
/F {
  /Tp exch def
  /Tf exch def
  Tf findfont Tp scalefont setfont
  /cf Tf def  /cs Tp def
} bd
/ULS {currentpoint /uy exch def /ux exch def} bd
/ULE {
  /Tcx currentpoint pop def
  gsave
  newpath
  cf findfont cs scalefont dup
  /FontMatrix get 0 get /Ts exch def /FontInfo get dup
  /UnderlinePosition get Ts mul /To exch def
  /UnderlineThickness get Ts mul /Tt exch def
  ux uy To add moveto  Tcx uy To add lineto
  Tt setlinewidth stroke
  grestore
} bd
/OLE {
  /Tcx currentpoint pop def
  gsave
  newpath
  cf findfont cs scalefont dup
  /FontMatrix get 0 get /Ts exch def /FontInfo get dup
  /UnderlinePosition get Ts mul /To exch def
  /UnderlineThickness get Ts mul /Tt exch def
  ux uy To add cs add moveto Tcx uy To add cs add lineto
  Tt setlinewidth stroke
  grestore
} bd
/SOE {
  /Tcx currentpoint pop def
  gsave
  newpath
  cf findfont cs scalefont dup
  /FontMatrix get 0 get /Ts exch def /FontInfo get dup
  /UnderlinePosition get Ts mul /To exch def
  /UnderlineThickness get Ts mul /Tt exch def
  ux uy To add cs 10 mul 26 idiv add moveto Tcx uy To add cs 10 mul 26 idiv add lineto
  Tt setlinewidth stroke
  grestore
} bd
/QT {
/Y22 exch store
/X22 exch store
/Y21 exch store
/X21 exch store
currentpoint
/Y21 load 2 mul add 3 div exch
/X21 load 2 mul add 3 div exch
/X21 load 2 mul /X22 load add 3 div
/Y21 load 2 mul /Y22 load add 3 div
/X22 load /Y22 load curveto
} bd
/SSPD {
dup length /d exch dict def
{
/v exch def
/k exch def
currentpagedevice k known {
/cpdv currentpagedevice k get def
v cpdv ne {
/upd false def
/nullv v type /nulltype eq def
/nullcpdv cpdv type /nulltype eq def
nullv nullcpdv or
{
/upd true def
} {
/sametype v type cpdv type eq def
sametype {
v type /arraytype eq {
/vlen v length def
/cpdvlen cpdv length def
vlen cpdvlen eq {
0 1 vlen 1 sub {
/i exch def
/obj v i get def
/cpdobj cpdv i get def
obj cpdobj ne {
/upd true def
exit
} if
} for
} {
/upd true def
} ifelse
} {
v type /dicttype eq {
v {
/dv exch def
/dk exch def
/cpddv cpdv dk get def
dv cpddv ne {
/upd true def
exit
} if
} forall
} {
/upd true def
} ifelse
} ifelse
} if
} ifelse
upd true eq {
d k v put
} if
} if
} if
} forall
d length 0 gt {
d setpagedevice
} if
} bd
%%EndResource
%%BeginResource: procset (Apache XML Graphics EPS ProcSet) 1.0 0
%%Version: 1.0 0
%%Copyright: (Copyright 2002-2003 The Apache Software Foundation. License terms: http://www.apache.org/licenses/LICENSE-2.0)
/BeginEPSF { %def
/b4_Inc_state save def         % Save state for cleanup
/dict_count countdictstack def % Count objects on dict stack
/op_count count 1 sub def      % Count objects on operand stack
userdict begin                 % Push userdict on dict stack
/showpage { } def              % Redefine showpage, { } = null proc
0 setgray 0 setlinecap         % Prepare graphics state
1 setlinewidth 0 setlinejoin
10 setmiterlimit [ ] 0 setdash newpath
/languagelevel where           % If level not equal to 1 then
{pop languagelevel             % set strokeadjust and
1 ne                           % overprint to their defaults.
{false setstrokeadjust false setoverprint
} if
} if
} bd
/EndEPSF { %def
count op_count sub {pop} repeat            % Clean up stacks
countdictstack dict_count sub {end} repeat
b4_Inc_state restore
} bd
%%EndResource
%FOPBeginFontDict
%%IncludeResource: font Courier-Bold
%%IncludeResource: font Helvetica
%%IncludeResource: font Courier-BoldOblique
%%IncludeResource: font Courier-Oblique
%%IncludeResource: font Times-Roman
%%IncludeResource: font Helvetica-BoldOblique
%%IncludeResource: font Helvetica-Bold
%%IncludeResource: font Helvetica-Oblique
%%IncludeResource: font Times-BoldItalic
%%IncludeResource: font Courier
%%IncludeResource: font Times-Italic
%%IncludeResource: font Times-Bold
%%IncludeResource: font Symbol
%%IncludeResource: font ZapfDingbats
%FOPEndFontDict
%%BeginResource: encoding WinAnsiEncoding
/WinAnsiEncoding [
/.notdef /.notdef /.notdef /.notdef /.notdef
/.notdef /.notdef /.notdef /.notdef /.notdef
/.notdef /.notdef /.notdef /.notdef /.notdef
/.notdef /.notdef /.notdef /.notdef /.notdef
/.notdef /.notdef /.notdef /.notdef /.notdef
/.notdef /.notdef /.notdef /.notdef /.notdef
/.notdef /.notdef /space /exclam /quotedbl
/numbersign /dollar /percent /ampersand /quotesingle
/parenleft /parenright /asterisk /plus /comma
/hyphen /period /slash /zero /one
/two /three /four /five /six
/seven /eight /nine /colon /semicolon
/less /equal /greater /question /at
/A /B /C /D /E
/F /G /H /I /J
/K /L /M /N /O
/P /Q /R /S /T
/U /V /W /X /Y
/Z /bracketleft /backslash /bracketright /asciicircum
/underscore /quoteleft /a /b /c
/d /e /f /g /h
/i /j /k /l /m
/n /o /p /q /r
/s /t /u /v /w
/x /y /z /braceleft /bar
/braceright /asciitilde /bullet /Euro /bullet
/quotesinglbase /florin /quotedblbase /ellipsis /dagger
/daggerdbl /circumflex /perthousand /Scaron /guilsinglleft
/OE /bullet /Zcaron /bullet /bullet
/quoteleft /quoteright /quotedblleft /quotedblright /bullet
/endash /emdash /asciitilde /trademark /scaron
/guilsinglright /oe /bullet /zcaron /Ydieresis
/space /exclamdown /cent /sterling /currency
/yen /brokenbar /section /dieresis /copyright
/ordfeminine /guillemotleft /logicalnot /sfthyphen /registered
/macron /degree /plusminus /twosuperior /threesuperior
/acute /mu /paragraph /middot /cedilla
/onesuperior /ordmasculine /guillemotright /onequarter /onehalf
/threequarters /questiondown /Agrave /Aacute /Acircumflex
/Atilde /Adieresis /Aring /AE /Ccedilla
/Egrave /Eacute /Ecircumflex /Edieresis /Igrave
/Iacute /Icircumflex /Idieresis /Eth /Ntilde
/Ograve /Oacute /Ocircumflex /Otilde /Odieresis
/multiply /Oslash /Ugrave /Uacute /Ucircumflex
/Udieresis /Yacute /Thorn /germandbls /agrave
/aacute /acircumflex /atilde /adieresis /aring
/ae /ccedilla /egrave /eacute /ecircumflex
/edieresis /igrave /iacute /icircumflex /idieresis
/eth /ntilde /ograve /oacute /ocircumflex
/otilde /odieresis /divide /oslash /ugrave
/uacute /ucircumflex /udieresis /yacute /thorn
/ydieresis
] def
%%EndResource
%FOPBeginFontReencode
/Courier-Bold findfont
dup length dict begin
  {1 index /FID ne {def} {pop pop} ifelse} forall
  /Encoding WinAnsiEncoding def
  currentdict
end
/Courier-Bold exch definefont pop
/Helvetica findfont
dup length dict begin
  {1 index /FID ne {def} {pop pop} ifelse} forall
  /Encoding WinAnsiEncoding def
  currentdict
end
/Helvetica exch definefont pop
/Courier-BoldOblique findfont
dup length dict begin
  {1 index /FID ne {def} {pop pop} ifelse} forall
  /Encoding WinAnsiEncoding def
  currentdict
end
/Courier-BoldOblique exch definefont pop
/Courier-Oblique findfont
dup length dict begin
  {1 index /FID ne {def} {pop pop} ifelse} forall
  /Encoding WinAnsiEncoding def
  currentdict
end
/Courier-Oblique exch definefont pop
/Times-Roman findfont
dup length dict begin
  {1 index /FID ne {def} {pop pop} ifelse} forall
  /Encoding WinAnsiEncoding def
  currentdict
end
/Times-Roman exch definefont pop
/Helvetica-BoldOblique findfont
dup length dict begin
  {1 index /FID ne {def} {pop pop} ifelse} forall
  /Encoding WinAnsiEncoding def
  currentdict
end
/Helvetica-BoldOblique exch definefont pop
/Helvetica-Bold findfont
dup length dict begin
  {1 index /FID ne {def} {pop pop} ifelse} forall
  /Encoding WinAnsiEncoding def
  currentdict
end
/Helvetica-Bold exch definefont pop
/Helvetica-Oblique findfont
dup length dict begin
  {1 index /FID ne {def} {pop pop} ifelse} forall
  /Encoding WinAnsiEncoding def
  currentdict
end
/Helvetica-Oblique exch definefont pop
/Times-BoldItalic findfont
dup length dict begin
  {1 index /FID ne {def} {pop pop} ifelse} forall
  /Encoding WinAnsiEncoding def
  currentdict
end
/Times-BoldItalic exch definefont pop
/Courier findfont
dup length dict begin
  {1 index /FID ne {def} {pop pop} ifelse} forall
  /Encoding WinAnsiEncoding def
  currentdict
end
/Courier exch definefont pop
/Times-Italic findfont
dup length dict begin
  {1 index /FID ne {def} {pop pop} ifelse} forall
  /Encoding WinAnsiEncoding def
  currentdict
end
/Times-Italic exch definefont pop
/Times-Bold findfont
dup length dict begin
  {1 index /FID ne {def} {pop pop} ifelse} forall
  /Encoding WinAnsiEncoding def
  currentdict
end
/Times-Bold exch definefont pop
%FOPEndFontReencode
%%EndProlog
%%Page: 1 1
%%PageBoundingBox: 0 0 428 338
%%BeginPageSetup
[1 0 0 -1 0 338] CT
%%EndPageSetup
GS
[0.75 0 0 0.75 0 0.5] CT
N
0 0 M
570 0 L
570 450 L
0 450 L
0 0 L
cp
clip
1 GC
N
0 0 570 450 re
f
GR
GS
[0.75 0 0 0.75 0 0.5] CT
1 GC
N
0 0 570 450 re
f
GR
GS
[0.75 0 0 0.75 0 0.5] CT
1 GC
N
62 400 M
397 400 L
397 34 L
62 34 L
cp
f
GR
GS
[0.75 0 0 0.75 0 0.5] CT
0.149 GC
2 setlinecap
1 LJ
0.667 LW
N
62 400 M
397 400 L
S
GR
GS
[0.75 0 0 0.75 0 0.5] CT
0.149 GC
2 setlinecap
1 LJ
0.667 LW
N
62 34 M
397 34 L
S
GR
GS
[0.75 0 0 0.75 0 0.5] CT
0.149 GC
2 setlinecap
1 LJ
0.667 LW
N
99.222 400 M
99.222 396.34 L
S
GR
GS
[0.75 0 0 0.75 0 0.5] CT
0.149 GC
2 setlinecap
1 LJ
0.667 LW
N
173.667 400 M
173.667 396.34 L
S
GR
GS
[0.75 0 0 0.75 0 0.5] CT
0.149 GC
2 setlinecap
1 LJ
0.667 LW
N
248.111 400 M
248.111 396.34 L
S
GR
GS
[0.75 0 0 0.75 0 0.5] CT
0.149 GC
2 setlinecap
1 LJ
0.667 LW
N
322.556 400 M
322.556 396.34 L
S
GR
GS
[0.75 0 0 0.75 0 0.5] CT
0.149 GC
2 setlinecap
1 LJ
0.667 LW
N
397 400 M
397 396.34 L
S
GR
GS
[0.75 0 0 0.75 0 0.5] CT
0.149 GC
2 setlinecap
1 LJ
0.667 LW
N
99.222 34 M
99.222 37.66 L
S
GR
GS
[0.75 0 0 0.75 0 0.5] CT
0.149 GC
2 setlinecap
1 LJ
0.667 LW
N
173.667 34 M
173.667 37.66 L
S
GR
GS
[0.75 0 0 0.75 0 0.5] CT
0.149 GC
2 setlinecap
1 LJ
0.667 LW
N
248.111 34 M
248.111 37.66 L
S
GR
GS
[0.75 0 0 0.75 0 0.5] CT
0.149 GC
2 setlinecap
1 LJ
0.667 LW
N
322.556 34 M
322.556 37.66 L
S
GR
GS
[0.75 0 0 0.75 0 0.5] CT
0.149 GC
2 setlinecap
1 LJ
0.667 LW
N
397 34 M
397 37.66 L
S
GR
GS
[0.75 0 0 0.75 74.41667 304.50001] CT
0.149 GC
/Helvetica 13.333 F
GS
[1 0 0 1 0 0] CT
-4.5 13 moveto 
1 -1 scale
(2) t 
GR
GR
GS
[0.75 0 0 0.75 130.25 304.50001] CT
0.149 GC
/Helvetica 13.333 F
GS
[1 0 0 1 0 0] CT
-4.5 13 moveto 
1 -1 scale
(4) t 
GR
GR
GS
[0.75 0 0 0.75 186.08334 304.50001] CT
0.149 GC
/Helvetica 13.333 F
GS
[1 0 0 1 0 0] CT
-4.5 13 moveto 
1 -1 scale
(6) t 
GR
GR
GS
[0.75 0 0 0.75 241.91668 304.50001] CT
0.149 GC
/Helvetica 13.333 F
GS
[1 0 0 1 0 0] CT
-4.5 13 moveto 
1 -1 scale
(8) t 
GR
GR
GS
[0.75 0 0 0.75 297.75 304.50001] CT
0.149 GC
/Helvetica 13.333 F
GS
[1 0 0 1 0 0] CT
-8.5 13 moveto 
1 -1 scale
(10) t 
GR
GR
GS
[0.75 0 0 0.75 172.12511 318.24999] CT
0.149 GC
/Helvetica 14.667 F
GS
[1 0 0 1 0 0] CT
-30 14 moveto 
1 -1 scale
(-log\(tol\)) t 
GR
GR
GS
[0.75 0 0 0.75 0 0.5] CT
0.149 GC
2 setlinecap
1 LJ
0.667 LW
N
62 400 M
62 34 L
S
GR
GS
[0.75 0 0 0.75 0 0.5] CT
0.149 GC
2 setlinecap
1 LJ
0.667 LW
N
397 400 M
397 34 L
S
GR
GS
[0.75 0 0 0.75 0 0.5] CT
0.149 GC
2 setlinecap
1 LJ
0.667 LW
N
62 325.756 M
65.66 325.756 L
S
GR
GS
[0.75 0 0 0.75 0 0.5] CT
0.149 GC
2 setlinecap
1 LJ
0.667 LW
N
62 207.509 M
65.66 207.509 L
S
GR
GS
[0.75 0 0 0.75 0 0.5] CT
0.149 GC
2 setlinecap
1 LJ
0.667 LW
N
62 89.263 M
65.66 89.263 L
S
GR
GS
[0.75 0 0 0.75 0 0.5] CT
0.149 GC
2 setlinecap
1 LJ
0.667 LW
N
397 325.756 M
393.34 325.756 L
S
GR
GS
[0.75 0 0 0.75 0 0.5] CT
0.149 GC
2 setlinecap
1 LJ
0.667 LW
N
397 207.509 M
393.34 207.509 L
S
GR
GS
[0.75 0 0 0.75 0 0.5] CT
0.149 GC
2 setlinecap
1 LJ
0.667 LW
N
397 89.263 M
393.34 89.263 L
S
GR
GS
[0.75 0 0 0.75 16.5 250.25] CT
0.149 GC
/Helvetica 13.333 F
GS
[1 0 0 1 0 0] CT
0 0 moveto 
1 -1 scale
(10) t 
GR
GR
GS
[0.75 0 0 0.75 29.25 245.75] CT
0.149 GC
/Helvetica 10.667 F
GS
[1 0 0 1 0 0] CT
0 0 moveto 
1 -1 scale
(-10) t 
GR
GR
GS
[0.75 0 0 0.75 21.75 161.75] CT
0.149 GC
/Helvetica 13.333 F
GS
[1 0 0 1 0 0] CT
0 0 moveto 
1 -1 scale
(10) t 
GR
GR
GS
[0.75 0 0 0.75 34.5 157.25] CT
0.149 GC
/Helvetica 10.667 F
GS
[1 0 0 1 0 0] CT
0 0 moveto 
1 -1 scale
(-5) t 
GR
GR
GS
[0.75 0 0 0.75 24.75 72.5] CT
0.149 GC
/Helvetica 13.333 F
GS
[1 0 0 1 0 0] CT
0 0 moveto 
1 -1 scale
(10) t 
GR
GR
GS
[0.75 0 0 0.75 37.5 68] CT
0.149 GC
/Helvetica 10.667 F
GS
[1 0 0 1 0 0] CT
0 0 moveto 
1 -1 scale
(0) t 
GR
GR
GS
[0 -0.75 0.75 0 13.25 163.24987] CT
0.149 GC
/Helvetica 14.667 F
GS
[1 0 0 1 0 0] CT
-14.5 -4 moveto 
1 -1 scale
(|Pg|) t 
GR
GR
GS
[0.75 0 0 0.75 0 0.5] CT
0 0 1 RC
1 LJ
0.667 LW
N
62 34 M
99.222 34 L
136.444 86.535 L
173.667 107.391 L
210.889 112.457 L
248.111 151.38 L
285.333 168.144 L
322.556 190.035 L
359.778 213.37 L
397 241.014 L
S
GR
GS
[0.75 0 0 0.75 0 0.5] CT
0 0 1 RC
1 LJ
N
66.5 34.5 M
65.736 32.149 L
63.736 30.696 L
61.264 30.696 L
59.264 32.149 L
58.5 34.5 L
59.264 36.851 L
61.264 38.304 L
63.736 38.304 L
65.736 36.851 L
cp
S
GR
GS
[0.75 0 0 0.75 0 0.5] CT
0 0 1 RC
1 LJ
N
103.5 34.5 M
102.736 32.149 L
100.736 30.696 L
98.264 30.696 L
96.264 32.149 L
95.5 34.5 L
96.264 36.851 L
98.264 38.304 L
100.736 38.304 L
102.736 36.851 L
cp
S
GR
GS
[0.75 0 0 0.75 0 0.5] CT
0 0 1 RC
1 LJ
N
140.5 86.5 M
139.736 84.149 L
137.736 82.696 L
135.264 82.696 L
133.264 84.149 L
132.5 86.5 L
133.264 88.851 L
135.264 90.304 L
137.736 90.304 L
139.736 88.851 L
cp
S
GR
GS
[0.75 0 0 0.75 0 0.5] CT
0 0 1 RC
1 LJ
N
177.5 107.5 M
176.736 105.149 L
174.736 103.696 L
172.264 103.696 L
170.264 105.149 L
169.5 107.5 L
170.264 109.851 L
172.264 111.304 L
174.736 111.304 L
176.736 109.851 L
cp
S
GR
GS
[0.75 0 0 0.75 0 0.5] CT
0 0 1 RC
1 LJ
N
214.5 112.5 M
213.736 110.149 L
211.736 108.696 L
209.264 108.696 L
207.264 110.149 L
206.5 112.5 L
207.264 114.851 L
209.264 116.304 L
211.736 116.304 L
213.736 114.851 L
cp
S
GR
GS
[0.75 0 0 0.75 0 0.5] CT
0 0 1 RC
1 LJ
N
252.5 151.5 M
251.736 149.149 L
249.736 147.696 L
247.264 147.696 L
245.264 149.149 L
244.5 151.5 L
245.264 153.851 L
247.264 155.304 L
249.736 155.304 L
251.736 153.851 L
cp
S
GR
GS
[0.75 0 0 0.75 0 0.5] CT
0 0 1 RC
1 LJ
N
289.5 168.5 M
288.736 166.149 L
286.736 164.696 L
284.264 164.696 L
282.264 166.149 L
281.5 168.5 L
282.264 170.851 L
284.264 172.304 L
286.736 172.304 L
288.736 170.851 L
cp
S
GR
GS
[0.75 0 0 0.75 0 0.5] CT
0 0 1 RC
1 LJ
N
326.5 190.5 M
325.736 188.149 L
323.736 186.696 L
321.264 186.696 L
319.264 188.149 L
318.5 190.5 L
319.264 192.851 L
321.264 194.304 L
323.736 194.304 L
325.736 192.851 L
cp
S
GR
GS
[0.75 0 0 0.75 0 0.5] CT
0 0 1 RC
1 LJ
N
363.5 213.5 M
362.736 211.149 L
360.736 209.696 L
358.264 209.696 L
356.264 211.149 L
355.5 213.5 L
356.264 215.851 L
358.264 217.304 L
360.736 217.304 L
362.736 215.851 L
cp
S
GR
GS
[0.75 0 0 0.75 0 0.5] CT
0 0 1 RC
1 LJ
N
401.5 241.5 M
400.736 239.149 L
398.736 237.696 L
396.264 237.696 L
394.264 239.149 L
393.5 241.5 L
394.264 243.851 L
396.264 245.304 L
398.736 245.304 L
400.736 243.851 L
cp
S
GR
GS
[0.75 0 0 0.75 0 0.5] CT
0 1 0 RC
1 LJ
0.667 LW
N
62 34 M
99.222 34 L
136.444 88.328 L
173.667 108.937 L
210.889 134.839 L
248.111 152.908 L
285.333 174.887 L
322.556 206.001 L
359.778 223.039 L
397 243.785 L
S
GR
GS
[0.75 0 0 0.75 0 0.5] CT
0 1 0 RC
1 LJ
N
66.5 33.5 M
65.736 31.149 L
63.736 29.696 L
61.264 29.696 L
59.264 31.149 L
58.5 33.5 L
59.264 35.851 L
61.264 37.304 L
63.736 37.304 L
65.736 35.851 L
cp
S
GR
GS
[0.75 0 0 0.75 0 0.5] CT
0 1 0 RC
1 LJ
N
103.5 34.5 M
102.736 32.149 L
100.736 30.696 L
98.264 30.696 L
96.264 32.149 L
95.5 34.5 L
96.264 36.851 L
98.264 38.304 L
100.736 38.304 L
102.736 36.851 L
cp
S
GR
GS
[0.75 0 0 0.75 0 0.5] CT
0 1 0 RC
1 LJ
N
140.5 88.5 M
139.736 86.149 L
137.736 84.696 L
135.264 84.696 L
133.264 86.149 L
132.5 88.5 L
133.264 90.851 L
135.264 92.304 L
137.736 92.304 L
139.736 90.851 L
cp
S
GR
GS
[0.75 0 0 0.75 0 0.5] CT
0 1 0 RC
1 LJ
N
177.5 108.5 M
176.736 106.149 L
174.736 104.696 L
172.264 104.696 L
170.264 106.149 L
169.5 108.5 L
170.264 110.851 L
172.264 112.304 L
174.736 112.304 L
176.736 110.851 L
cp
S
GR
GS
[0.75 0 0 0.75 0 0.5] CT
0 1 0 RC
1 LJ
N
214.5 134.5 M
213.736 132.149 L
211.736 130.696 L
209.264 130.696 L
207.264 132.149 L
206.5 134.5 L
207.264 136.851 L
209.264 138.304 L
211.736 138.304 L
213.736 136.851 L
cp
S
GR
GS
[0.75 0 0 0.75 0 0.5] CT
0 1 0 RC
1 LJ
N
252.5 152.5 M
251.736 150.149 L
249.736 148.696 L
247.264 148.696 L
245.264 150.149 L
244.5 152.5 L
245.264 154.851 L
247.264 156.304 L
249.736 156.304 L
251.736 154.851 L
cp
S
GR
GS
[0.75 0 0 0.75 0 0.5] CT
0 1 0 RC
1 LJ
N
289.5 174.5 M
288.736 172.149 L
286.736 170.696 L
284.264 170.696 L
282.264 172.149 L
281.5 174.5 L
282.264 176.851 L
284.264 178.304 L
286.736 178.304 L
288.736 176.851 L
cp
S
GR
GS
[0.75 0 0 0.75 0 0.5] CT
0 1 0 RC
1 LJ
N
326.5 206.5 M
325.736 204.149 L
323.736 202.696 L
321.264 202.696 L
319.264 204.149 L
318.5 206.5 L
319.264 208.851 L
321.264 210.304 L
323.736 210.304 L
325.736 208.851 L
cp
S
GR
GS
[0.75 0 0 0.75 0 0.5] CT
0 1 0 RC
1 LJ
N
363.5 223.5 M
362.736 221.149 L
360.736 219.696 L
358.264 219.696 L
356.264 221.149 L
355.5 223.5 L
356.264 225.851 L
358.264 227.304 L
360.736 227.304 L
362.736 225.851 L
cp
S
GR
GS
[0.75 0 0 0.75 0 0.5] CT
0 1 0 RC
1 LJ
N
401.5 243.5 M
400.736 241.149 L
398.736 239.696 L
396.264 239.696 L
394.264 241.149 L
393.5 243.5 L
394.264 245.851 L
396.264 247.304 L
398.736 247.304 L
400.736 245.851 L
cp
S
GR
GS
[0.75 0 0 0.75 0 0.5] CT
1 0 0 RC
1 LJ
0.667 LW
N
62 57.637 M
99.222 88.277 L
136.444 108.059 L
173.667 154.463 L
210.889 164.764 L
248.111 211.926 L
285.333 266.597 L
322.556 304.135 L
359.778 353.231 L
397 400 L
S
GR
GS
[0.75 0 0 0.75 0 0.5] CT
1 0 0 RC
1 LJ
N
66.5 57.5 M
65.736 55.149 L
63.736 53.696 L
61.264 53.696 L
59.264 55.149 L
58.5 57.5 L
59.264 59.851 L
61.264 61.304 L
63.736 61.304 L
65.736 59.851 L
cp
S
GR
GS
[0.75 0 0 0.75 0 0.5] CT
1 0 0 RC
1 LJ
N
103.5 88.5 M
102.736 86.149 L
100.736 84.696 L
98.264 84.696 L
96.264 86.149 L
95.5 88.5 L
96.264 90.851 L
98.264 92.304 L
100.736 92.304 L
102.736 90.851 L
cp
S
GR
GS
[0.75 0 0 0.75 0 0.5] CT
1 0 0 RC
1 LJ
N
140.5 108.5 M
139.736 106.149 L
137.736 104.696 L
135.264 104.696 L
133.264 106.149 L
132.5 108.5 L
133.264 110.851 L
135.264 112.304 L
137.736 112.304 L
139.736 110.851 L
cp
S
GR
GS
[0.75 0 0 0.75 0 0.5] CT
1 0 0 RC
1 LJ
N
177.5 154.5 M
176.736 152.149 L
174.736 150.696 L
172.264 150.696 L
170.264 152.149 L
169.5 154.5 L
170.264 156.851 L
172.264 158.304 L
174.736 158.304 L
176.736 156.851 L
cp
S
GR
GS
[0.75 0 0 0.75 0 0.5] CT
1 0 0 RC
1 LJ
N
214.5 164.5 M
213.736 162.149 L
211.736 160.696 L
209.264 160.696 L
207.264 162.149 L
206.5 164.5 L
207.264 166.851 L
209.264 168.304 L
211.736 168.304 L
213.736 166.851 L
cp
S
GR
GS
[0.75 0 0 0.75 0 0.5] CT
1 0 0 RC
1 LJ
N
252.5 211.5 M
251.736 209.149 L
249.736 207.696 L
247.264 207.696 L
245.264 209.149 L
244.5 211.5 L
245.264 213.851 L
247.264 215.304 L
249.736 215.304 L
251.736 213.851 L
cp
S
GR
GS
[0.75 0 0 0.75 0 0.5] CT
1 0 0 RC
1 LJ
N
289.5 266.5 M
288.736 264.149 L
286.736 262.696 L
284.264 262.696 L
282.264 264.149 L
281.5 266.5 L
282.264 268.851 L
284.264 270.304 L
286.736 270.304 L
288.736 268.851 L
cp
S
GR
GS
[0.75 0 0 0.75 0 0.5] CT
1 0 0 RC
1 LJ
N
326.5 304.5 M
325.736 302.149 L
323.736 300.696 L
321.264 300.696 L
319.264 302.149 L
318.5 304.5 L
319.264 306.851 L
321.264 308.304 L
323.736 308.304 L
325.736 306.851 L
cp
S
GR
GS
[0.75 0 0 0.75 0 0.5] CT
1 0 0 RC
1 LJ
N
363.5 353.5 M
362.736 351.149 L
360.736 349.696 L
358.264 349.696 L
356.264 351.149 L
355.5 353.5 L
356.264 355.851 L
358.264 357.304 L
360.736 357.304 L
362.736 355.851 L
cp
S
GR
GS
[0.75 0 0 0.75 0 0.5] CT
1 0 0 RC
1 LJ
N
401.5 399.5 M
400.736 397.149 L
398.736 395.696 L
396.264 395.696 L
394.264 397.149 L
393.5 399.5 L
394.264 401.851 L
396.264 403.304 L
398.736 403.304 L
400.736 401.851 L
cp
S
GR
GS
[0.75 0 0 0.75 0 0.5] CT
0 1 1 RC
1 LJ
0.667 LW
N
62 57.63 M
99.222 81.448 L
136.444 106.692 L
173.667 144.621 L
210.889 159.847 L
248.111 258.676 L
285.333 219.583 L
322.556 258.87 L
359.778 309.827 L
397 351.878 L
S
GR
GS
[0.75 0 0 0.75 0 0.5] CT
0 1 1 RC
1 LJ
N
66.5 57.5 M
65.736 55.149 L
63.736 53.696 L
61.264 53.696 L
59.264 55.149 L
58.5 57.5 L
59.264 59.851 L
61.264 61.304 L
63.736 61.304 L
65.736 59.851 L
cp
S
GR
GS
[0.75 0 0 0.75 0 0.5] CT
0 1 1 RC
1 LJ
N
103.5 81.5 M
102.736 79.149 L
100.736 77.696 L
98.264 77.696 L
96.264 79.149 L
95.5 81.5 L
96.264 83.851 L
98.264 85.304 L
100.736 85.304 L
102.736 83.851 L
cp
S
GR
GS
[0.75 0 0 0.75 0 0.5] CT
0 1 1 RC
1 LJ
N
140.5 106.5 M
139.736 104.149 L
137.736 102.696 L
135.264 102.696 L
133.264 104.149 L
132.5 106.5 L
133.264 108.851 L
135.264 110.304 L
137.736 110.304 L
139.736 108.851 L
cp
S
GR
GS
[0.75 0 0 0.75 0 0.5] CT
0 1 1 RC
1 LJ
N
177.5 144.5 M
176.736 142.149 L
174.736 140.696 L
172.264 140.696 L
170.264 142.149 L
169.5 144.5 L
170.264 146.851 L
172.264 148.304 L
174.736 148.304 L
176.736 146.851 L
cp
S
GR
GS
[0.75 0 0 0.75 0 0.5] CT
0 1 1 RC
1 LJ
N
214.5 159.5 M
213.736 157.149 L
211.736 155.696 L
209.264 155.696 L
207.264 157.149 L
206.5 159.5 L
207.264 161.851 L
209.264 163.304 L
211.736 163.304 L
213.736 161.851 L
cp
S
GR
GS
[0.75 0 0 0.75 0 0.5] CT
0 1 1 RC
1 LJ
N
252.5 258.5 M
251.736 256.149 L
249.736 254.696 L
247.264 254.696 L
245.264 256.149 L
244.5 258.5 L
245.264 260.851 L
247.264 262.304 L
249.736 262.304 L
251.736 260.851 L
cp
S
GR
GS
[0.75 0 0 0.75 0 0.5] CT
0 1 1 RC
1 LJ
N
289.5 219.5 M
288.736 217.149 L
286.736 215.696 L
284.264 215.696 L
282.264 217.149 L
281.5 219.5 L
282.264 221.851 L
284.264 223.304 L
286.736 223.304 L
288.736 221.851 L
cp
S
GR
GS
[0.75 0 0 0.75 0 0.5] CT
0 1 1 RC
1 LJ
N
326.5 258.5 M
325.736 256.149 L
323.736 254.696 L
321.264 254.696 L
319.264 256.149 L
318.5 258.5 L
319.264 260.851 L
321.264 262.304 L
323.736 262.304 L
325.736 260.851 L
cp
S
GR
GS
[0.75 0 0 0.75 0 0.5] CT
0 1 1 RC
1 LJ
N
363.5 309.5 M
362.736 307.149 L
360.736 305.696 L
358.264 305.696 L
356.264 307.149 L
355.5 309.5 L
356.264 311.851 L
358.264 313.304 L
360.736 313.304 L
362.736 311.851 L
cp
S
GR
GS
[0.75 0 0 0.75 0 0.5] CT
0 1 1 RC
1 LJ
N
401.5 351.5 M
400.736 349.149 L
398.736 347.696 L
396.264 347.696 L
394.264 349.149 L
393.5 351.5 L
394.264 353.851 L
396.264 355.304 L
398.736 355.304 L
400.736 353.851 L
cp
S
GR
GS
[0.75 0 0 0.75 0 0.5] CT
1 0 1 RC
1 LJ
0.667 LW
N
62 57.637 M
99.222 88.277 L
136.444 108.059 L
173.667 154.463 L
210.889 164.764 L
248.111 211.926 L
285.333 266.597 L
322.556 304.135 L
359.778 353.231 L
397 400 L
S
GR
GS
[0.75 0 0 0.75 0 0.5] CT
1 0 1 RC
1 LJ
N
66.5 57.5 M
65.736 55.149 L
63.736 53.696 L
61.264 53.696 L
59.264 55.149 L
58.5 57.5 L
59.264 59.851 L
61.264 61.304 L
63.736 61.304 L
65.736 59.851 L
cp
S
GR
GS
[0.75 0 0 0.75 0 0.5] CT
1 0 1 RC
1 LJ
N
103.5 88.5 M
102.736 86.149 L
100.736 84.696 L
98.264 84.696 L
96.264 86.149 L
95.5 88.5 L
96.264 90.851 L
98.264 92.304 L
100.736 92.304 L
102.736 90.851 L
cp
S
GR
GS
[0.75 0 0 0.75 0 0.5] CT
1 0 1 RC
1 LJ
N
140.5 108.5 M
139.736 106.149 L
137.736 104.696 L
135.264 104.696 L
133.264 106.149 L
132.5 108.5 L
133.264 110.851 L
135.264 112.304 L
137.736 112.304 L
139.736 110.851 L
cp
S
GR
GS
[0.75 0 0 0.75 0 0.5] CT
1 0 1 RC
1 LJ
N
177.5 154.5 M
176.736 152.149 L
174.736 150.696 L
172.264 150.696 L
170.264 152.149 L
169.5 154.5 L
170.264 156.851 L
172.264 158.304 L
174.736 158.304 L
176.736 156.851 L
cp
S
GR
GS
[0.75 0 0 0.75 0 0.5] CT
1 0 1 RC
1 LJ
N
214.5 164.5 M
213.736 162.149 L
211.736 160.696 L
209.264 160.696 L
207.264 162.149 L
206.5 164.5 L
207.264 166.851 L
209.264 168.304 L
211.736 168.304 L
213.736 166.851 L
cp
S
GR
GS
[0.75 0 0 0.75 0 0.5] CT
1 0 1 RC
1 LJ
N
252.5 211.5 M
251.736 209.149 L
249.736 207.696 L
247.264 207.696 L
245.264 209.149 L
244.5 211.5 L
245.264 213.851 L
247.264 215.304 L
249.736 215.304 L
251.736 213.851 L
cp
S
GR
GS
[0.75 0 0 0.75 0 0.5] CT
1 0 1 RC
1 LJ
N
289.5 266.5 M
288.736 264.149 L
286.736 262.696 L
284.264 262.696 L
282.264 264.149 L
281.5 266.5 L
282.264 268.851 L
284.264 270.304 L
286.736 270.304 L
288.736 268.851 L
cp
S
GR
GS
[0.75 0 0 0.75 0 0.5] CT
1 0 1 RC
1 LJ
N
326.5 304.5 M
325.736 302.149 L
323.736 300.696 L
321.264 300.696 L
319.264 302.149 L
318.5 304.5 L
319.264 306.851 L
321.264 308.304 L
323.736 308.304 L
325.736 306.851 L
cp
S
GR
GS
[0.75 0 0 0.75 0 0.5] CT
1 0 1 RC
1 LJ
N
363.5 353.5 M
362.736 351.149 L
360.736 349.696 L
358.264 349.696 L
356.264 351.149 L
355.5 353.5 L
356.264 355.851 L
358.264 357.304 L
360.736 357.304 L
362.736 355.851 L
cp
S
GR
GS
[0.75 0 0 0.75 0 0.5] CT
1 0 1 RC
1 LJ
N
401.5 399.5 M
400.736 397.149 L
398.736 395.696 L
396.264 395.696 L
394.264 397.149 L
393.5 399.5 L
394.264 401.851 L
396.264 403.304 L
398.736 403.304 L
400.736 401.851 L
cp
S
GR
GS
[0.75 0 0 0.75 0 0.5] CT
1 LJ
0.667 LW
N
62 67.407 M
99.222 82.821 L
136.444 107.563 L
173.667 137.656 L
210.889 153.219 L
248.111 182.842 L
285.333 188.172 L
322.556 188.172 L
359.778 188.172 L
397 188.172 L
S
GR
GS
[0.75 0 0 0.75 0 0.5] CT
1 LJ
N
66.5 67.5 M
65.736 65.149 L
63.736 63.696 L
61.264 63.696 L
59.264 65.149 L
58.5 67.5 L
59.264 69.851 L
61.264 71.304 L
63.736 71.304 L
65.736 69.851 L
cp
S
GR
GS
[0.75 0 0 0.75 0 0.5] CT
1 LJ
N
103.5 82.5 M
102.736 80.149 L
100.736 78.696 L
98.264 78.696 L
96.264 80.149 L
95.5 82.5 L
96.264 84.851 L
98.264 86.304 L
100.736 86.304 L
102.736 84.851 L
cp
S
GR
GS
[0.75 0 0 0.75 0 0.5] CT
1 LJ
N
140.5 107.5 M
139.736 105.149 L
137.736 103.696 L
135.264 103.696 L
133.264 105.149 L
132.5 107.5 L
133.264 109.851 L
135.264 111.304 L
137.736 111.304 L
139.736 109.851 L
cp
S
GR
GS
[0.75 0 0 0.75 0 0.5] CT
1 LJ
N
177.5 137.5 M
176.736 135.149 L
174.736 133.696 L
172.264 133.696 L
170.264 135.149 L
169.5 137.5 L
170.264 139.851 L
172.264 141.304 L
174.736 141.304 L
176.736 139.851 L
cp
S
GR
GS
[0.75 0 0 0.75 0 0.5] CT
1 LJ
N
214.5 153.5 M
213.736 151.149 L
211.736 149.696 L
209.264 149.696 L
207.264 151.149 L
206.5 153.5 L
207.264 155.851 L
209.264 157.304 L
211.736 157.304 L
213.736 155.851 L
cp
S
GR
GS
[0.75 0 0 0.75 0 0.5] CT
1 LJ
N
252.5 182.5 M
251.736 180.149 L
249.736 178.696 L
247.264 178.696 L
245.264 180.149 L
244.5 182.5 L
245.264 184.851 L
247.264 186.304 L
249.736 186.304 L
251.736 184.851 L
cp
S
GR
GS
[0.75 0 0 0.75 0 0.5] CT
1 LJ
N
289.5 188.5 M
288.736 186.149 L
286.736 184.696 L
284.264 184.696 L
282.264 186.149 L
281.5 188.5 L
282.264 190.851 L
284.264 192.304 L
286.736 192.304 L
288.736 190.851 L
cp
S
GR
GS
[0.75 0 0 0.75 0 0.5] CT
1 LJ
N
326.5 188.5 M
325.736 186.149 L
323.736 184.696 L
321.264 184.696 L
319.264 186.149 L
318.5 188.5 L
319.264 190.851 L
321.264 192.304 L
323.736 192.304 L
325.736 190.851 L
cp
S
GR
GS
[0.75 0 0 0.75 0 0.5] CT
1 LJ
N
363.5 188.5 M
362.736 186.149 L
360.736 184.696 L
358.264 184.696 L
356.264 186.149 L
355.5 188.5 L
356.264 190.851 L
358.264 192.304 L
360.736 192.304 L
362.736 190.851 L
cp
S
GR
GS
[0.75 0 0 0.75 0 0.5] CT
1 LJ
N
401.5 188.5 M
400.736 186.149 L
398.736 184.696 L
396.264 184.696 L
394.264 186.149 L
393.5 188.5 L
394.264 190.851 L
396.264 192.304 L
398.736 192.304 L
400.736 190.851 L
cp
S
GR
GS
[0.75 0 0 0.75 0 0.5] CT
0 0 1 RC
[8 3 2 3] 0 setdash
2 LJ
0.667 LW
N
62 57.833 M
99.222 84.516 L
136.444 119.065 L
173.667 133.76 L
210.889 153.951 L
248.111 176.487 L
285.333 209.359 L
322.556 236.294 L
359.778 236.578 L
397 236.578 L
S
GR
GS
[0.75 0 0 0.75 0 0.5] CT
0 0 1 RC
10.0 ML
N
62.5 62.832 M
66.5 57.5 L
62.5 52.168 L
58.5 57.5 L
cp
S
GR
GS
[0.75 0 0 0.75 0 0.5] CT
0 0 1 RC
10.0 ML
N
99.5 89.832 M
103.5 84.5 L
99.5 79.168 L
95.5 84.5 L
cp
S
GR
GS
[0.75 0 0 0.75 0 0.5] CT
0 0 1 RC
10.0 ML
N
136.5 124.832 M
140.5 119.5 L
136.5 114.168 L
132.5 119.5 L
cp
S
GR
GS
[0.75 0 0 0.75 0 0.5] CT
0 0 1 RC
10.0 ML
N
173.5 138.832 M
177.5 133.5 L
173.5 128.168 L
169.5 133.5 L
cp
S
GR
GS
[0.75 0 0 0.75 0 0.5] CT
0 0 1 RC
10.0 ML
N
210.5 158.832 M
214.5 153.5 L
210.5 148.168 L
206.5 153.5 L
cp
S
GR
GS
[0.75 0 0 0.75 0 0.5] CT
0 0 1 RC
10.0 ML
N
248.5 181.832 M
252.5 176.5 L
248.5 171.168 L
244.5 176.5 L
cp
S
GR
GS
[0.75 0 0 0.75 0 0.5] CT
0 0 1 RC
10.0 ML
N
285.5 214.832 M
289.5 209.5 L
285.5 204.168 L
281.5 209.5 L
cp
S
GR
GS
[0.75 0 0 0.75 0 0.5] CT
0 0 1 RC
10.0 ML
N
322.5 241.832 M
326.5 236.5 L
322.5 231.168 L
318.5 236.5 L
cp
S
GR
GS
[0.75 0 0 0.75 0 0.5] CT
0 0 1 RC
10.0 ML
N
359.5 241.832 M
363.5 236.5 L
359.5 231.168 L
355.5 236.5 L
cp
S
GR
GS
[0.75 0 0 0.75 0 0.5] CT
0 0 1 RC
10.0 ML
N
397.5 241.832 M
401.5 236.5 L
397.5 231.168 L
393.5 236.5 L
cp
S
GR
GS
[0.75 0 0 0.75 0 0.5] CT
0 1 0 RC
[8 3 2 3] 0 setdash
2 LJ
0.667 LW
N
62 69.761 M
99.222 81.552 L
136.444 106.724 L
173.667 141.272 L
210.889 153.712 L
248.111 183.172 L
285.333 200.615 L
322.556 278.341 L
359.778 278.341 L
397 278.341 L
S
GR
GS
[0.75 0 0 0.75 0 0.5] CT
0 1 0 RC
10.0 ML
N
62.5 74.832 M
66.5 69.5 L
62.5 64.168 L
58.5 69.5 L
cp
S
GR
GS
[0.75 0 0 0.75 0 0.5] CT
0 1 0 RC
10.0 ML
N
99.5 86.832 M
103.5 81.5 L
99.5 76.168 L
95.5 81.5 L
cp
S
GR
GS
[0.75 0 0 0.75 0 0.5] CT
0 1 0 RC
10.0 ML
N
136.5 111.832 M
140.5 106.5 L
136.5 101.168 L
132.5 106.5 L
cp
S
GR
GS
[0.75 0 0 0.75 0 0.5] CT
0 1 0 RC
10.0 ML
N
173.5 146.832 M
177.5 141.5 L
173.5 136.168 L
169.5 141.5 L
cp
S
GR
GS
[0.75 0 0 0.75 0 0.5] CT
0 1 0 RC
10.0 ML
N
210.5 158.832 M
214.5 153.5 L
210.5 148.168 L
206.5 153.5 L
cp
S
GR
GS
[0.75 0 0 0.75 0 0.5] CT
0 1 0 RC
10.0 ML
N
248.5 188.832 M
252.5 183.5 L
248.5 178.168 L
244.5 183.5 L
cp
S
GR
GS
[0.75 0 0 0.75 0 0.5] CT
0 1 0 RC
10.0 ML
N
285.5 205.832 M
289.5 200.5 L
285.5 195.168 L
281.5 200.5 L
cp
S
GR
GS
[0.75 0 0 0.75 0 0.5] CT
0 1 0 RC
10.0 ML
N
322.5 283.832 M
326.5 278.5 L
322.5 273.168 L
318.5 278.5 L
cp
S
GR
GS
[0.75 0 0 0.75 0 0.5] CT
0 1 0 RC
10.0 ML
N
359.5 283.832 M
363.5 278.5 L
359.5 273.168 L
355.5 278.5 L
cp
S
GR
GS
[0.75 0 0 0.75 0 0.5] CT
0 1 0 RC
10.0 ML
N
397.5 283.832 M
401.5 278.5 L
397.5 273.168 L
393.5 278.5 L
cp
S
GR
GS
[0.75 0 0 0.75 0 0.5] CT
1 0 0 RC
[8 3 2 3] 0 setdash
2 LJ
0.667 LW
N
62 93.746 M
99.222 120.348 L
136.444 140.404 L
173.667 170.986 L
210.889 192.341 L
248.111 215.001 L
285.333 233.914 L
322.556 269.998 L
359.778 286.688 L
397 305.348 L
S
GR
GS
[0.75 0 0 0.75 0 0.5] CT
1 0 0 RC
10.0 ML
N
62.5 98.832 M
66.5 93.5 L
62.5 88.168 L
58.5 93.5 L
cp
S
GR
GS
[0.75 0 0 0.75 0 0.5] CT
1 0 0 RC
10.0 ML
N
99.5 125.832 M
103.5 120.5 L
99.5 115.168 L
95.5 120.5 L
cp
S
GR
GS
[0.75 0 0 0.75 0 0.5] CT
1 0 0 RC
10.0 ML
N
136.5 145.832 M
140.5 140.5 L
136.5 135.168 L
132.5 140.5 L
cp
S
GR
GS
[0.75 0 0 0.75 0 0.5] CT
1 0 0 RC
10.0 ML
N
173.5 175.832 M
177.5 170.5 L
173.5 165.168 L
169.5 170.5 L
cp
S
GR
GS
[0.75 0 0 0.75 0 0.5] CT
1 0 0 RC
10.0 ML
N
210.5 197.832 M
214.5 192.5 L
210.5 187.168 L
206.5 192.5 L
cp
S
GR
GS
[0.75 0 0 0.75 0 0.5] CT
1 0 0 RC
10.0 ML
N
248.5 220.832 M
252.5 215.5 L
248.5 210.168 L
244.5 215.5 L
cp
S
GR
GS
[0.75 0 0 0.75 0 0.5] CT
1 0 0 RC
10.0 ML
N
285.5 238.832 M
289.5 233.5 L
285.5 228.168 L
281.5 233.5 L
cp
S
GR
GS
[0.75 0 0 0.75 0 0.5] CT
1 0 0 RC
10.0 ML
N
322.5 274.832 M
326.5 269.5 L
322.5 264.168 L
318.5 269.5 L
cp
S
GR
GS
[0.75 0 0 0.75 0 0.5] CT
1 0 0 RC
10.0 ML
N
359.5 291.832 M
363.5 286.5 L
359.5 281.168 L
355.5 286.5 L
cp
S
GR
GS
[0.75 0 0 0.75 0 0.5] CT
1 0 0 RC
10.0 ML
N
397.5 310.832 M
401.5 305.5 L
397.5 300.168 L
393.5 305.5 L
cp
S
GR
GS
[0.75 0 0 0.75 0 0.5] CT
0 1 1 RC
[8 3 2 3] 0 setdash
2 LJ
0.667 LW
N
62 75.953 M
99.222 101.254 L
136.444 129.131 L
173.667 129.131 L
210.889 153.466 L
248.111 183.374 L
285.333 208.518 L
322.556 233.701 L
359.778 260.324 L
397 260.324 L
S
GR
GS
[0.75 0 0 0.75 0 0.5] CT
0 1 1 RC
10.0 ML
N
62.5 80.832 M
66.5 75.5 L
62.5 70.168 L
58.5 75.5 L
cp
S
GR
GS
[0.75 0 0 0.75 0 0.5] CT
0 1 1 RC
10.0 ML
N
99.5 106.832 M
103.5 101.5 L
99.5 96.168 L
95.5 101.5 L
cp
S
GR
GS
[0.75 0 0 0.75 0 0.5] CT
0 1 1 RC
10.0 ML
N
136.5 134.832 M
140.5 129.5 L
136.5 124.168 L
132.5 129.5 L
cp
S
GR
GS
[0.75 0 0 0.75 0 0.5] CT
0 1 1 RC
10.0 ML
N
173.5 134.832 M
177.5 129.5 L
173.5 124.168 L
169.5 129.5 L
cp
S
GR
GS
[0.75 0 0 0.75 0 0.5] CT
0 1 1 RC
10.0 ML
N
210.5 158.832 M
214.5 153.5 L
210.5 148.168 L
206.5 153.5 L
cp
S
GR
GS
[0.75 0 0 0.75 0 0.5] CT
0 1 1 RC
10.0 ML
N
248.5 188.832 M
252.5 183.5 L
248.5 178.168 L
244.5 183.5 L
cp
S
GR
GS
[0.75 0 0 0.75 0 0.5] CT
0 1 1 RC
10.0 ML
N
285.5 213.832 M
289.5 208.5 L
285.5 203.168 L
281.5 208.5 L
cp
S
GR
GS
[0.75 0 0 0.75 0 0.5] CT
0 1 1 RC
10.0 ML
N
322.5 238.832 M
326.5 233.5 L
322.5 228.168 L
318.5 233.5 L
cp
S
GR
GS
[0.75 0 0 0.75 0 0.5] CT
0 1 1 RC
10.0 ML
N
359.5 265.832 M
363.5 260.5 L
359.5 255.168 L
355.5 260.5 L
cp
S
GR
GS
[0.75 0 0 0.75 0 0.5] CT
0 1 1 RC
10.0 ML
N
397.5 265.832 M
401.5 260.5 L
397.5 255.168 L
393.5 260.5 L
cp
S
GR
GS
[0.75 0 0 0.75 0 0.5] CT
1 GC
N
419 192 M
419 34 L
528 34 L
528 192 L
cp
f
GR
GS
[0.75 0 0 0.75 342 33.10252] CT
/Helvetica 12 F
GS
[1 0 0 1 0 0] CT
0 4.5 moveto 
1 -1 scale
(Tmplsqr) t 
GR
GR
GS
[0.75 0 0 0.75 0 0.5] CT
0 0 1 RC
1 LJ
0.667 LW
N
423 43.47 M
453 43.47 L
S
GR
GS
[0.75 0 0 0.75 0 0.5] CT
0 0 1 RC
1 LJ
N
442.5 43.5 M
441.736 41.149 L
439.736 39.696 L
437.264 39.696 L
435.264 41.149 L
434.5 43.5 L
435.264 45.851 L
437.264 47.304 L
439.736 47.304 L
441.736 45.851 L
cp
S
GR
GS
[0.75 0 0 0.75 342 44.69085] CT
/Helvetica 12 F
GS
[1 0 0 1 0 0] CT
0 4.5 moveto 
1 -1 scale
(Tmplsmr) t 
GR
GR
GS
[0.75 0 0 0.75 0 0.5] CT
0 1 0 RC
1 LJ
0.667 LW
N
423 58.921 M
453 58.921 L
S
GR
GS
[0.75 0 0 0.75 0 0.5] CT
0 1 0 RC
1 LJ
N
442.5 58.5 M
441.736 56.149 L
439.736 54.696 L
437.264 54.696 L
435.264 56.149 L
434.5 58.5 L
435.264 60.851 L
437.264 62.304 L
439.736 62.304 L
441.736 60.851 L
cp
S
GR
GS
[0.75 0 0 0.75 342 56.27918] CT
/Helvetica 12 F
GS
[1 0 0 1 0 0] CT
0 4.5 moveto 
1 -1 scale
(Tmppcg) t 
GR
GR
GS
[0.75 0 0 0.75 0 0.5] CT
1 0 0 RC
1 LJ
0.667 LW
N
423 74.372 M
453 74.372 L
S
GR
GS
[0.75 0 0 0.75 0 0.5] CT
1 0 0 RC
1 LJ
N
442.5 74.5 M
441.736 72.149 L
439.736 70.696 L
437.264 70.696 L
435.264 72.149 L
434.5 74.5 L
435.264 76.851 L
437.264 78.304 L
439.736 78.304 L
441.736 76.851 L
cp
S
GR
GS
[0.75 0 0 0.75 342 67.86751] CT
/Helvetica 12 F
GS
[1 0 0 1 0 0] CT
0 4.5 moveto 
1 -1 scale
(Tmpminres) t 
GR
GR
GS
[0.75 0 0 0.75 0 0.5] CT
0 1 1 RC
1 LJ
0.667 LW
N
423 89.823 M
453 89.823 L
S
GR
GS
[0.75 0 0 0.75 0 0.5] CT
0 1 1 RC
1 LJ
N
442.5 89.5 M
441.736 87.149 L
439.736 85.696 L
437.264 85.696 L
435.264 87.149 L
434.5 89.5 L
435.264 91.851 L
437.264 93.304 L
439.736 93.304 L
441.736 91.851 L
cp
S
GR
GS
[0.75 0 0 0.75 342 79.45584] CT
/Helvetica 12 F
GS
[1 0 0 1 0 0] CT
0 4.5 moveto 
1 -1 scale
(Pnb) t 
GR
GR
GS
[0.75 0 0 0.75 0 0.5] CT
1 0 1 RC
1 LJ
0.667 LW
N
423 105.274 M
453 105.274 L
S
GR
GS
[0.75 0 0 0.75 0 0.5] CT
1 0 1 RC
1 LJ
N
442.5 105.5 M
441.736 103.149 L
439.736 101.696 L
437.264 101.696 L
435.264 103.149 L
434.5 105.5 L
435.264 107.851 L
437.264 109.304 L
439.736 109.304 L
441.736 107.851 L
cp
S
GR
GS
[0.75 0 0 0.75 342 91.04416] CT
/Helvetica 12 F
GS
[1 0 0 1 0 0] CT
0 4.5 moveto 
1 -1 scale
(Bb) t 
GR
GR
GS
[0.75 0 0 0.75 0 0.5] CT
1 LJ
0.667 LW
N
423 120.726 M
453 120.726 L
S
GR
GS
[0.75 0 0 0.75 0 0.5] CT
1 LJ
N
442.5 120.5 M
441.736 118.149 L
439.736 116.696 L
437.264 116.696 L
435.264 118.149 L
434.5 120.5 L
435.264 122.851 L
437.264 124.304 L
439.736 124.304 L
441.736 122.851 L
cp
S
GR
GS
[0.75 0 0 0.75 342 102.63249] CT
/Helvetica 12 F
GS
[1 0 0 1 0 0] CT
0 4.5 moveto 
1 -1 scale
(Spg) t 
GR
GR
GS
[0.75 0 0 0.75 0 0.5] CT
0 0 1 RC
[8 3 2 3] 0 setdash
2 LJ
0.667 LW
N
423 136.177 M
453 136.177 L
S
GR
GS
[0.75 0 0 0.75 0 0.5] CT
0 0 1 RC
10.0 ML
N
438.5 141.832 M
442.5 136.5 L
438.5 131.168 L
434.5 136.5 L
cp
S
GR
GS
[0.75 0 0 0.75 342 114.22082] CT
/Helvetica 12 F
GS
[1 0 0 1 0 0] CT
0 4.5 moveto 
1 -1 scale
(Pqn) t 
GR
GR
GS
[0.75 0 0 0.75 0 0.5] CT
0 1 0 RC
[8 3 2 3] 0 setdash
2 LJ
0.667 LW
N
423 151.628 M
453 151.628 L
S
GR
GS
[0.75 0 0 0.75 0 0.5] CT
0 1 0 RC
10.0 ML
N
438.5 156.832 M
442.5 151.5 L
438.5 146.168 L
434.5 151.5 L
cp
S
GR
GS
[0.75 0 0 0.75 342 125.80915] CT
/Helvetica 12 F
GS
[1 0 0 1 0 0] CT
0 4.5 moveto 
1 -1 scale
(Lbfgsb) t 
GR
GR
GS
[0.75 0 0 0.75 0 0.5] CT
1 0 0 RC
[8 3 2 3] 0 setdash
2 LJ
0.667 LW
N
423 167.079 M
453 167.079 L
S
GR
GS
[0.75 0 0 0.75 0 0.5] CT
1 0 0 RC
10.0 ML
N
438.5 172.832 M
442.5 167.5 L
438.5 162.168 L
434.5 167.5 L
cp
S
GR
GS
[0.75 0 0 0.75 342 137.39748] CT
/Helvetica 12 F
GS
[1 0 0 1 0 0] CT
0 4.5 moveto 
1 -1 scale
(Bcflash) t 
GR
GR
GS
[0.75 0 0 0.75 0 0.5] CT
0 1 1 RC
[8 3 2 3] 0 setdash
2 LJ
0.667 LW
N
423 182.53 M
453 182.53 L
S
GR
GS
[0.75 0 0 0.75 0 0.5] CT
0 1 1 RC
10.0 ML
N
438.5 187.832 M
442.5 182.5 L
438.5 177.168 L
434.5 182.5 L
cp
S
GR
GS
[0.75 0 0 0.75 0 0.5] CT
0.149 GC
10.0 ML
0.667 LW
N
419 192 M
419 34 L
528 34 L
528 192 L
cp
S
GR
%%Trailer
%%Pages: 1
%%EOF
