%!PS-Adobe-3.0 EPSF-3.0
%%Creator: (MATLAB, The Mathworks, Inc. Version 9.0.0.341360 \(R2016a\). Operating System: Linux)
%%Title: data/fact4logtolH.eps
%%CreationDate: 2017-02-04T13:28:35
%%Pages: (atend)
%%BoundingBox:     6     6   397   316
%%LanguageLevel: 3
%%EndComments
%%BeginProlog
%%BeginResource: procset (Apache XML Graphics Std ProcSet) 1.2 0
%%Version: 1.2 0
%%Copyright: (Copyright 2001-2003,2010 The Apache Software Foundation. License terms: http://www.apache.org/licenses/LICENSE-2.0)
/bd{bind def}bind def
/ld{load def}bd
/GR/grestore ld
/M/moveto ld
/LJ/setlinejoin ld
/C/curveto ld
/f/fill ld
/LW/setlinewidth ld
/GC/setgray ld
/t/show ld
/N/newpath ld
/CT/concat ld
/cp/closepath ld
/S/stroke ld
/L/lineto ld
/CC/setcmykcolor ld
/A/ashow ld
/GS/gsave ld
/RC/setrgbcolor ld
/RM/rmoveto ld
/ML/setmiterlimit ld
/re {4 2 roll M
1 index 0 rlineto
0 exch rlineto
neg 0 rlineto
cp } bd
/_ctm matrix def
/_tm matrix def
/BT { _ctm currentmatrix pop matrix _tm copy pop 0 0 moveto } bd
/ET { _ctm setmatrix } bd
/iTm { _ctm setmatrix _tm concat } bd
/Tm { _tm astore pop iTm 0 0 moveto } bd
/ux 0.0 def
/uy 0.0 def
/F {
  /Tp exch def
  /Tf exch def
  Tf findfont Tp scalefont setfont
  /cf Tf def  /cs Tp def
} bd
/ULS {currentpoint /uy exch def /ux exch def} bd
/ULE {
  /Tcx currentpoint pop def
  gsave
  newpath
  cf findfont cs scalefont dup
  /FontMatrix get 0 get /Ts exch def /FontInfo get dup
  /UnderlinePosition get Ts mul /To exch def
  /UnderlineThickness get Ts mul /Tt exch def
  ux uy To add moveto  Tcx uy To add lineto
  Tt setlinewidth stroke
  grestore
} bd
/OLE {
  /Tcx currentpoint pop def
  gsave
  newpath
  cf findfont cs scalefont dup
  /FontMatrix get 0 get /Ts exch def /FontInfo get dup
  /UnderlinePosition get Ts mul /To exch def
  /UnderlineThickness get Ts mul /Tt exch def
  ux uy To add cs add moveto Tcx uy To add cs add lineto
  Tt setlinewidth stroke
  grestore
} bd
/SOE {
  /Tcx currentpoint pop def
  gsave
  newpath
  cf findfont cs scalefont dup
  /FontMatrix get 0 get /Ts exch def /FontInfo get dup
  /UnderlinePosition get Ts mul /To exch def
  /UnderlineThickness get Ts mul /Tt exch def
  ux uy To add cs 10 mul 26 idiv add moveto Tcx uy To add cs 10 mul 26 idiv add lineto
  Tt setlinewidth stroke
  grestore
} bd
/QT {
/Y22 exch store
/X22 exch store
/Y21 exch store
/X21 exch store
currentpoint
/Y21 load 2 mul add 3 div exch
/X21 load 2 mul add 3 div exch
/X21 load 2 mul /X22 load add 3 div
/Y21 load 2 mul /Y22 load add 3 div
/X22 load /Y22 load curveto
} bd
/SSPD {
dup length /d exch dict def
{
/v exch def
/k exch def
currentpagedevice k known {
/cpdv currentpagedevice k get def
v cpdv ne {
/upd false def
/nullv v type /nulltype eq def
/nullcpdv cpdv type /nulltype eq def
nullv nullcpdv or
{
/upd true def
} {
/sametype v type cpdv type eq def
sametype {
v type /arraytype eq {
/vlen v length def
/cpdvlen cpdv length def
vlen cpdvlen eq {
0 1 vlen 1 sub {
/i exch def
/obj v i get def
/cpdobj cpdv i get def
obj cpdobj ne {
/upd true def
exit
} if
} for
} {
/upd true def
} ifelse
} {
v type /dicttype eq {
v {
/dv exch def
/dk exch def
/cpddv cpdv dk get def
dv cpddv ne {
/upd true def
exit
} if
} forall
} {
/upd true def
} ifelse
} ifelse
} if
} ifelse
upd true eq {
d k v put
} if
} if
} if
} forall
d length 0 gt {
d setpagedevice
} if
} bd
%%EndResource
%%BeginResource: procset (Apache XML Graphics EPS ProcSet) 1.0 0
%%Version: 1.0 0
%%Copyright: (Copyright 2002-2003 The Apache Software Foundation. License terms: http://www.apache.org/licenses/LICENSE-2.0)
/BeginEPSF { %def
/b4_Inc_state save def         % Save state for cleanup
/dict_count countdictstack def % Count objects on dict stack
/op_count count 1 sub def      % Count objects on operand stack
userdict begin                 % Push userdict on dict stack
/showpage { } def              % Redefine showpage, { } = null proc
0 setgray 0 setlinecap         % Prepare graphics state
1 setlinewidth 0 setlinejoin
10 setmiterlimit [ ] 0 setdash newpath
/languagelevel where           % If level not equal to 1 then
{pop languagelevel             % set strokeadjust and
1 ne                           % overprint to their defaults.
{false setstrokeadjust false setoverprint
} if
} if
} bd
/EndEPSF { %def
count op_count sub {pop} repeat            % Clean up stacks
countdictstack dict_count sub {end} repeat
b4_Inc_state restore
} bd
%%EndResource
%FOPBeginFontDict
%%IncludeResource: font Courier-Bold
%%IncludeResource: font Helvetica
%%IncludeResource: font Courier-BoldOblique
%%IncludeResource: font Courier-Oblique
%%IncludeResource: font Times-Roman
%%IncludeResource: font Helvetica-BoldOblique
%%IncludeResource: font Helvetica-Bold
%%IncludeResource: font Helvetica-Oblique
%%IncludeResource: font Times-BoldItalic
%%IncludeResource: font Courier
%%IncludeResource: font Times-Italic
%%IncludeResource: font Times-Bold
%%IncludeResource: font Symbol
%%IncludeResource: font ZapfDingbats
%FOPEndFontDict
%%BeginResource: encoding WinAnsiEncoding
/WinAnsiEncoding [
/.notdef /.notdef /.notdef /.notdef /.notdef
/.notdef /.notdef /.notdef /.notdef /.notdef
/.notdef /.notdef /.notdef /.notdef /.notdef
/.notdef /.notdef /.notdef /.notdef /.notdef
/.notdef /.notdef /.notdef /.notdef /.notdef
/.notdef /.notdef /.notdef /.notdef /.notdef
/.notdef /.notdef /space /exclam /quotedbl
/numbersign /dollar /percent /ampersand /quotesingle
/parenleft /parenright /asterisk /plus /comma
/hyphen /period /slash /zero /one
/two /three /four /five /six
/seven /eight /nine /colon /semicolon
/less /equal /greater /question /at
/A /B /C /D /E
/F /G /H /I /J
/K /L /M /N /O
/P /Q /R /S /T
/U /V /W /X /Y
/Z /bracketleft /backslash /bracketright /asciicircum
/underscore /quoteleft /a /b /c
/d /e /f /g /h
/i /j /k /l /m
/n /o /p /q /r
/s /t /u /v /w
/x /y /z /braceleft /bar
/braceright /asciitilde /bullet /Euro /bullet
/quotesinglbase /florin /quotedblbase /ellipsis /dagger
/daggerdbl /circumflex /perthousand /Scaron /guilsinglleft
/OE /bullet /Zcaron /bullet /bullet
/quoteleft /quoteright /quotedblleft /quotedblright /bullet
/endash /emdash /asciitilde /trademark /scaron
/guilsinglright /oe /bullet /zcaron /Ydieresis
/space /exclamdown /cent /sterling /currency
/yen /brokenbar /section /dieresis /copyright
/ordfeminine /guillemotleft /logicalnot /sfthyphen /registered
/macron /degree /plusminus /twosuperior /threesuperior
/acute /mu /paragraph /middot /cedilla
/onesuperior /ordmasculine /guillemotright /onequarter /onehalf
/threequarters /questiondown /Agrave /Aacute /Acircumflex
/Atilde /Adieresis /Aring /AE /Ccedilla
/Egrave /Eacute /Ecircumflex /Edieresis /Igrave
/Iacute /Icircumflex /Idieresis /Eth /Ntilde
/Ograve /Oacute /Ocircumflex /Otilde /Odieresis
/multiply /Oslash /Ugrave /Uacute /Ucircumflex
/Udieresis /Yacute /Thorn /germandbls /agrave
/aacute /acircumflex /atilde /adieresis /aring
/ae /ccedilla /egrave /eacute /ecircumflex
/edieresis /igrave /iacute /icircumflex /idieresis
/eth /ntilde /ograve /oacute /ocircumflex
/otilde /odieresis /divide /oslash /ugrave
/uacute /ucircumflex /udieresis /yacute /thorn
/ydieresis
] def
%%EndResource
%FOPBeginFontReencode
/Courier-Bold findfont
dup length dict begin
  {1 index /FID ne {def} {pop pop} ifelse} forall
  /Encoding WinAnsiEncoding def
  currentdict
end
/Courier-Bold exch definefont pop
/Helvetica findfont
dup length dict begin
  {1 index /FID ne {def} {pop pop} ifelse} forall
  /Encoding WinAnsiEncoding def
  currentdict
end
/Helvetica exch definefont pop
/Courier-BoldOblique findfont
dup length dict begin
  {1 index /FID ne {def} {pop pop} ifelse} forall
  /Encoding WinAnsiEncoding def
  currentdict
end
/Courier-BoldOblique exch definefont pop
/Courier-Oblique findfont
dup length dict begin
  {1 index /FID ne {def} {pop pop} ifelse} forall
  /Encoding WinAnsiEncoding def
  currentdict
end
/Courier-Oblique exch definefont pop
/Times-Roman findfont
dup length dict begin
  {1 index /FID ne {def} {pop pop} ifelse} forall
  /Encoding WinAnsiEncoding def
  currentdict
end
/Times-Roman exch definefont pop
/Helvetica-BoldOblique findfont
dup length dict begin
  {1 index /FID ne {def} {pop pop} ifelse} forall
  /Encoding WinAnsiEncoding def
  currentdict
end
/Helvetica-BoldOblique exch definefont pop
/Helvetica-Bold findfont
dup length dict begin
  {1 index /FID ne {def} {pop pop} ifelse} forall
  /Encoding WinAnsiEncoding def
  currentdict
end
/Helvetica-Bold exch definefont pop
/Helvetica-Oblique findfont
dup length dict begin
  {1 index /FID ne {def} {pop pop} ifelse} forall
  /Encoding WinAnsiEncoding def
  currentdict
end
/Helvetica-Oblique exch definefont pop
/Times-BoldItalic findfont
dup length dict begin
  {1 index /FID ne {def} {pop pop} ifelse} forall
  /Encoding WinAnsiEncoding def
  currentdict
end
/Times-BoldItalic exch definefont pop
/Courier findfont
dup length dict begin
  {1 index /FID ne {def} {pop pop} ifelse} forall
  /Encoding WinAnsiEncoding def
  currentdict
end
/Courier exch definefont pop
/Times-Italic findfont
dup length dict begin
  {1 index /FID ne {def} {pop pop} ifelse} forall
  /Encoding WinAnsiEncoding def
  currentdict
end
/Times-Italic exch definefont pop
/Times-Bold findfont
dup length dict begin
  {1 index /FID ne {def} {pop pop} ifelse} forall
  /Encoding WinAnsiEncoding def
  currentdict
end
/Times-Bold exch definefont pop
%FOPEndFontReencode
%%EndProlog
%%Page: 1 1
%%PageBoundingBox: 0 0 428 338
%%BeginPageSetup
[1 0 0 -1 0 338] CT
%%EndPageSetup
GS
[0.75 0 0 0.75 0 0.5] CT
N
0 0 M
570 0 L
570 450 L
0 450 L
0 0 L
cp
clip
1 GC
N
0 0 570 450 re
f
GR
GS
[0.75 0 0 0.75 0 0.5] CT
1 GC
N
0 0 570 450 re
f
GR
GS
[0.75 0 0 0.75 0 0.5] CT
1 GC
N
57 400 M
397 400 L
397 34 L
57 34 L
cp
f
GR
GS
[0.75 0 0 0.75 0 0.5] CT
0.149 GC
2 setlinecap
1 LJ
0.667 LW
N
57 400 M
397 400 L
S
GR
GS
[0.75 0 0 0.75 0 0.5] CT
0.149 GC
2 setlinecap
1 LJ
0.667 LW
N
57 34 M
397 34 L
S
GR
GS
[0.75 0 0 0.75 0 0.5] CT
0.149 GC
2 setlinecap
1 LJ
0.667 LW
N
94.778 400 M
94.778 396.34 L
S
GR
GS
[0.75 0 0 0.75 0 0.5] CT
0.149 GC
2 setlinecap
1 LJ
0.667 LW
N
170.333 400 M
170.333 396.34 L
S
GR
GS
[0.75 0 0 0.75 0 0.5] CT
0.149 GC
2 setlinecap
1 LJ
0.667 LW
N
245.889 400 M
245.889 396.34 L
S
GR
GS
[0.75 0 0 0.75 0 0.5] CT
0.149 GC
2 setlinecap
1 LJ
0.667 LW
N
321.444 400 M
321.444 396.34 L
S
GR
GS
[0.75 0 0 0.75 0 0.5] CT
0.149 GC
2 setlinecap
1 LJ
0.667 LW
N
397 400 M
397 396.34 L
S
GR
GS
[0.75 0 0 0.75 0 0.5] CT
0.149 GC
2 setlinecap
1 LJ
0.667 LW
N
94.778 34 M
94.778 37.66 L
S
GR
GS
[0.75 0 0 0.75 0 0.5] CT
0.149 GC
2 setlinecap
1 LJ
0.667 LW
N
170.333 34 M
170.333 37.66 L
S
GR
GS
[0.75 0 0 0.75 0 0.5] CT
0.149 GC
2 setlinecap
1 LJ
0.667 LW
N
245.889 34 M
245.889 37.66 L
S
GR
GS
[0.75 0 0 0.75 0 0.5] CT
0.149 GC
2 setlinecap
1 LJ
0.667 LW
N
321.444 34 M
321.444 37.66 L
S
GR
GS
[0.75 0 0 0.75 0 0.5] CT
0.149 GC
2 setlinecap
1 LJ
0.667 LW
N
397 34 M
397 37.66 L
S
GR
GS
[0.75 0 0 0.75 71.08333 304.50001] CT
0.149 GC
/Helvetica 13.333 F
GS
[1 0 0 1 0 0] CT
-4.5 13 moveto 
1 -1 scale
(2) t 
GR
GR
GS
[0.75 0 0 0.75 127.75001 304.50001] CT
0.149 GC
/Helvetica 13.333 F
GS
[1 0 0 1 0 0] CT
-4.5 13 moveto 
1 -1 scale
(4) t 
GR
GR
GS
[0.75 0 0 0.75 184.41668 304.50001] CT
0.149 GC
/Helvetica 13.333 F
GS
[1 0 0 1 0 0] CT
-4.5 13 moveto 
1 -1 scale
(6) t 
GR
GR
GS
[0.75 0 0 0.75 241.08334 304.50001] CT
0.149 GC
/Helvetica 13.333 F
GS
[1 0 0 1 0 0] CT
-4.5 13 moveto 
1 -1 scale
(8) t 
GR
GR
GS
[0.75 0 0 0.75 297.75 304.50001] CT
0.149 GC
/Helvetica 13.333 F
GS
[1 0 0 1 0 0] CT
-8.5 13 moveto 
1 -1 scale
(10) t 
GR
GR
GS
[0.75 0 0 0.75 170.25013 318.24999] CT
0.149 GC
/Helvetica 14.667 F
GS
[1 0 0 1 0 0] CT
-30 14 moveto 
1 -1 scale
(-log\(tol\)) t 
GR
GR
GS
[0.75 0 0 0.75 0 0.5] CT
0.149 GC
2 setlinecap
1 LJ
0.667 LW
N
57 400 M
57 34 L
S
GR
GS
[0.75 0 0 0.75 0 0.5] CT
0.149 GC
2 setlinecap
1 LJ
0.667 LW
N
397 400 M
397 34 L
S
GR
GS
[0.75 0 0 0.75 0 0.5] CT
0.149 GC
2 setlinecap
1 LJ
0.667 LW
N
57 197.986 M
60.66 197.986 L
S
GR
GS
[0.75 0 0 0.75 0 0.5] CT
0.149 GC
2 setlinecap
1 LJ
0.667 LW
N
397 197.986 M
393.34 197.986 L
S
GR
GS
[0.75 0 0 0.75 0 0.5] CT
0.149 GC
2 setlinecap
1 LJ
0.667 LW
N
57 345.285 M
58.83 345.285 L
S
GR
GS
[0.75 0 0 0.75 0 0.5] CT
0.149 GC
2 setlinecap
1 LJ
0.667 LW
N
57 308.176 M
58.83 308.176 L
S
GR
GS
[0.75 0 0 0.75 0 0.5] CT
0.149 GC
2 setlinecap
1 LJ
0.667 LW
N
57 281.846 M
58.83 281.846 L
S
GR
GS
[0.75 0 0 0.75 0 0.5] CT
0.149 GC
2 setlinecap
1 LJ
0.667 LW
N
57 261.424 M
58.83 261.424 L
S
GR
GS
[0.75 0 0 0.75 0 0.5] CT
0.149 GC
2 setlinecap
1 LJ
0.667 LW
N
57 244.737 M
58.83 244.737 L
S
GR
GS
[0.75 0 0 0.75 0 0.5] CT
0.149 GC
2 setlinecap
1 LJ
0.667 LW
N
57 230.629 M
58.83 230.629 L
S
GR
GS
[0.75 0 0 0.75 0 0.5] CT
0.149 GC
2 setlinecap
1 LJ
0.667 LW
N
57 218.408 M
58.83 218.408 L
S
GR
GS
[0.75 0 0 0.75 0 0.5] CT
0.149 GC
2 setlinecap
1 LJ
0.667 LW
N
57 207.628 M
58.83 207.628 L
S
GR
GS
[0.75 0 0 0.75 0 0.5] CT
0.149 GC
2 setlinecap
1 LJ
0.667 LW
N
57 134.547 M
58.83 134.547 L
S
GR
GS
[0.75 0 0 0.75 0 0.5] CT
0.149 GC
2 setlinecap
1 LJ
0.667 LW
N
57 97.438 M
58.83 97.438 L
S
GR
GS
[0.75 0 0 0.75 0 0.5] CT
0.149 GC
2 setlinecap
1 LJ
0.667 LW
N
57 71.109 M
58.83 71.109 L
S
GR
GS
[0.75 0 0 0.75 0 0.5] CT
0.149 GC
2 setlinecap
1 LJ
0.667 LW
N
57 50.686 M
58.83 50.686 L
S
GR
GS
[0.75 0 0 0.75 0 0.5] CT
0.149 GC
2 setlinecap
1 LJ
0.667 LW
N
397 345.285 M
395.17 345.285 L
S
GR
GS
[0.75 0 0 0.75 0 0.5] CT
0.149 GC
2 setlinecap
1 LJ
0.667 LW
N
397 308.176 M
395.17 308.176 L
S
GR
GS
[0.75 0 0 0.75 0 0.5] CT
0.149 GC
2 setlinecap
1 LJ
0.667 LW
N
397 281.846 M
395.17 281.846 L
S
GR
GS
[0.75 0 0 0.75 0 0.5] CT
0.149 GC
2 setlinecap
1 LJ
0.667 LW
N
397 261.424 M
395.17 261.424 L
S
GR
GS
[0.75 0 0 0.75 0 0.5] CT
0.149 GC
2 setlinecap
1 LJ
0.667 LW
N
397 244.737 M
395.17 244.737 L
S
GR
GS
[0.75 0 0 0.75 0 0.5] CT
0.149 GC
2 setlinecap
1 LJ
0.667 LW
N
397 230.629 M
395.17 230.629 L
S
GR
GS
[0.75 0 0 0.75 0 0.5] CT
0.149 GC
2 setlinecap
1 LJ
0.667 LW
N
397 218.408 M
395.17 218.408 L
S
GR
GS
[0.75 0 0 0.75 0 0.5] CT
0.149 GC
2 setlinecap
1 LJ
0.667 LW
N
397 207.628 M
395.17 207.628 L
S
GR
GS
[0.75 0 0 0.75 0 0.5] CT
0.149 GC
2 setlinecap
1 LJ
0.667 LW
N
397 134.547 M
395.17 134.547 L
S
GR
GS
[0.75 0 0 0.75 0 0.5] CT
0.149 GC
2 setlinecap
1 LJ
0.667 LW
N
397 97.438 M
395.17 97.438 L
S
GR
GS
[0.75 0 0 0.75 0 0.5] CT
0.149 GC
2 setlinecap
1 LJ
0.667 LW
N
397 71.109 M
395.17 71.109 L
S
GR
GS
[0.75 0 0 0.75 0 0.5] CT
0.149 GC
2 setlinecap
1 LJ
0.667 LW
N
397 50.686 M
395.17 50.686 L
S
GR
GS
[0.75 0 0 0.75 21 154.25] CT
0.149 GC
/Helvetica 13.333 F
GS
[1 0 0 1 0 0] CT
0 0 moveto 
1 -1 scale
(10) t 
GR
GR
GS
[0.75 0 0 0.75 33.75 149.75] CT
0.149 GC
/Helvetica 10.667 F
GS
[1 0 0 1 0 0] CT
0 0 moveto 
1 -1 scale
(2) t 
GR
GR
GS
[0 -0.75 0.75 0 17.75 163.24987] CT
0.149 GC
/Helvetica 14.667 F
GS
[1 0 0 1 0 0] CT
-12 -4 moveto 
1 -1 scale
(#H) t 
GR
GR
GS
[0.75 0 0 0.75 0 0.5] CT
0 0 1 RC
1 LJ
0.667 LW
N
57 384.711 M
94.778 340.819 L
132.556 210.731 L
170.333 193.52 L
208.111 170.519 L
245.889 152.154 L
283.667 136.864 L
321.444 121.359 L
359.222 110.184 L
397 98.358 L
S
GR
GS
[0.75 0 0 0.75 0 0.5] CT
0 0 1 RC
1 LJ
N
61.5 384.5 M
60.736 382.149 L
58.736 380.696 L
56.264 380.696 L
54.264 382.149 L
53.5 384.5 L
54.264 386.851 L
56.264 388.304 L
58.736 388.304 L
60.736 386.851 L
cp
S
GR
GS
[0.75 0 0 0.75 0 0.5] CT
0 0 1 RC
1 LJ
N
98.5 340.5 M
97.736 338.149 L
95.736 336.696 L
93.264 336.696 L
91.264 338.149 L
90.5 340.5 L
91.264 342.851 L
93.264 344.304 L
95.736 344.304 L
97.736 342.851 L
cp
S
GR
GS
[0.75 0 0 0.75 0 0.5] CT
0 0 1 RC
1 LJ
N
136.5 210.5 M
135.736 208.149 L
133.736 206.696 L
131.264 206.696 L
129.264 208.149 L
128.5 210.5 L
129.264 212.851 L
131.264 214.304 L
133.736 214.304 L
135.736 212.851 L
cp
S
GR
GS
[0.75 0 0 0.75 0 0.5] CT
0 0 1 RC
1 LJ
N
174.5 193.5 M
173.736 191.149 L
171.736 189.696 L
169.264 189.696 L
167.264 191.149 L
166.5 193.5 L
167.264 195.851 L
169.264 197.304 L
171.736 197.304 L
173.736 195.851 L
cp
S
GR
GS
[0.75 0 0 0.75 0 0.5] CT
0 0 1 RC
1 LJ
N
212.5 170.5 M
211.736 168.149 L
209.736 166.696 L
207.264 166.696 L
205.264 168.149 L
204.5 170.5 L
205.264 172.851 L
207.264 174.304 L
209.736 174.304 L
211.736 172.851 L
cp
S
GR
GS
[0.75 0 0 0.75 0 0.5] CT
0 0 1 RC
1 LJ
N
249.5 152.5 M
248.736 150.149 L
246.736 148.696 L
244.264 148.696 L
242.264 150.149 L
241.5 152.5 L
242.264 154.851 L
244.264 156.304 L
246.736 156.304 L
248.736 154.851 L
cp
S
GR
GS
[0.75 0 0 0.75 0 0.5] CT
0 0 1 RC
1 LJ
N
287.5 136.5 M
286.736 134.149 L
284.736 132.696 L
282.264 132.696 L
280.264 134.149 L
279.5 136.5 L
280.264 138.851 L
282.264 140.304 L
284.736 140.304 L
286.736 138.851 L
cp
S
GR
GS
[0.75 0 0 0.75 0 0.5] CT
0 0 1 RC
1 LJ
N
325.5 121.5 M
324.736 119.149 L
322.736 117.696 L
320.264 117.696 L
318.264 119.149 L
317.5 121.5 L
318.264 123.851 L
320.264 125.304 L
322.736 125.304 L
324.736 123.851 L
cp
S
GR
GS
[0.75 0 0 0.75 0 0.5] CT
0 0 1 RC
1 LJ
N
363.5 110.5 M
362.736 108.149 L
360.736 106.696 L
358.264 106.696 L
356.264 108.149 L
355.5 110.5 L
356.264 112.851 L
358.264 114.304 L
360.736 114.304 L
362.736 112.851 L
cp
S
GR
GS
[0.75 0 0 0.75 0 0.5] CT
0 0 1 RC
1 LJ
N
401.5 98.5 M
400.736 96.149 L
398.736 94.696 L
396.264 94.696 L
394.264 96.149 L
393.5 98.5 L
394.264 100.851 L
396.264 102.304 L
398.736 102.304 L
400.736 100.851 L
cp
S
GR
GS
[0.75 0 0 0.75 0 0.5] CT
0 1 0 RC
1 LJ
0.667 LW
N
57 400 M
94.778 340.819 L
132.556 210.731 L
170.333 193.52 L
208.111 162.726 L
245.889 152.154 L
283.667 136.864 L
321.444 119.012 L
359.222 108.104 L
397 98.358 L
S
GR
GS
[0.75 0 0 0.75 0 0.5] CT
0 1 0 RC
1 LJ
N
61.5 399.5 M
60.736 397.149 L
58.736 395.696 L
56.264 395.696 L
54.264 397.149 L
53.5 399.5 L
54.264 401.851 L
56.264 403.304 L
58.736 403.304 L
60.736 401.851 L
cp
S
GR
GS
[0.75 0 0 0.75 0 0.5] CT
0 1 0 RC
1 LJ
N
98.5 340.5 M
97.736 338.149 L
95.736 336.696 L
93.264 336.696 L
91.264 338.149 L
90.5 340.5 L
91.264 342.851 L
93.264 344.304 L
95.736 344.304 L
97.736 342.851 L
cp
S
GR
GS
[0.75 0 0 0.75 0 0.5] CT
0 1 0 RC
1 LJ
N
136.5 210.5 M
135.736 208.149 L
133.736 206.696 L
131.264 206.696 L
129.264 208.149 L
128.5 210.5 L
129.264 212.851 L
131.264 214.304 L
133.736 214.304 L
135.736 212.851 L
cp
S
GR
GS
[0.75 0 0 0.75 0 0.5] CT
0 1 0 RC
1 LJ
N
174.5 193.5 M
173.736 191.149 L
171.736 189.696 L
169.264 189.696 L
167.264 191.149 L
166.5 193.5 L
167.264 195.851 L
169.264 197.304 L
171.736 197.304 L
173.736 195.851 L
cp
S
GR
GS
[0.75 0 0 0.75 0 0.5] CT
0 1 0 RC
1 LJ
N
212.5 162.5 M
211.736 160.149 L
209.736 158.696 L
207.264 158.696 L
205.264 160.149 L
204.5 162.5 L
205.264 164.851 L
207.264 166.304 L
209.736 166.304 L
211.736 164.851 L
cp
S
GR
GS
[0.75 0 0 0.75 0 0.5] CT
0 1 0 RC
1 LJ
N
249.5 152.5 M
248.736 150.149 L
246.736 148.696 L
244.264 148.696 L
242.264 150.149 L
241.5 152.5 L
242.264 154.851 L
244.264 156.304 L
246.736 156.304 L
248.736 154.851 L
cp
S
GR
GS
[0.75 0 0 0.75 0 0.5] CT
0 1 0 RC
1 LJ
N
287.5 136.5 M
286.736 134.149 L
284.736 132.696 L
282.264 132.696 L
280.264 134.149 L
279.5 136.5 L
280.264 138.851 L
282.264 140.304 L
284.736 140.304 L
286.736 138.851 L
cp
S
GR
GS
[0.75 0 0 0.75 0 0.5] CT
0 1 0 RC
1 LJ
N
325.5 119.5 M
324.736 117.149 L
322.736 115.696 L
320.264 115.696 L
318.264 117.149 L
317.5 119.5 L
318.264 121.851 L
320.264 123.304 L
322.736 123.304 L
324.736 121.851 L
cp
S
GR
GS
[0.75 0 0 0.75 0 0.5] CT
0 1 0 RC
1 LJ
N
363.5 108.5 M
362.736 106.149 L
360.736 104.696 L
358.264 104.696 L
356.264 106.149 L
355.5 108.5 L
356.264 110.851 L
358.264 112.304 L
360.736 112.304 L
362.736 110.851 L
cp
S
GR
GS
[0.75 0 0 0.75 0 0.5] CT
0 1 0 RC
1 LJ
N
401.5 98.5 M
400.736 96.149 L
398.736 94.696 L
396.264 94.696 L
394.264 96.149 L
393.5 98.5 L
394.264 100.851 L
396.264 102.304 L
398.736 102.304 L
400.736 100.851 L
cp
S
GR
GS
[0.75 0 0 0.75 0 0.5] CT
1 0 0 RC
1 LJ
0.667 LW
N
57 130.519 M
94.778 92.105 L
132.556 244.737 L
170.333 241.736 L
208.111 256.091 L
245.889 237.412 L
283.667 218.408 L
321.444 210.731 L
359.222 197.075 L
397 186.8 L
S
GR
GS
[0.75 0 0 0.75 0 0.5] CT
1 0 0 RC
1 LJ
N
61.5 130.5 M
60.736 128.149 L
58.736 126.696 L
56.264 126.696 L
54.264 128.149 L
53.5 130.5 L
54.264 132.851 L
56.264 134.304 L
58.736 134.304 L
60.736 132.851 L
cp
S
GR
GS
[0.75 0 0 0.75 0 0.5] CT
1 0 0 RC
1 LJ
N
98.5 92.5 M
97.736 90.149 L
95.736 88.696 L
93.264 88.696 L
91.264 90.149 L
90.5 92.5 L
91.264 94.851 L
93.264 96.304 L
95.736 96.304 L
97.736 94.851 L
cp
S
GR
GS
[0.75 0 0 0.75 0 0.5] CT
1 0 0 RC
1 LJ
N
136.5 244.5 M
135.736 242.149 L
133.736 240.696 L
131.264 240.696 L
129.264 242.149 L
128.5 244.5 L
129.264 246.851 L
131.264 248.304 L
133.736 248.304 L
135.736 246.851 L
cp
S
GR
GS
[0.75 0 0 0.75 0 0.5] CT
1 0 0 RC
1 LJ
N
174.5 241.5 M
173.736 239.149 L
171.736 237.696 L
169.264 237.696 L
167.264 239.149 L
166.5 241.5 L
167.264 243.851 L
169.264 245.304 L
171.736 245.304 L
173.736 243.851 L
cp
S
GR
GS
[0.75 0 0 0.75 0 0.5] CT
1 0 0 RC
1 LJ
N
212.5 256.5 M
211.736 254.149 L
209.736 252.696 L
207.264 252.696 L
205.264 254.149 L
204.5 256.5 L
205.264 258.851 L
207.264 260.304 L
209.736 260.304 L
211.736 258.851 L
cp
S
GR
GS
[0.75 0 0 0.75 0 0.5] CT
1 0 0 RC
1 LJ
N
249.5 237.5 M
248.736 235.149 L
246.736 233.696 L
244.264 233.696 L
242.264 235.149 L
241.5 237.5 L
242.264 239.851 L
244.264 241.304 L
246.736 241.304 L
248.736 239.851 L
cp
S
GR
GS
[0.75 0 0 0.75 0 0.5] CT
1 0 0 RC
1 LJ
N
287.5 218.5 M
286.736 216.149 L
284.736 214.696 L
282.264 214.696 L
280.264 216.149 L
279.5 218.5 L
280.264 220.851 L
282.264 222.304 L
284.736 222.304 L
286.736 220.851 L
cp
S
GR
GS
[0.75 0 0 0.75 0 0.5] CT
1 0 0 RC
1 LJ
N
325.5 210.5 M
324.736 208.149 L
322.736 206.696 L
320.264 206.696 L
318.264 208.149 L
317.5 210.5 L
318.264 212.851 L
320.264 214.304 L
322.736 214.304 L
324.736 212.851 L
cp
S
GR
GS
[0.75 0 0 0.75 0 0.5] CT
1 0 0 RC
1 LJ
N
363.5 197.5 M
362.736 195.149 L
360.736 193.696 L
358.264 193.696 L
356.264 195.149 L
355.5 197.5 L
356.264 199.851 L
358.264 201.304 L
360.736 201.304 L
362.736 199.851 L
cp
S
GR
GS
[0.75 0 0 0.75 0 0.5] CT
1 0 0 RC
1 LJ
N
401.5 186.5 M
400.736 184.149 L
398.736 182.696 L
396.264 182.696 L
394.264 184.149 L
393.5 186.5 L
394.264 188.851 L
396.264 190.304 L
398.736 190.304 L
400.736 188.851 L
cp
S
GR
GS
[0.75 0 0 0.75 0 0.5] CT
0 1 1 RC
1 LJ
0.667 LW
N
57 84.118 M
94.778 34 L
132.556 196.173 L
170.333 238.831 L
208.111 254.38 L
245.889 221.906 L
283.667 246.276 L
321.444 229.331 L
359.222 212.86 L
397 201.722 L
S
GR
GS
[0.75 0 0 0.75 0 0.5] CT
0 1 1 RC
1 LJ
N
61.5 84.5 M
60.736 82.149 L
58.736 80.696 L
56.264 80.696 L
54.264 82.149 L
53.5 84.5 L
54.264 86.851 L
56.264 88.304 L
58.736 88.304 L
60.736 86.851 L
cp
S
GR
GS
[0.75 0 0 0.75 0 0.5] CT
0 1 1 RC
1 LJ
N
98.5 33.5 M
97.736 31.149 L
95.736 29.696 L
93.264 29.696 L
91.264 31.149 L
90.5 33.5 L
91.264 35.851 L
93.264 37.304 L
95.736 37.304 L
97.736 35.851 L
cp
S
GR
GS
[0.75 0 0 0.75 0 0.5] CT
0 1 1 RC
1 LJ
N
136.5 196.5 M
135.736 194.149 L
133.736 192.696 L
131.264 192.696 L
129.264 194.149 L
128.5 196.5 L
129.264 198.851 L
131.264 200.304 L
133.736 200.304 L
135.736 198.851 L
cp
S
GR
GS
[0.75 0 0 0.75 0 0.5] CT
0 1 1 RC
1 LJ
N
174.5 238.5 M
173.736 236.149 L
171.736 234.696 L
169.264 234.696 L
167.264 236.149 L
166.5 238.5 L
167.264 240.851 L
169.264 242.304 L
171.736 242.304 L
173.736 240.851 L
cp
S
GR
GS
[0.75 0 0 0.75 0 0.5] CT
0 1 1 RC
1 LJ
N
212.5 254.5 M
211.736 252.149 L
209.736 250.696 L
207.264 250.696 L
205.264 252.149 L
204.5 254.5 L
205.264 256.851 L
207.264 258.304 L
209.736 258.304 L
211.736 256.851 L
cp
S
GR
GS
[0.75 0 0 0.75 0 0.5] CT
0 1 1 RC
1 LJ
N
249.5 221.5 M
248.736 219.149 L
246.736 217.696 L
244.264 217.696 L
242.264 219.149 L
241.5 221.5 L
242.264 223.851 L
244.264 225.304 L
246.736 225.304 L
248.736 223.851 L
cp
S
GR
GS
[0.75 0 0 0.75 0 0.5] CT
0 1 1 RC
1 LJ
N
287.5 246.5 M
286.736 244.149 L
284.736 242.696 L
282.264 242.696 L
280.264 244.149 L
279.5 246.5 L
280.264 248.851 L
282.264 250.304 L
284.736 250.304 L
286.736 248.851 L
cp
S
GR
GS
[0.75 0 0 0.75 0 0.5] CT
0 1 1 RC
1 LJ
N
325.5 229.5 M
324.736 227.149 L
322.736 225.696 L
320.264 225.696 L
318.264 227.149 L
317.5 229.5 L
318.264 231.851 L
320.264 233.304 L
322.736 233.304 L
324.736 231.851 L
cp
S
GR
GS
[0.75 0 0 0.75 0 0.5] CT
0 1 1 RC
1 LJ
N
363.5 212.5 M
362.736 210.149 L
360.736 208.696 L
358.264 208.696 L
356.264 210.149 L
355.5 212.5 L
356.264 214.851 L
358.264 216.304 L
360.736 216.304 L
362.736 214.851 L
cp
S
GR
GS
[0.75 0 0 0.75 0 0.5] CT
0 1 1 RC
1 LJ
N
401.5 201.5 M
400.736 199.149 L
398.736 197.696 L
396.264 197.696 L
394.264 199.149 L
393.5 201.5 L
394.264 203.851 L
396.264 205.304 L
398.736 205.304 L
400.736 203.851 L
cp
S
GR
GS
[0.75 0 0 0.75 0 0.5] CT
1 0 1 RC
1 LJ
0.667 LW
N
57 104.739 M
94.778 66.209 L
132.556 200.773 L
170.333 184.402 L
208.111 189.263 L
245.889 166.54 L
283.667 144.19 L
321.444 129.647 L
359.222 71.798 L
397 37.419 L
S
GR
GS
[0.75 0 0 0.75 0 0.5] CT
1 0 1 RC
1 LJ
N
61.5 104.5 M
60.736 102.149 L
58.736 100.696 L
56.264 100.696 L
54.264 102.149 L
53.5 104.5 L
54.264 106.851 L
56.264 108.304 L
58.736 108.304 L
60.736 106.851 L
cp
S
GR
GS
[0.75 0 0 0.75 0 0.5] CT
1 0 1 RC
1 LJ
N
98.5 66.5 M
97.736 64.149 L
95.736 62.696 L
93.264 62.696 L
91.264 64.149 L
90.5 66.5 L
91.264 68.851 L
93.264 70.304 L
95.736 70.304 L
97.736 68.851 L
cp
S
GR
GS
[0.75 0 0 0.75 0 0.5] CT
1 0 1 RC
1 LJ
N
136.5 200.5 M
135.736 198.149 L
133.736 196.696 L
131.264 196.696 L
129.264 198.149 L
128.5 200.5 L
129.264 202.851 L
131.264 204.304 L
133.736 204.304 L
135.736 202.851 L
cp
S
GR
GS
[0.75 0 0 0.75 0 0.5] CT
1 0 1 RC
1 LJ
N
174.5 184.5 M
173.736 182.149 L
171.736 180.696 L
169.264 180.696 L
167.264 182.149 L
166.5 184.5 L
167.264 186.851 L
169.264 188.304 L
171.736 188.304 L
173.736 186.851 L
cp
S
GR
GS
[0.75 0 0 0.75 0 0.5] CT
1 0 1 RC
1 LJ
N
212.5 189.5 M
211.736 187.149 L
209.736 185.696 L
207.264 185.696 L
205.264 187.149 L
204.5 189.5 L
205.264 191.851 L
207.264 193.304 L
209.736 193.304 L
211.736 191.851 L
cp
S
GR
GS
[0.75 0 0 0.75 0 0.5] CT
1 0 1 RC
1 LJ
N
249.5 166.5 M
248.736 164.149 L
246.736 162.696 L
244.264 162.696 L
242.264 164.149 L
241.5 166.5 L
242.264 168.851 L
244.264 170.304 L
246.736 170.304 L
248.736 168.851 L
cp
S
GR
GS
[0.75 0 0 0.75 0 0.5] CT
1 0 1 RC
1 LJ
N
287.5 144.5 M
286.736 142.149 L
284.736 140.696 L
282.264 140.696 L
280.264 142.149 L
279.5 144.5 L
280.264 146.851 L
282.264 148.304 L
284.736 148.304 L
286.736 146.851 L
cp
S
GR
GS
[0.75 0 0 0.75 0 0.5] CT
1 0 1 RC
1 LJ
N
325.5 129.5 M
324.736 127.149 L
322.736 125.696 L
320.264 125.696 L
318.264 127.149 L
317.5 129.5 L
318.264 131.851 L
320.264 133.304 L
322.736 133.304 L
324.736 131.851 L
cp
S
GR
GS
[0.75 0 0 0.75 0 0.5] CT
1 0 1 RC
1 LJ
N
363.5 71.5 M
362.736 69.149 L
360.736 67.696 L
358.264 67.696 L
356.264 69.149 L
355.5 71.5 L
356.264 73.851 L
358.264 75.304 L
360.736 75.304 L
362.736 73.851 L
cp
S
GR
GS
[0.75 0 0 0.75 0 0.5] CT
1 0 1 RC
1 LJ
N
401.5 37.5 M
400.736 35.149 L
398.736 33.696 L
396.264 33.696 L
394.264 35.149 L
393.5 37.5 L
394.264 39.851 L
396.264 41.304 L
398.736 41.304 L
400.736 39.851 L
cp
S
GR
GS
[0.75 0 0 0.75 0 0.5] CT
1 LJ
0.667 LW
N
57 209.685 M
94.778 185.194 L
132.556 139.725 L
170.333 129.214 L
208.111 107.421 L
245.889 83.592 L
283.667 73.192 L
321.444 73.192 L
359.222 73.192 L
397 73.192 L
S
GR
GS
[0.75 0 0 0.75 0 0.5] CT
1 LJ
N
61.5 209.5 M
60.736 207.149 L
58.736 205.696 L
56.264 205.696 L
54.264 207.149 L
53.5 209.5 L
54.264 211.851 L
56.264 213.304 L
58.736 213.304 L
60.736 211.851 L
cp
S
GR
GS
[0.75 0 0 0.75 0 0.5] CT
1 LJ
N
98.5 185.5 M
97.736 183.149 L
95.736 181.696 L
93.264 181.696 L
91.264 183.149 L
90.5 185.5 L
91.264 187.851 L
93.264 189.304 L
95.736 189.304 L
97.736 187.851 L
cp
S
GR
GS
[0.75 0 0 0.75 0 0.5] CT
1 LJ
N
136.5 139.5 M
135.736 137.149 L
133.736 135.696 L
131.264 135.696 L
129.264 137.149 L
128.5 139.5 L
129.264 141.851 L
131.264 143.304 L
133.736 143.304 L
135.736 141.851 L
cp
S
GR
GS
[0.75 0 0 0.75 0 0.5] CT
1 LJ
N
174.5 129.5 M
173.736 127.149 L
171.736 125.696 L
169.264 125.696 L
167.264 127.149 L
166.5 129.5 L
167.264 131.851 L
169.264 133.304 L
171.736 133.304 L
173.736 131.851 L
cp
S
GR
GS
[0.75 0 0 0.75 0 0.5] CT
1 LJ
N
212.5 107.5 M
211.736 105.149 L
209.736 103.696 L
207.264 103.696 L
205.264 105.149 L
204.5 107.5 L
205.264 109.851 L
207.264 111.304 L
209.736 111.304 L
211.736 109.851 L
cp
S
GR
GS
[0.75 0 0 0.75 0 0.5] CT
1 LJ
N
249.5 83.5 M
248.736 81.149 L
246.736 79.696 L
244.264 79.696 L
242.264 81.149 L
241.5 83.5 L
242.264 85.851 L
244.264 87.304 L
246.736 87.304 L
248.736 85.851 L
cp
S
GR
GS
[0.75 0 0 0.75 0 0.5] CT
1 LJ
N
287.5 73.5 M
286.736 71.149 L
284.736 69.696 L
282.264 69.696 L
280.264 71.149 L
279.5 73.5 L
280.264 75.851 L
282.264 77.304 L
284.736 77.304 L
286.736 75.851 L
cp
S
GR
GS
[0.75 0 0 0.75 0 0.5] CT
1 LJ
N
325.5 73.5 M
324.736 71.149 L
322.736 69.696 L
320.264 69.696 L
318.264 71.149 L
317.5 73.5 L
318.264 75.851 L
320.264 77.304 L
322.736 77.304 L
324.736 75.851 L
cp
S
GR
GS
[0.75 0 0 0.75 0 0.5] CT
1 LJ
N
363.5 73.5 M
362.736 71.149 L
360.736 69.696 L
358.264 69.696 L
356.264 71.149 L
355.5 73.5 L
356.264 75.851 L
358.264 77.304 L
360.736 77.304 L
362.736 75.851 L
cp
S
GR
GS
[0.75 0 0 0.75 0 0.5] CT
1 LJ
N
401.5 73.5 M
400.736 71.149 L
398.736 69.696 L
396.264 69.696 L
394.264 71.149 L
393.5 73.5 L
394.264 75.851 L
396.264 77.304 L
398.736 77.304 L
400.736 75.851 L
cp
S
GR
GS
[0.75 0 0 0.75 0 0.5] CT
0 0 1 RC
[8 3 2 3] 0 setdash
2 LJ
0.667 LW
N
57 296.72 M
94.778 223.103 L
132.556 179.786 L
170.333 172.576 L
208.111 152.71 L
245.889 137.335 L
283.667 118.627 L
321.444 109.138 L
359.222 108.447 L
397 108.447 L
S
GR
GS
[0.75 0 0 0.75 0 0.5] CT
0 0 1 RC
10.0 ML
N
57.5 301.832 M
61.5 296.5 L
57.5 291.168 L
53.5 296.5 L
cp
S
GR
GS
[0.75 0 0 0.75 0 0.5] CT
0 0 1 RC
10.0 ML
N
94.5 228.832 M
98.5 223.5 L
94.5 218.168 L
90.5 223.5 L
cp
S
GR
GS
[0.75 0 0 0.75 0 0.5] CT
0 0 1 RC
10.0 ML
N
132.5 184.832 M
136.5 179.5 L
132.5 174.168 L
128.5 179.5 L
cp
S
GR
GS
[0.75 0 0 0.75 0 0.5] CT
0 0 1 RC
10.0 ML
N
170.5 177.832 M
174.5 172.5 L
170.5 167.168 L
166.5 172.5 L
cp
S
GR
GS
[0.75 0 0 0.75 0 0.5] CT
0 0 1 RC
10.0 ML
N
208.5 157.832 M
212.5 152.5 L
208.5 147.168 L
204.5 152.5 L
cp
S
GR
GS
[0.75 0 0 0.75 0 0.5] CT
0 0 1 RC
10.0 ML
N
245.5 142.832 M
249.5 137.5 L
245.5 132.168 L
241.5 137.5 L
cp
S
GR
GS
[0.75 0 0 0.75 0 0.5] CT
0 0 1 RC
10.0 ML
N
283.5 123.832 M
287.5 118.5 L
283.5 113.168 L
279.5 118.5 L
cp
S
GR
GS
[0.75 0 0 0.75 0 0.5] CT
0 0 1 RC
10.0 ML
N
321.5 114.832 M
325.5 109.5 L
321.5 104.168 L
317.5 109.5 L
cp
S
GR
GS
[0.75 0 0 0.75 0 0.5] CT
0 0 1 RC
10.0 ML
N
359.5 113.832 M
363.5 108.5 L
359.5 103.168 L
355.5 108.5 L
cp
S
GR
GS
[0.75 0 0 0.75 0 0.5] CT
0 0 1 RC
10.0 ML
N
397.5 113.832 M
401.5 108.5 L
397.5 103.168 L
393.5 108.5 L
cp
S
GR
GS
[0.75 0 0 0.75 0 0.5] CT
0 1 0 RC
[8 3 2 3] 0 setdash
2 LJ
0.667 LW
N
57 217.271 M
94.778 200.773 L
132.556 152.154 L
170.333 137.808 L
208.111 128.784 L
245.889 113.759 L
283.667 103.426 L
321.444 69.297 L
359.222 69.297 L
397 69.297 L
S
GR
GS
[0.75 0 0 0.75 0 0.5] CT
0 1 0 RC
10.0 ML
N
57.5 222.832 M
61.5 217.5 L
57.5 212.168 L
53.5 217.5 L
cp
S
GR
GS
[0.75 0 0 0.75 0 0.5] CT
0 1 0 RC
10.0 ML
N
94.5 205.832 M
98.5 200.5 L
94.5 195.168 L
90.5 200.5 L
cp
S
GR
GS
[0.75 0 0 0.75 0 0.5] CT
0 1 0 RC
10.0 ML
N
132.5 157.832 M
136.5 152.5 L
132.5 147.168 L
128.5 152.5 L
cp
S
GR
GS
[0.75 0 0 0.75 0 0.5] CT
0 1 0 RC
10.0 ML
N
170.5 142.832 M
174.5 137.5 L
170.5 132.168 L
166.5 137.5 L
cp
S
GR
GS
[0.75 0 0 0.75 0 0.5] CT
0 1 0 RC
10.0 ML
N
208.5 133.832 M
212.5 128.5 L
208.5 123.168 L
204.5 128.5 L
cp
S
GR
GS
[0.75 0 0 0.75 0 0.5] CT
0 1 0 RC
10.0 ML
N
245.5 118.832 M
249.5 113.5 L
245.5 108.168 L
241.5 113.5 L
cp
S
GR
GS
[0.75 0 0 0.75 0 0.5] CT
0 1 0 RC
10.0 ML
N
283.5 108.832 M
287.5 103.5 L
283.5 98.168 L
279.5 103.5 L
cp
S
GR
GS
[0.75 0 0 0.75 0 0.5] CT
0 1 0 RC
10.0 ML
N
321.5 74.832 M
325.5 69.5 L
321.5 64.168 L
317.5 69.5 L
cp
S
GR
GS
[0.75 0 0 0.75 0 0.5] CT
0 1 0 RC
10.0 ML
N
359.5 74.832 M
363.5 69.5 L
359.5 64.168 L
355.5 69.5 L
cp
S
GR
GS
[0.75 0 0 0.75 0 0.5] CT
0 1 0 RC
10.0 ML
N
397.5 74.832 M
401.5 69.5 L
397.5 64.168 L
393.5 69.5 L
cp
S
GR
GS
[0.75 0 0 0.75 0 0.5] CT
0 1 1 RC
[8 3 2 3] 0 setdash
2 LJ
0.667 LW
N
57 241.736 M
94.778 219.559 L
132.556 200.773 L
170.333 200.773 L
208.111 183.616 L
245.889 167.191 L
283.667 153.833 L
321.444 140.698 L
359.222 129.214 L
397 129.214 L
S
GR
GS
[0.75 0 0 0.75 0 0.5] CT
0 1 1 RC
10.0 ML
N
57.5 246.832 M
61.5 241.5 L
57.5 236.168 L
53.5 241.5 L
cp
S
GR
GS
[0.75 0 0 0.75 0 0.5] CT
0 1 1 RC
10.0 ML
N
94.5 224.832 M
98.5 219.5 L
94.5 214.168 L
90.5 219.5 L
cp
S
GR
GS
[0.75 0 0 0.75 0 0.5] CT
0 1 1 RC
10.0 ML
N
132.5 205.832 M
136.5 200.5 L
132.5 195.168 L
128.5 200.5 L
cp
S
GR
GS
[0.75 0 0 0.75 0 0.5] CT
0 1 1 RC
10.0 ML
N
170.5 205.832 M
174.5 200.5 L
170.5 195.168 L
166.5 200.5 L
cp
S
GR
GS
[0.75 0 0 0.75 0 0.5] CT
0 1 1 RC
10.0 ML
N
208.5 188.832 M
212.5 183.5 L
208.5 178.168 L
204.5 183.5 L
cp
S
GR
GS
[0.75 0 0 0.75 0 0.5] CT
0 1 1 RC
10.0 ML
N
245.5 172.832 M
249.5 167.5 L
245.5 162.168 L
241.5 167.5 L
cp
S
GR
GS
[0.75 0 0 0.75 0 0.5] CT
0 1 1 RC
10.0 ML
N
283.5 158.832 M
287.5 153.5 L
283.5 148.168 L
279.5 153.5 L
cp
S
GR
GS
[0.75 0 0 0.75 0 0.5] CT
0 1 1 RC
10.0 ML
N
321.5 145.832 M
325.5 140.5 L
321.5 135.168 L
317.5 140.5 L
cp
S
GR
GS
[0.75 0 0 0.75 0 0.5] CT
0 1 1 RC
10.0 ML
N
359.5 134.832 M
363.5 129.5 L
359.5 124.168 L
355.5 129.5 L
cp
S
GR
GS
[0.75 0 0 0.75 0 0.5] CT
0 1 1 RC
10.0 ML
N
397.5 134.832 M
401.5 129.5 L
397.5 124.168 L
393.5 129.5 L
cp
S
GR
GS
[0.75 0 0 0.75 0 0.5] CT
1 GC
N
419 192 M
419 34 L
528 34 L
528 192 L
cp
f
GR
GS
[0.75 0 0 0.75 342 33.10252] CT
/Helvetica 12 F
GS
[1 0 0 1 0 0] CT
0 4.5 moveto 
1 -1 scale
(Tmplsqr) t 
GR
GR
GS
[0.75 0 0 0.75 0 0.5] CT
0 0 1 RC
1 LJ
0.667 LW
N
423 43.47 M
453 43.47 L
S
GR
GS
[0.75 0 0 0.75 0 0.5] CT
0 0 1 RC
1 LJ
N
442.5 43.5 M
441.736 41.149 L
439.736 39.696 L
437.264 39.696 L
435.264 41.149 L
434.5 43.5 L
435.264 45.851 L
437.264 47.304 L
439.736 47.304 L
441.736 45.851 L
cp
S
GR
GS
[0.75 0 0 0.75 342 44.69085] CT
/Helvetica 12 F
GS
[1 0 0 1 0 0] CT
0 4.5 moveto 
1 -1 scale
(Tmplsmr) t 
GR
GR
GS
[0.75 0 0 0.75 0 0.5] CT
0 1 0 RC
1 LJ
0.667 LW
N
423 58.921 M
453 58.921 L
S
GR
GS
[0.75 0 0 0.75 0 0.5] CT
0 1 0 RC
1 LJ
N
442.5 58.5 M
441.736 56.149 L
439.736 54.696 L
437.264 54.696 L
435.264 56.149 L
434.5 58.5 L
435.264 60.851 L
437.264 62.304 L
439.736 62.304 L
441.736 60.851 L
cp
S
GR
GS
[0.75 0 0 0.75 342 56.27918] CT
/Helvetica 12 F
GS
[1 0 0 1 0 0] CT
0 4.5 moveto 
1 -1 scale
(Tmppcg) t 
GR
GR
GS
[0.75 0 0 0.75 0 0.5] CT
1 0 0 RC
1 LJ
0.667 LW
N
423 74.372 M
453 74.372 L
S
GR
GS
[0.75 0 0 0.75 0 0.5] CT
1 0 0 RC
1 LJ
N
442.5 74.5 M
441.736 72.149 L
439.736 70.696 L
437.264 70.696 L
435.264 72.149 L
434.5 74.5 L
435.264 76.851 L
437.264 78.304 L
439.736 78.304 L
441.736 76.851 L
cp
S
GR
GS
[0.75 0 0 0.75 342 67.86751] CT
/Helvetica 12 F
GS
[1 0 0 1 0 0] CT
0 4.5 moveto 
1 -1 scale
(Tmpminres) t 
GR
GR
GS
[0.75 0 0 0.75 0 0.5] CT
0 1 1 RC
1 LJ
0.667 LW
N
423 89.823 M
453 89.823 L
S
GR
GS
[0.75 0 0 0.75 0 0.5] CT
0 1 1 RC
1 LJ
N
442.5 89.5 M
441.736 87.149 L
439.736 85.696 L
437.264 85.696 L
435.264 87.149 L
434.5 89.5 L
435.264 91.851 L
437.264 93.304 L
439.736 93.304 L
441.736 91.851 L
cp
S
GR
GS
[0.75 0 0 0.75 342 79.45584] CT
/Helvetica 12 F
GS
[1 0 0 1 0 0] CT
0 4.5 moveto 
1 -1 scale
(Pnb) t 
GR
GR
GS
[0.75 0 0 0.75 0 0.5] CT
1 0 1 RC
1 LJ
0.667 LW
N
423 105.274 M
453 105.274 L
S
GR
GS
[0.75 0 0 0.75 0 0.5] CT
1 0 1 RC
1 LJ
N
442.5 105.5 M
441.736 103.149 L
439.736 101.696 L
437.264 101.696 L
435.264 103.149 L
434.5 105.5 L
435.264 107.851 L
437.264 109.304 L
439.736 109.304 L
441.736 107.851 L
cp
S
GR
GS
[0.75 0 0 0.75 342 91.04416] CT
/Helvetica 12 F
GS
[1 0 0 1 0 0] CT
0 4.5 moveto 
1 -1 scale
(Bb) t 
GR
GR
GS
[0.75 0 0 0.75 0 0.5] CT
1 LJ
0.667 LW
N
423 120.726 M
453 120.726 L
S
GR
GS
[0.75 0 0 0.75 0 0.5] CT
1 LJ
N
442.5 120.5 M
441.736 118.149 L
439.736 116.696 L
437.264 116.696 L
435.264 118.149 L
434.5 120.5 L
435.264 122.851 L
437.264 124.304 L
439.736 124.304 L
441.736 122.851 L
cp
S
GR
GS
[0.75 0 0 0.75 342 102.63249] CT
/Helvetica 12 F
GS
[1 0 0 1 0 0] CT
0 4.5 moveto 
1 -1 scale
(Spg) t 
GR
GR
GS
[0.75 0 0 0.75 0 0.5] CT
0 0 1 RC
[8 3 2 3] 0 setdash
2 LJ
0.667 LW
N
423 136.177 M
453 136.177 L
S
GR
GS
[0.75 0 0 0.75 0 0.5] CT
0 0 1 RC
10.0 ML
N
438.5 141.832 M
442.5 136.5 L
438.5 131.168 L
434.5 136.5 L
cp
S
GR
GS
[0.75 0 0 0.75 342 114.22082] CT
/Helvetica 12 F
GS
[1 0 0 1 0 0] CT
0 4.5 moveto 
1 -1 scale
(Pqn) t 
GR
GR
GS
[0.75 0 0 0.75 0 0.5] CT
0 1 0 RC
[8 3 2 3] 0 setdash
2 LJ
0.667 LW
N
423 151.628 M
453 151.628 L
S
GR
GS
[0.75 0 0 0.75 0 0.5] CT
0 1 0 RC
10.0 ML
N
438.5 156.832 M
442.5 151.5 L
438.5 146.168 L
434.5 151.5 L
cp
S
GR
GS
[0.75 0 0 0.75 342 125.80915] CT
/Helvetica 12 F
GS
[1 0 0 1 0 0] CT
0 4.5 moveto 
1 -1 scale
(Lbfgsb) t 
GR
GR
GS
[0.75 0 0 0.75 0 0.5] CT
1 0 0 RC
[8 3 2 3] 0 setdash
2 LJ
0.667 LW
N
423 167.079 M
453 167.079 L
S
GR
GS
[0.75 0 0 0.75 0 0.5] CT
1 0 0 RC
10.0 ML
N
438.5 172.832 M
442.5 167.5 L
438.5 162.168 L
434.5 167.5 L
cp
S
GR
GS
[0.75 0 0 0.75 342 137.39748] CT
/Helvetica 12 F
GS
[1 0 0 1 0 0] CT
0 4.5 moveto 
1 -1 scale
(Bcflash) t 
GR
GR
GS
[0.75 0 0 0.75 0 0.5] CT
0 1 1 RC
[8 3 2 3] 0 setdash
2 LJ
0.667 LW
N
423 182.53 M
453 182.53 L
S
GR
GS
[0.75 0 0 0.75 0 0.5] CT
0 1 1 RC
10.0 ML
N
438.5 187.832 M
442.5 182.5 L
438.5 177.168 L
434.5 182.5 L
cp
S
GR
GS
[0.75 0 0 0.75 0 0.5] CT
0.149 GC
10.0 ML
0.667 LW
N
419 192 M
419 34 L
528 34 L
528 192 L
cp
S
GR
%%Trailer
%%Pages: 1
%%EOF
