%!PS-Adobe-3.0 EPSF-3.0
%%Creator: (MATLAB, The Mathworks, Inc. Version 9.0.0.341360 \(R2016a\). Operating System: Linux)
%%Title: data/fact4logtolg.eps
%%CreationDate: 2017-02-04T13:28:34
%%Pages: (atend)
%%BoundingBox:     6     6   397   316
%%LanguageLevel: 3
%%EndComments
%%BeginProlog
%%BeginResource: procset (Apache XML Graphics Std ProcSet) 1.2 0
%%Version: 1.2 0
%%Copyright: (Copyright 2001-2003,2010 The Apache Software Foundation. License terms: http://www.apache.org/licenses/LICENSE-2.0)
/bd{bind def}bind def
/ld{load def}bd
/GR/grestore ld
/M/moveto ld
/LJ/setlinejoin ld
/C/curveto ld
/f/fill ld
/LW/setlinewidth ld
/GC/setgray ld
/t/show ld
/N/newpath ld
/CT/concat ld
/cp/closepath ld
/S/stroke ld
/L/lineto ld
/CC/setcmykcolor ld
/A/ashow ld
/GS/gsave ld
/RC/setrgbcolor ld
/RM/rmoveto ld
/ML/setmiterlimit ld
/re {4 2 roll M
1 index 0 rlineto
0 exch rlineto
neg 0 rlineto
cp } bd
/_ctm matrix def
/_tm matrix def
/BT { _ctm currentmatrix pop matrix _tm copy pop 0 0 moveto } bd
/ET { _ctm setmatrix } bd
/iTm { _ctm setmatrix _tm concat } bd
/Tm { _tm astore pop iTm 0 0 moveto } bd
/ux 0.0 def
/uy 0.0 def
/F {
  /Tp exch def
  /Tf exch def
  Tf findfont Tp scalefont setfont
  /cf Tf def  /cs Tp def
} bd
/ULS {currentpoint /uy exch def /ux exch def} bd
/ULE {
  /Tcx currentpoint pop def
  gsave
  newpath
  cf findfont cs scalefont dup
  /FontMatrix get 0 get /Ts exch def /FontInfo get dup
  /UnderlinePosition get Ts mul /To exch def
  /UnderlineThickness get Ts mul /Tt exch def
  ux uy To add moveto  Tcx uy To add lineto
  Tt setlinewidth stroke
  grestore
} bd
/OLE {
  /Tcx currentpoint pop def
  gsave
  newpath
  cf findfont cs scalefont dup
  /FontMatrix get 0 get /Ts exch def /FontInfo get dup
  /UnderlinePosition get Ts mul /To exch def
  /UnderlineThickness get Ts mul /Tt exch def
  ux uy To add cs add moveto Tcx uy To add cs add lineto
  Tt setlinewidth stroke
  grestore
} bd
/SOE {
  /Tcx currentpoint pop def
  gsave
  newpath
  cf findfont cs scalefont dup
  /FontMatrix get 0 get /Ts exch def /FontInfo get dup
  /UnderlinePosition get Ts mul /To exch def
  /UnderlineThickness get Ts mul /Tt exch def
  ux uy To add cs 10 mul 26 idiv add moveto Tcx uy To add cs 10 mul 26 idiv add lineto
  Tt setlinewidth stroke
  grestore
} bd
/QT {
/Y22 exch store
/X22 exch store
/Y21 exch store
/X21 exch store
currentpoint
/Y21 load 2 mul add 3 div exch
/X21 load 2 mul add 3 div exch
/X21 load 2 mul /X22 load add 3 div
/Y21 load 2 mul /Y22 load add 3 div
/X22 load /Y22 load curveto
} bd
/SSPD {
dup length /d exch dict def
{
/v exch def
/k exch def
currentpagedevice k known {
/cpdv currentpagedevice k get def
v cpdv ne {
/upd false def
/nullv v type /nulltype eq def
/nullcpdv cpdv type /nulltype eq def
nullv nullcpdv or
{
/upd true def
} {
/sametype v type cpdv type eq def
sametype {
v type /arraytype eq {
/vlen v length def
/cpdvlen cpdv length def
vlen cpdvlen eq {
0 1 vlen 1 sub {
/i exch def
/obj v i get def
/cpdobj cpdv i get def
obj cpdobj ne {
/upd true def
exit
} if
} for
} {
/upd true def
} ifelse
} {
v type /dicttype eq {
v {
/dv exch def
/dk exch def
/cpddv cpdv dk get def
dv cpddv ne {
/upd true def
exit
} if
} forall
} {
/upd true def
} ifelse
} ifelse
} if
} ifelse
upd true eq {
d k v put
} if
} if
} if
} forall
d length 0 gt {
d setpagedevice
} if
} bd
%%EndResource
%%BeginResource: procset (Apache XML Graphics EPS ProcSet) 1.0 0
%%Version: 1.0 0
%%Copyright: (Copyright 2002-2003 The Apache Software Foundation. License terms: http://www.apache.org/licenses/LICENSE-2.0)
/BeginEPSF { %def
/b4_Inc_state save def         % Save state for cleanup
/dict_count countdictstack def % Count objects on dict stack
/op_count count 1 sub def      % Count objects on operand stack
userdict begin                 % Push userdict on dict stack
/showpage { } def              % Redefine showpage, { } = null proc
0 setgray 0 setlinecap         % Prepare graphics state
1 setlinewidth 0 setlinejoin
10 setmiterlimit [ ] 0 setdash newpath
/languagelevel where           % If level not equal to 1 then
{pop languagelevel             % set strokeadjust and
1 ne                           % overprint to their defaults.
{false setstrokeadjust false setoverprint
} if
} if
} bd
/EndEPSF { %def
count op_count sub {pop} repeat            % Clean up stacks
countdictstack dict_count sub {end} repeat
b4_Inc_state restore
} bd
%%EndResource
%FOPBeginFontDict
%%IncludeResource: font Courier-Bold
%%IncludeResource: font Helvetica
%%IncludeResource: font Courier-BoldOblique
%%IncludeResource: font Courier-Oblique
%%IncludeResource: font Times-Roman
%%IncludeResource: font Helvetica-BoldOblique
%%IncludeResource: font Helvetica-Bold
%%IncludeResource: font Helvetica-Oblique
%%IncludeResource: font Times-BoldItalic
%%IncludeResource: font Courier
%%IncludeResource: font Times-Italic
%%IncludeResource: font Times-Bold
%%IncludeResource: font Symbol
%%IncludeResource: font ZapfDingbats
%FOPEndFontDict
%%BeginResource: encoding WinAnsiEncoding
/WinAnsiEncoding [
/.notdef /.notdef /.notdef /.notdef /.notdef
/.notdef /.notdef /.notdef /.notdef /.notdef
/.notdef /.notdef /.notdef /.notdef /.notdef
/.notdef /.notdef /.notdef /.notdef /.notdef
/.notdef /.notdef /.notdef /.notdef /.notdef
/.notdef /.notdef /.notdef /.notdef /.notdef
/.notdef /.notdef /space /exclam /quotedbl
/numbersign /dollar /percent /ampersand /quotesingle
/parenleft /parenright /asterisk /plus /comma
/hyphen /period /slash /zero /one
/two /three /four /five /six
/seven /eight /nine /colon /semicolon
/less /equal /greater /question /at
/A /B /C /D /E
/F /G /H /I /J
/K /L /M /N /O
/P /Q /R /S /T
/U /V /W /X /Y
/Z /bracketleft /backslash /bracketright /asciicircum
/underscore /quoteleft /a /b /c
/d /e /f /g /h
/i /j /k /l /m
/n /o /p /q /r
/s /t /u /v /w
/x /y /z /braceleft /bar
/braceright /asciitilde /bullet /Euro /bullet
/quotesinglbase /florin /quotedblbase /ellipsis /dagger
/daggerdbl /circumflex /perthousand /Scaron /guilsinglleft
/OE /bullet /Zcaron /bullet /bullet
/quoteleft /quoteright /quotedblleft /quotedblright /bullet
/endash /emdash /asciitilde /trademark /scaron
/guilsinglright /oe /bullet /zcaron /Ydieresis
/space /exclamdown /cent /sterling /currency
/yen /brokenbar /section /dieresis /copyright
/ordfeminine /guillemotleft /logicalnot /sfthyphen /registered
/macron /degree /plusminus /twosuperior /threesuperior
/acute /mu /paragraph /middot /cedilla
/onesuperior /ordmasculine /guillemotright /onequarter /onehalf
/threequarters /questiondown /Agrave /Aacute /Acircumflex
/Atilde /Adieresis /Aring /AE /Ccedilla
/Egrave /Eacute /Ecircumflex /Edieresis /Igrave
/Iacute /Icircumflex /Idieresis /Eth /Ntilde
/Ograve /Oacute /Ocircumflex /Otilde /Odieresis
/multiply /Oslash /Ugrave /Uacute /Ucircumflex
/Udieresis /Yacute /Thorn /germandbls /agrave
/aacute /acircumflex /atilde /adieresis /aring
/ae /ccedilla /egrave /eacute /ecircumflex
/edieresis /igrave /iacute /icircumflex /idieresis
/eth /ntilde /ograve /oacute /ocircumflex
/otilde /odieresis /divide /oslash /ugrave
/uacute /ucircumflex /udieresis /yacute /thorn
/ydieresis
] def
%%EndResource
%FOPBeginFontReencode
/Courier-Bold findfont
dup length dict begin
  {1 index /FID ne {def} {pop pop} ifelse} forall
  /Encoding WinAnsiEncoding def
  currentdict
end
/Courier-Bold exch definefont pop
/Helvetica findfont
dup length dict begin
  {1 index /FID ne {def} {pop pop} ifelse} forall
  /Encoding WinAnsiEncoding def
  currentdict
end
/Helvetica exch definefont pop
/Courier-BoldOblique findfont
dup length dict begin
  {1 index /FID ne {def} {pop pop} ifelse} forall
  /Encoding WinAnsiEncoding def
  currentdict
end
/Courier-BoldOblique exch definefont pop
/Courier-Oblique findfont
dup length dict begin
  {1 index /FID ne {def} {pop pop} ifelse} forall
  /Encoding WinAnsiEncoding def
  currentdict
end
/Courier-Oblique exch definefont pop
/Times-Roman findfont
dup length dict begin
  {1 index /FID ne {def} {pop pop} ifelse} forall
  /Encoding WinAnsiEncoding def
  currentdict
end
/Times-Roman exch definefont pop
/Helvetica-BoldOblique findfont
dup length dict begin
  {1 index /FID ne {def} {pop pop} ifelse} forall
  /Encoding WinAnsiEncoding def
  currentdict
end
/Helvetica-BoldOblique exch definefont pop
/Helvetica-Bold findfont
dup length dict begin
  {1 index /FID ne {def} {pop pop} ifelse} forall
  /Encoding WinAnsiEncoding def
  currentdict
end
/Helvetica-Bold exch definefont pop
/Helvetica-Oblique findfont
dup length dict begin
  {1 index /FID ne {def} {pop pop} ifelse} forall
  /Encoding WinAnsiEncoding def
  currentdict
end
/Helvetica-Oblique exch definefont pop
/Times-BoldItalic findfont
dup length dict begin
  {1 index /FID ne {def} {pop pop} ifelse} forall
  /Encoding WinAnsiEncoding def
  currentdict
end
/Times-BoldItalic exch definefont pop
/Courier findfont
dup length dict begin
  {1 index /FID ne {def} {pop pop} ifelse} forall
  /Encoding WinAnsiEncoding def
  currentdict
end
/Courier exch definefont pop
/Times-Italic findfont
dup length dict begin
  {1 index /FID ne {def} {pop pop} ifelse} forall
  /Encoding WinAnsiEncoding def
  currentdict
end
/Times-Italic exch definefont pop
/Times-Bold findfont
dup length dict begin
  {1 index /FID ne {def} {pop pop} ifelse} forall
  /Encoding WinAnsiEncoding def
  currentdict
end
/Times-Bold exch definefont pop
%FOPEndFontReencode
%%EndProlog
%%Page: 1 1
%%PageBoundingBox: 0 0 428 338
%%BeginPageSetup
[1 0 0 -1 0 338] CT
%%EndPageSetup
GS
[0.75 0 0 0.75 0 0.5] CT
N
0 0 M
570 0 L
570 450 L
0 450 L
0 0 L
cp
clip
1 GC
N
0 0 570 450 re
f
GR
GS
[0.75 0 0 0.75 0 0.5] CT
1 GC
N
0 0 570 450 re
f
GR
GS
[0.75 0 0 0.75 0 0.5] CT
1 GC
N
57 400 M
397 400 L
397 34 L
57 34 L
cp
f
GR
GS
[0.75 0 0 0.75 0 0.5] CT
0.149 GC
2 setlinecap
1 LJ
0.667 LW
N
57 400 M
397 400 L
S
GR
GS
[0.75 0 0 0.75 0 0.5] CT
0.149 GC
2 setlinecap
1 LJ
0.667 LW
N
57 34 M
397 34 L
S
GR
GS
[0.75 0 0 0.75 0 0.5] CT
0.149 GC
2 setlinecap
1 LJ
0.667 LW
N
94.778 400 M
94.778 396.34 L
S
GR
GS
[0.75 0 0 0.75 0 0.5] CT
0.149 GC
2 setlinecap
1 LJ
0.667 LW
N
170.333 400 M
170.333 396.34 L
S
GR
GS
[0.75 0 0 0.75 0 0.5] CT
0.149 GC
2 setlinecap
1 LJ
0.667 LW
N
245.889 400 M
245.889 396.34 L
S
GR
GS
[0.75 0 0 0.75 0 0.5] CT
0.149 GC
2 setlinecap
1 LJ
0.667 LW
N
321.444 400 M
321.444 396.34 L
S
GR
GS
[0.75 0 0 0.75 0 0.5] CT
0.149 GC
2 setlinecap
1 LJ
0.667 LW
N
397 400 M
397 396.34 L
S
GR
GS
[0.75 0 0 0.75 0 0.5] CT
0.149 GC
2 setlinecap
1 LJ
0.667 LW
N
94.778 34 M
94.778 37.66 L
S
GR
GS
[0.75 0 0 0.75 0 0.5] CT
0.149 GC
2 setlinecap
1 LJ
0.667 LW
N
170.333 34 M
170.333 37.66 L
S
GR
GS
[0.75 0 0 0.75 0 0.5] CT
0.149 GC
2 setlinecap
1 LJ
0.667 LW
N
245.889 34 M
245.889 37.66 L
S
GR
GS
[0.75 0 0 0.75 0 0.5] CT
0.149 GC
2 setlinecap
1 LJ
0.667 LW
N
321.444 34 M
321.444 37.66 L
S
GR
GS
[0.75 0 0 0.75 0 0.5] CT
0.149 GC
2 setlinecap
1 LJ
0.667 LW
N
397 34 M
397 37.66 L
S
GR
GS
[0.75 0 0 0.75 71.08333 304.50001] CT
0.149 GC
/Helvetica 13.333 F
GS
[1 0 0 1 0 0] CT
-4.5 13 moveto 
1 -1 scale
(2) t 
GR
GR
GS
[0.75 0 0 0.75 127.75001 304.50001] CT
0.149 GC
/Helvetica 13.333 F
GS
[1 0 0 1 0 0] CT
-4.5 13 moveto 
1 -1 scale
(4) t 
GR
GR
GS
[0.75 0 0 0.75 184.41668 304.50001] CT
0.149 GC
/Helvetica 13.333 F
GS
[1 0 0 1 0 0] CT
-4.5 13 moveto 
1 -1 scale
(6) t 
GR
GR
GS
[0.75 0 0 0.75 241.08334 304.50001] CT
0.149 GC
/Helvetica 13.333 F
GS
[1 0 0 1 0 0] CT
-4.5 13 moveto 
1 -1 scale
(8) t 
GR
GR
GS
[0.75 0 0 0.75 297.75 304.50001] CT
0.149 GC
/Helvetica 13.333 F
GS
[1 0 0 1 0 0] CT
-8.5 13 moveto 
1 -1 scale
(10) t 
GR
GR
GS
[0.75 0 0 0.75 170.25013 318.24999] CT
0.149 GC
/Helvetica 14.667 F
GS
[1 0 0 1 0 0] CT
-30 14 moveto 
1 -1 scale
(-log\(tol\)) t 
GR
GR
GS
[0.75 0 0 0.75 0 0.5] CT
0.149 GC
2 setlinecap
1 LJ
0.667 LW
N
57 400 M
57 34 L
S
GR
GS
[0.75 0 0 0.75 0 0.5] CT
0.149 GC
2 setlinecap
1 LJ
0.667 LW
N
397 400 M
397 34 L
S
GR
GS
[0.75 0 0 0.75 0 0.5] CT
0.149 GC
2 setlinecap
1 LJ
0.667 LW
N
57 271.949 M
60.66 271.949 L
S
GR
GS
[0.75 0 0 0.75 0 0.5] CT
0.149 GC
2 setlinecap
1 LJ
0.667 LW
N
57 88.75 M
60.66 88.75 L
S
GR
GS
[0.75 0 0 0.75 0 0.5] CT
0.149 GC
2 setlinecap
1 LJ
0.667 LW
N
397 271.949 M
393.34 271.949 L
S
GR
GS
[0.75 0 0 0.75 0 0.5] CT
0.149 GC
2 setlinecap
1 LJ
0.667 LW
N
397 88.75 M
393.34 88.75 L
S
GR
GS
[0.75 0 0 0.75 0 0.5] CT
0.149 GC
2 setlinecap
1 LJ
0.667 LW
N
57 367.74 M
58.83 367.74 L
S
GR
GS
[0.75 0 0 0.75 0 0.5] CT
0.149 GC
2 setlinecap
1 LJ
0.667 LW
N
57 344.851 M
58.83 344.851 L
S
GR
GS
[0.75 0 0 0.75 0 0.5] CT
0.149 GC
2 setlinecap
1 LJ
0.667 LW
N
57 327.098 M
58.83 327.098 L
S
GR
GS
[0.75 0 0 0.75 0 0.5] CT
0.149 GC
2 setlinecap
1 LJ
0.667 LW
N
57 312.592 M
58.83 312.592 L
S
GR
GS
[0.75 0 0 0.75 0 0.5] CT
0.149 GC
2 setlinecap
1 LJ
0.667 LW
N
57 300.327 M
58.83 300.327 L
S
GR
GS
[0.75 0 0 0.75 0 0.5] CT
0.149 GC
2 setlinecap
1 LJ
0.667 LW
N
57 289.703 M
58.83 289.703 L
S
GR
GS
[0.75 0 0 0.75 0 0.5] CT
0.149 GC
2 setlinecap
1 LJ
0.667 LW
N
57 280.332 M
58.83 280.332 L
S
GR
GS
[0.75 0 0 0.75 0 0.5] CT
0.149 GC
2 setlinecap
1 LJ
0.667 LW
N
57 216.801 M
58.83 216.801 L
S
GR
GS
[0.75 0 0 0.75 0 0.5] CT
0.149 GC
2 setlinecap
1 LJ
0.667 LW
N
57 184.541 M
58.83 184.541 L
S
GR
GS
[0.75 0 0 0.75 0 0.5] CT
0.149 GC
2 setlinecap
1 LJ
0.667 LW
N
57 161.652 M
58.83 161.652 L
S
GR
GS
[0.75 0 0 0.75 0 0.5] CT
0.149 GC
2 setlinecap
1 LJ
0.667 LW
N
57 143.898 M
58.83 143.898 L
S
GR
GS
[0.75 0 0 0.75 0 0.5] CT
0.149 GC
2 setlinecap
1 LJ
0.667 LW
N
57 129.392 M
58.83 129.392 L
S
GR
GS
[0.75 0 0 0.75 0 0.5] CT
0.149 GC
2 setlinecap
1 LJ
0.667 LW
N
57 117.128 M
58.83 117.128 L
S
GR
GS
[0.75 0 0 0.75 0 0.5] CT
0.149 GC
2 setlinecap
1 LJ
0.667 LW
N
57 106.504 M
58.83 106.504 L
S
GR
GS
[0.75 0 0 0.75 0 0.5] CT
0.149 GC
2 setlinecap
1 LJ
0.667 LW
N
57 97.132 M
58.83 97.132 L
S
GR
GS
[0.75 0 0 0.75 0 0.5] CT
0.149 GC
2 setlinecap
1 LJ
0.667 LW
N
397 367.74 M
395.17 367.74 L
S
GR
GS
[0.75 0 0 0.75 0 0.5] CT
0.149 GC
2 setlinecap
1 LJ
0.667 LW
N
397 344.851 M
395.17 344.851 L
S
GR
GS
[0.75 0 0 0.75 0 0.5] CT
0.149 GC
2 setlinecap
1 LJ
0.667 LW
N
397 327.098 M
395.17 327.098 L
S
GR
GS
[0.75 0 0 0.75 0 0.5] CT
0.149 GC
2 setlinecap
1 LJ
0.667 LW
N
397 312.592 M
395.17 312.592 L
S
GR
GS
[0.75 0 0 0.75 0 0.5] CT
0.149 GC
2 setlinecap
1 LJ
0.667 LW
N
397 300.327 M
395.17 300.327 L
S
GR
GS
[0.75 0 0 0.75 0 0.5] CT
0.149 GC
2 setlinecap
1 LJ
0.667 LW
N
397 289.703 M
395.17 289.703 L
S
GR
GS
[0.75 0 0 0.75 0 0.5] CT
0.149 GC
2 setlinecap
1 LJ
0.667 LW
N
397 280.332 M
395.17 280.332 L
S
GR
GS
[0.75 0 0 0.75 0 0.5] CT
0.149 GC
2 setlinecap
1 LJ
0.667 LW
N
397 216.801 M
395.17 216.801 L
S
GR
GS
[0.75 0 0 0.75 0 0.5] CT
0.149 GC
2 setlinecap
1 LJ
0.667 LW
N
397 184.541 M
395.17 184.541 L
S
GR
GS
[0.75 0 0 0.75 0 0.5] CT
0.149 GC
2 setlinecap
1 LJ
0.667 LW
N
397 161.652 M
395.17 161.652 L
S
GR
GS
[0.75 0 0 0.75 0 0.5] CT
0.149 GC
2 setlinecap
1 LJ
0.667 LW
N
397 143.898 M
395.17 143.898 L
S
GR
GS
[0.75 0 0 0.75 0 0.5] CT
0.149 GC
2 setlinecap
1 LJ
0.667 LW
N
397 129.392 M
395.17 129.392 L
S
GR
GS
[0.75 0 0 0.75 0 0.5] CT
0.149 GC
2 setlinecap
1 LJ
0.667 LW
N
397 117.128 M
395.17 117.128 L
S
GR
GS
[0.75 0 0 0.75 0 0.5] CT
0.149 GC
2 setlinecap
1 LJ
0.667 LW
N
397 106.504 M
395.17 106.504 L
S
GR
GS
[0.75 0 0 0.75 0 0.5] CT
0.149 GC
2 setlinecap
1 LJ
0.667 LW
N
397 97.132 M
395.17 97.132 L
S
GR
GS
[0.75 0 0 0.75 21 209.75] CT
0.149 GC
/Helvetica 13.333 F
GS
[1 0 0 1 0 0] CT
0 0 moveto 
1 -1 scale
(10) t 
GR
GR
GS
[0.75 0 0 0.75 33.75 205.25] CT
0.149 GC
/Helvetica 10.667 F
GS
[1 0 0 1 0 0] CT
0 0 moveto 
1 -1 scale
(1) t 
GR
GR
GS
[0.75 0 0 0.75 21 72.5] CT
0.149 GC
/Helvetica 13.333 F
GS
[1 0 0 1 0 0] CT
0 0 moveto 
1 -1 scale
(10) t 
GR
GR
GS
[0.75 0 0 0.75 33.75 68] CT
0.149 GC
/Helvetica 10.667 F
GS
[1 0 0 1 0 0] CT
0 0 moveto 
1 -1 scale
(2) t 
GR
GR
GS
[0 -0.75 0.75 0 17.75 163.24987] CT
0.149 GC
/Helvetica 14.667 F
GS
[1 0 0 1 0 0] CT
-11.5 -4 moveto 
1 -1 scale
(#g) t 
GR
GR
GS
[0.75 0 0 0.75 0 0.5] CT
0 0 1 RC
1 LJ
0.667 LW
N
57 400 M
94.778 400 L
132.556 367.74 L
170.333 367.74 L
208.111 367.74 L
245.889 367.74 L
283.667 367.74 L
321.444 367.74 L
359.222 367.74 L
397 367.74 L
S
GR
GS
[0.75 0 0 0.75 0 0.5] CT
0 0 1 RC
1 LJ
N
61.5 399.5 M
60.736 397.149 L
58.736 395.696 L
56.264 395.696 L
54.264 397.149 L
53.5 399.5 L
54.264 401.851 L
56.264 403.304 L
58.736 403.304 L
60.736 401.851 L
cp
S
GR
GS
[0.75 0 0 0.75 0 0.5] CT
0 0 1 RC
1 LJ
N
98.5 399.5 M
97.736 397.149 L
95.736 395.696 L
93.264 395.696 L
91.264 397.149 L
90.5 399.5 L
91.264 401.851 L
93.264 403.304 L
95.736 403.304 L
97.736 401.851 L
cp
S
GR
GS
[0.75 0 0 0.75 0 0.5] CT
0 0 1 RC
1 LJ
N
136.5 367.5 M
135.736 365.149 L
133.736 363.696 L
131.264 363.696 L
129.264 365.149 L
128.5 367.5 L
129.264 369.851 L
131.264 371.304 L
133.736 371.304 L
135.736 369.851 L
cp
S
GR
GS
[0.75 0 0 0.75 0 0.5] CT
0 0 1 RC
1 LJ
N
174.5 367.5 M
173.736 365.149 L
171.736 363.696 L
169.264 363.696 L
167.264 365.149 L
166.5 367.5 L
167.264 369.851 L
169.264 371.304 L
171.736 371.304 L
173.736 369.851 L
cp
S
GR
GS
[0.75 0 0 0.75 0 0.5] CT
0 0 1 RC
1 LJ
N
212.5 367.5 M
211.736 365.149 L
209.736 363.696 L
207.264 363.696 L
205.264 365.149 L
204.5 367.5 L
205.264 369.851 L
207.264 371.304 L
209.736 371.304 L
211.736 369.851 L
cp
S
GR
GS
[0.75 0 0 0.75 0 0.5] CT
0 0 1 RC
1 LJ
N
249.5 367.5 M
248.736 365.149 L
246.736 363.696 L
244.264 363.696 L
242.264 365.149 L
241.5 367.5 L
242.264 369.851 L
244.264 371.304 L
246.736 371.304 L
248.736 369.851 L
cp
S
GR
GS
[0.75 0 0 0.75 0 0.5] CT
0 0 1 RC
1 LJ
N
287.5 367.5 M
286.736 365.149 L
284.736 363.696 L
282.264 363.696 L
280.264 365.149 L
279.5 367.5 L
280.264 369.851 L
282.264 371.304 L
284.736 371.304 L
286.736 369.851 L
cp
S
GR
GS
[0.75 0 0 0.75 0 0.5] CT
0 0 1 RC
1 LJ
N
325.5 367.5 M
324.736 365.149 L
322.736 363.696 L
320.264 363.696 L
318.264 365.149 L
317.5 367.5 L
318.264 369.851 L
320.264 371.304 L
322.736 371.304 L
324.736 369.851 L
cp
S
GR
GS
[0.75 0 0 0.75 0 0.5] CT
0 0 1 RC
1 LJ
N
363.5 367.5 M
362.736 365.149 L
360.736 363.696 L
358.264 363.696 L
356.264 365.149 L
355.5 367.5 L
356.264 369.851 L
358.264 371.304 L
360.736 371.304 L
362.736 369.851 L
cp
S
GR
GS
[0.75 0 0 0.75 0 0.5] CT
0 0 1 RC
1 LJ
N
401.5 367.5 M
400.736 365.149 L
398.736 363.696 L
396.264 363.696 L
394.264 365.149 L
393.5 367.5 L
394.264 369.851 L
396.264 371.304 L
398.736 371.304 L
400.736 369.851 L
cp
S
GR
GS
[0.75 0 0 0.75 0 0.5] CT
0 1 0 RC
1 LJ
0.667 LW
N
57 400 M
94.778 400 L
132.556 367.74 L
170.333 367.74 L
208.111 367.74 L
245.889 367.74 L
283.667 367.74 L
321.444 367.74 L
359.222 367.74 L
397 367.74 L
S
GR
GS
[0.75 0 0 0.75 0 0.5] CT
0 1 0 RC
1 LJ
N
61.5 399.5 M
60.736 397.149 L
58.736 395.696 L
56.264 395.696 L
54.264 397.149 L
53.5 399.5 L
54.264 401.851 L
56.264 403.304 L
58.736 403.304 L
60.736 401.851 L
cp
S
GR
GS
[0.75 0 0 0.75 0 0.5] CT
0 1 0 RC
1 LJ
N
98.5 399.5 M
97.736 397.149 L
95.736 395.696 L
93.264 395.696 L
91.264 397.149 L
90.5 399.5 L
91.264 401.851 L
93.264 403.304 L
95.736 403.304 L
97.736 401.851 L
cp
S
GR
GS
[0.75 0 0 0.75 0 0.5] CT
0 1 0 RC
1 LJ
N
136.5 367.5 M
135.736 365.149 L
133.736 363.696 L
131.264 363.696 L
129.264 365.149 L
128.5 367.5 L
129.264 369.851 L
131.264 371.304 L
133.736 371.304 L
135.736 369.851 L
cp
S
GR
GS
[0.75 0 0 0.75 0 0.5] CT
0 1 0 RC
1 LJ
N
174.5 367.5 M
173.736 365.149 L
171.736 363.696 L
169.264 363.696 L
167.264 365.149 L
166.5 367.5 L
167.264 369.851 L
169.264 371.304 L
171.736 371.304 L
173.736 369.851 L
cp
S
GR
GS
[0.75 0 0 0.75 0 0.5] CT
0 1 0 RC
1 LJ
N
212.5 367.5 M
211.736 365.149 L
209.736 363.696 L
207.264 363.696 L
205.264 365.149 L
204.5 367.5 L
205.264 369.851 L
207.264 371.304 L
209.736 371.304 L
211.736 369.851 L
cp
S
GR
GS
[0.75 0 0 0.75 0 0.5] CT
0 1 0 RC
1 LJ
N
249.5 367.5 M
248.736 365.149 L
246.736 363.696 L
244.264 363.696 L
242.264 365.149 L
241.5 367.5 L
242.264 369.851 L
244.264 371.304 L
246.736 371.304 L
248.736 369.851 L
cp
S
GR
GS
[0.75 0 0 0.75 0 0.5] CT
0 1 0 RC
1 LJ
N
287.5 367.5 M
286.736 365.149 L
284.736 363.696 L
282.264 363.696 L
280.264 365.149 L
279.5 367.5 L
280.264 369.851 L
282.264 371.304 L
284.736 371.304 L
286.736 369.851 L
cp
S
GR
GS
[0.75 0 0 0.75 0 0.5] CT
0 1 0 RC
1 LJ
N
325.5 367.5 M
324.736 365.149 L
322.736 363.696 L
320.264 363.696 L
318.264 365.149 L
317.5 367.5 L
318.264 369.851 L
320.264 371.304 L
322.736 371.304 L
324.736 369.851 L
cp
S
GR
GS
[0.75 0 0 0.75 0 0.5] CT
0 1 0 RC
1 LJ
N
363.5 367.5 M
362.736 365.149 L
360.736 363.696 L
358.264 363.696 L
356.264 365.149 L
355.5 367.5 L
356.264 369.851 L
358.264 371.304 L
360.736 371.304 L
362.736 369.851 L
cp
S
GR
GS
[0.75 0 0 0.75 0 0.5] CT
0 1 0 RC
1 LJ
N
401.5 367.5 M
400.736 365.149 L
398.736 363.696 L
396.264 363.696 L
394.264 365.149 L
393.5 367.5 L
394.264 369.851 L
396.264 371.304 L
398.736 371.304 L
400.736 369.851 L
cp
S
GR
GS
[0.75 0 0 0.75 0 0.5] CT
1 0 0 RC
1 LJ
0.667 LW
N
57 148.821 M
94.778 115.999 L
132.556 280.332 L
170.333 300.327 L
208.111 327.098 L
245.889 327.098 L
283.667 327.098 L
321.444 327.098 L
359.222 327.098 L
397 327.098 L
S
GR
GS
[0.75 0 0 0.75 0 0.5] CT
1 0 0 RC
1 LJ
N
61.5 148.5 M
60.736 146.149 L
58.736 144.696 L
56.264 144.696 L
54.264 146.149 L
53.5 148.5 L
54.264 150.851 L
56.264 152.304 L
58.736 152.304 L
60.736 150.851 L
cp
S
GR
GS
[0.75 0 0 0.75 0 0.5] CT
1 0 0 RC
1 LJ
N
98.5 115.5 M
97.736 113.149 L
95.736 111.696 L
93.264 111.696 L
91.264 113.149 L
90.5 115.5 L
91.264 117.851 L
93.264 119.304 L
95.736 119.304 L
97.736 117.851 L
cp
S
GR
GS
[0.75 0 0 0.75 0 0.5] CT
1 0 0 RC
1 LJ
N
136.5 280.5 M
135.736 278.149 L
133.736 276.696 L
131.264 276.696 L
129.264 278.149 L
128.5 280.5 L
129.264 282.851 L
131.264 284.304 L
133.736 284.304 L
135.736 282.851 L
cp
S
GR
GS
[0.75 0 0 0.75 0 0.5] CT
1 0 0 RC
1 LJ
N
174.5 300.5 M
173.736 298.149 L
171.736 296.696 L
169.264 296.696 L
167.264 298.149 L
166.5 300.5 L
167.264 302.851 L
169.264 304.304 L
171.736 304.304 L
173.736 302.851 L
cp
S
GR
GS
[0.75 0 0 0.75 0 0.5] CT
1 0 0 RC
1 LJ
N
212.5 327.5 M
211.736 325.149 L
209.736 323.696 L
207.264 323.696 L
205.264 325.149 L
204.5 327.5 L
205.264 329.851 L
207.264 331.304 L
209.736 331.304 L
211.736 329.851 L
cp
S
GR
GS
[0.75 0 0 0.75 0 0.5] CT
1 0 0 RC
1 LJ
N
249.5 327.5 M
248.736 325.149 L
246.736 323.696 L
244.264 323.696 L
242.264 325.149 L
241.5 327.5 L
242.264 329.851 L
244.264 331.304 L
246.736 331.304 L
248.736 329.851 L
cp
S
GR
GS
[0.75 0 0 0.75 0 0.5] CT
1 0 0 RC
1 LJ
N
287.5 327.5 M
286.736 325.149 L
284.736 323.696 L
282.264 323.696 L
280.264 325.149 L
279.5 327.5 L
280.264 329.851 L
282.264 331.304 L
284.736 331.304 L
286.736 329.851 L
cp
S
GR
GS
[0.75 0 0 0.75 0 0.5] CT
1 0 0 RC
1 LJ
N
325.5 327.5 M
324.736 325.149 L
322.736 323.696 L
320.264 323.696 L
318.264 325.149 L
317.5 327.5 L
318.264 329.851 L
320.264 331.304 L
322.736 331.304 L
324.736 329.851 L
cp
S
GR
GS
[0.75 0 0 0.75 0 0.5] CT
1 0 0 RC
1 LJ
N
363.5 327.5 M
362.736 325.149 L
360.736 323.696 L
358.264 323.696 L
356.264 325.149 L
355.5 327.5 L
356.264 329.851 L
358.264 331.304 L
360.736 331.304 L
362.736 329.851 L
cp
S
GR
GS
[0.75 0 0 0.75 0 0.5] CT
1 0 0 RC
1 LJ
N
401.5 327.5 M
400.736 325.149 L
398.736 323.696 L
396.264 323.696 L
394.264 325.149 L
393.5 327.5 L
394.264 329.851 L
396.264 331.304 L
398.736 331.304 L
400.736 329.851 L
cp
S
GR
GS
[0.75 0 0 0.75 0 0.5] CT
0 1 1 RC
1 LJ
0.667 LW
N
57 77.63 M
94.778 34 L
132.556 192.924 L
170.333 264.366 L
208.111 300.327 L
245.889 300.327 L
283.667 327.098 L
321.444 327.098 L
359.222 327.098 L
397 327.098 L
S
GR
GS
[0.75 0 0 0.75 0 0.5] CT
0 1 1 RC
1 LJ
N
61.5 77.5 M
60.736 75.149 L
58.736 73.696 L
56.264 73.696 L
54.264 75.149 L
53.5 77.5 L
54.264 79.851 L
56.264 81.304 L
58.736 81.304 L
60.736 79.851 L
cp
S
GR
GS
[0.75 0 0 0.75 0 0.5] CT
0 1 1 RC
1 LJ
N
98.5 33.5 M
97.736 31.149 L
95.736 29.696 L
93.264 29.696 L
91.264 31.149 L
90.5 33.5 L
91.264 35.851 L
93.264 37.304 L
95.736 37.304 L
97.736 35.851 L
cp
S
GR
GS
[0.75 0 0 0.75 0 0.5] CT
0 1 1 RC
1 LJ
N
136.5 192.5 M
135.736 190.149 L
133.736 188.696 L
131.264 188.696 L
129.264 190.149 L
128.5 192.5 L
129.264 194.851 L
131.264 196.304 L
133.736 196.304 L
135.736 194.851 L
cp
S
GR
GS
[0.75 0 0 0.75 0 0.5] CT
0 1 1 RC
1 LJ
N
174.5 264.5 M
173.736 262.149 L
171.736 260.696 L
169.264 260.696 L
167.264 262.149 L
166.5 264.5 L
167.264 266.851 L
169.264 268.304 L
171.736 268.304 L
173.736 266.851 L
cp
S
GR
GS
[0.75 0 0 0.75 0 0.5] CT
0 1 1 RC
1 LJ
N
212.5 300.5 M
211.736 298.149 L
209.736 296.696 L
207.264 296.696 L
205.264 298.149 L
204.5 300.5 L
205.264 302.851 L
207.264 304.304 L
209.736 304.304 L
211.736 302.851 L
cp
S
GR
GS
[0.75 0 0 0.75 0 0.5] CT
0 1 1 RC
1 LJ
N
249.5 300.5 M
248.736 298.149 L
246.736 296.696 L
244.264 296.696 L
242.264 298.149 L
241.5 300.5 L
242.264 302.851 L
244.264 304.304 L
246.736 304.304 L
248.736 302.851 L
cp
S
GR
GS
[0.75 0 0 0.75 0 0.5] CT
0 1 1 RC
1 LJ
N
287.5 327.5 M
286.736 325.149 L
284.736 323.696 L
282.264 323.696 L
280.264 325.149 L
279.5 327.5 L
280.264 329.851 L
282.264 331.304 L
284.736 331.304 L
286.736 329.851 L
cp
S
GR
GS
[0.75 0 0 0.75 0 0.5] CT
0 1 1 RC
1 LJ
N
325.5 327.5 M
324.736 325.149 L
322.736 323.696 L
320.264 323.696 L
318.264 325.149 L
317.5 327.5 L
318.264 329.851 L
320.264 331.304 L
322.736 331.304 L
324.736 329.851 L
cp
S
GR
GS
[0.75 0 0 0.75 0 0.5] CT
0 1 1 RC
1 LJ
N
363.5 327.5 M
362.736 325.149 L
360.736 323.696 L
358.264 323.696 L
356.264 325.149 L
355.5 327.5 L
356.264 329.851 L
358.264 331.304 L
360.736 331.304 L
362.736 329.851 L
cp
S
GR
GS
[0.75 0 0 0.75 0 0.5] CT
0 1 1 RC
1 LJ
N
401.5 327.5 M
400.736 325.149 L
398.736 323.696 L
396.264 323.696 L
394.264 325.149 L
393.5 327.5 L
394.264 329.851 L
396.264 331.304 L
398.736 331.304 L
400.736 329.851 L
cp
S
GR
GS
[0.75 0 0 0.75 0 0.5] CT
1 0 1 RC
1 LJ
0.667 LW
N
57 202.295 M
94.778 170.035 L
132.556 327.098 L
170.333 344.851 L
208.111 367.74 L
245.889 367.74 L
283.667 367.74 L
321.444 367.74 L
359.222 367.74 L
397 367.74 L
S
GR
GS
[0.75 0 0 0.75 0 0.5] CT
1 0 1 RC
1 LJ
N
61.5 202.5 M
60.736 200.149 L
58.736 198.696 L
56.264 198.696 L
54.264 200.149 L
53.5 202.5 L
54.264 204.851 L
56.264 206.304 L
58.736 206.304 L
60.736 204.851 L
cp
S
GR
GS
[0.75 0 0 0.75 0 0.5] CT
1 0 1 RC
1 LJ
N
98.5 170.5 M
97.736 168.149 L
95.736 166.696 L
93.264 166.696 L
91.264 168.149 L
90.5 170.5 L
91.264 172.851 L
93.264 174.304 L
95.736 174.304 L
97.736 172.851 L
cp
S
GR
GS
[0.75 0 0 0.75 0 0.5] CT
1 0 1 RC
1 LJ
N
136.5 327.5 M
135.736 325.149 L
133.736 323.696 L
131.264 323.696 L
129.264 325.149 L
128.5 327.5 L
129.264 329.851 L
131.264 331.304 L
133.736 331.304 L
135.736 329.851 L
cp
S
GR
GS
[0.75 0 0 0.75 0 0.5] CT
1 0 1 RC
1 LJ
N
174.5 344.5 M
173.736 342.149 L
171.736 340.696 L
169.264 340.696 L
167.264 342.149 L
166.5 344.5 L
167.264 346.851 L
169.264 348.304 L
171.736 348.304 L
173.736 346.851 L
cp
S
GR
GS
[0.75 0 0 0.75 0 0.5] CT
1 0 1 RC
1 LJ
N
212.5 367.5 M
211.736 365.149 L
209.736 363.696 L
207.264 363.696 L
205.264 365.149 L
204.5 367.5 L
205.264 369.851 L
207.264 371.304 L
209.736 371.304 L
211.736 369.851 L
cp
S
GR
GS
[0.75 0 0 0.75 0 0.5] CT
1 0 1 RC
1 LJ
N
249.5 367.5 M
248.736 365.149 L
246.736 363.696 L
244.264 363.696 L
242.264 365.149 L
241.5 367.5 L
242.264 369.851 L
244.264 371.304 L
246.736 371.304 L
248.736 369.851 L
cp
S
GR
GS
[0.75 0 0 0.75 0 0.5] CT
1 0 1 RC
1 LJ
N
287.5 367.5 M
286.736 365.149 L
284.736 363.696 L
282.264 363.696 L
280.264 365.149 L
279.5 367.5 L
280.264 369.851 L
282.264 371.304 L
284.736 371.304 L
286.736 369.851 L
cp
S
GR
GS
[0.75 0 0 0.75 0 0.5] CT
1 0 1 RC
1 LJ
N
325.5 367.5 M
324.736 365.149 L
322.736 363.696 L
320.264 363.696 L
318.264 365.149 L
317.5 367.5 L
318.264 369.851 L
320.264 371.304 L
322.736 371.304 L
324.736 369.851 L
cp
S
GR
GS
[0.75 0 0 0.75 0 0.5] CT
1 0 1 RC
1 LJ
N
363.5 367.5 M
362.736 365.149 L
360.736 363.696 L
358.264 363.696 L
356.264 365.149 L
355.5 367.5 L
356.264 369.851 L
358.264 371.304 L
360.736 371.304 L
362.736 369.851 L
cp
S
GR
GS
[0.75 0 0 0.75 0 0.5] CT
1 0 1 RC
1 LJ
N
401.5 367.5 M
400.736 365.149 L
398.736 363.696 L
396.264 363.696 L
394.264 365.149 L
393.5 367.5 L
394.264 369.851 L
396.264 371.304 L
398.736 371.304 L
400.736 369.851 L
cp
S
GR
GS
[0.75 0 0 0.75 0 0.5] CT
1 LJ
0.667 LW
N
57 192.924 M
94.778 170.035 L
132.556 130.729 L
170.333 121.809 L
208.111 101.68 L
245.889 81.893 L
283.667 72.279 L
321.444 72.279 L
359.222 72.279 L
397 72.279 L
S
GR
GS
[0.75 0 0 0.75 0 0.5] CT
1 LJ
N
61.5 192.5 M
60.736 190.149 L
58.736 188.696 L
56.264 188.696 L
54.264 190.149 L
53.5 192.5 L
54.264 194.851 L
56.264 196.304 L
58.736 196.304 L
60.736 194.851 L
cp
S
GR
GS
[0.75 0 0 0.75 0 0.5] CT
1 LJ
N
98.5 170.5 M
97.736 168.149 L
95.736 166.696 L
93.264 166.696 L
91.264 168.149 L
90.5 170.5 L
91.264 172.851 L
93.264 174.304 L
95.736 174.304 L
97.736 172.851 L
cp
S
GR
GS
[0.75 0 0 0.75 0 0.5] CT
1 LJ
N
136.5 130.5 M
135.736 128.149 L
133.736 126.696 L
131.264 126.696 L
129.264 128.149 L
128.5 130.5 L
129.264 132.851 L
131.264 134.304 L
133.736 134.304 L
135.736 132.851 L
cp
S
GR
GS
[0.75 0 0 0.75 0 0.5] CT
1 LJ
N
174.5 121.5 M
173.736 119.149 L
171.736 117.696 L
169.264 117.696 L
167.264 119.149 L
166.5 121.5 L
167.264 123.851 L
169.264 125.304 L
171.736 125.304 L
173.736 123.851 L
cp
S
GR
GS
[0.75 0 0 0.75 0 0.5] CT
1 LJ
N
212.5 101.5 M
211.736 99.149 L
209.736 97.696 L
207.264 97.696 L
205.264 99.149 L
204.5 101.5 L
205.264 103.851 L
207.264 105.304 L
209.736 105.304 L
211.736 103.851 L
cp
S
GR
GS
[0.75 0 0 0.75 0 0.5] CT
1 LJ
N
249.5 81.5 M
248.736 79.149 L
246.736 77.696 L
244.264 77.696 L
242.264 79.149 L
241.5 81.5 L
242.264 83.851 L
244.264 85.304 L
246.736 85.304 L
248.736 83.851 L
cp
S
GR
GS
[0.75 0 0 0.75 0 0.5] CT
1 LJ
N
287.5 72.5 M
286.736 70.149 L
284.736 68.696 L
282.264 68.696 L
280.264 70.149 L
279.5 72.5 L
280.264 74.851 L
282.264 76.304 L
284.736 76.304 L
286.736 74.851 L
cp
S
GR
GS
[0.75 0 0 0.75 0 0.5] CT
1 LJ
N
325.5 72.5 M
324.736 70.149 L
322.736 68.696 L
320.264 68.696 L
318.264 70.149 L
317.5 72.5 L
318.264 74.851 L
320.264 76.304 L
322.736 76.304 L
324.736 74.851 L
cp
S
GR
GS
[0.75 0 0 0.75 0 0.5] CT
1 LJ
N
363.5 72.5 M
362.736 70.149 L
360.736 68.696 L
358.264 68.696 L
356.264 70.149 L
355.5 72.5 L
356.264 74.851 L
358.264 76.304 L
360.736 76.304 L
362.736 74.851 L
cp
S
GR
GS
[0.75 0 0 0.75 0 0.5] CT
1 LJ
N
401.5 72.5 M
400.736 70.149 L
398.736 68.696 L
396.264 68.696 L
394.264 70.149 L
393.5 72.5 L
394.264 74.851 L
396.264 76.304 L
398.736 76.304 L
400.736 74.851 L
cp
S
GR
GS
[0.75 0 0 0.75 0 0.5] CT
0 0 1 RC
[8 3 2 3] 0 setdash
2 LJ
0.667 LW
N
57 229.731 M
94.778 165.733 L
132.556 128.077 L
170.333 121.809 L
208.111 104.539 L
245.889 91.173 L
283.667 74.91 L
321.444 66.661 L
359.222 66.06 L
397 66.06 L
S
GR
GS
[0.75 0 0 0.75 0 0.5] CT
0 0 1 RC
10.0 ML
N
57.5 234.832 M
61.5 229.5 L
57.5 224.168 L
53.5 229.5 L
cp
S
GR
GS
[0.75 0 0 0.75 0 0.5] CT
0 0 1 RC
10.0 ML
N
94.5 170.832 M
98.5 165.5 L
94.5 160.168 L
90.5 165.5 L
cp
S
GR
GS
[0.75 0 0 0.75 0 0.5] CT
0 0 1 RC
10.0 ML
N
132.5 133.832 M
136.5 128.5 L
132.5 123.168 L
128.5 128.5 L
cp
S
GR
GS
[0.75 0 0 0.75 0 0.5] CT
0 0 1 RC
10.0 ML
N
170.5 126.832 M
174.5 121.5 L
170.5 116.168 L
166.5 121.5 L
cp
S
GR
GS
[0.75 0 0 0.75 0 0.5] CT
0 0 1 RC
10.0 ML
N
208.5 109.832 M
212.5 104.5 L
208.5 99.168 L
204.5 104.5 L
cp
S
GR
GS
[0.75 0 0 0.75 0 0.5] CT
0 0 1 RC
10.0 ML
N
245.5 96.832 M
249.5 91.5 L
245.5 86.168 L
241.5 91.5 L
cp
S
GR
GS
[0.75 0 0 0.75 0 0.5] CT
0 0 1 RC
10.0 ML
N
283.5 79.832 M
287.5 74.5 L
283.5 69.168 L
279.5 74.5 L
cp
S
GR
GS
[0.75 0 0 0.75 0 0.5] CT
0 0 1 RC
10.0 ML
N
321.5 71.832 M
325.5 66.5 L
321.5 61.168 L
317.5 66.5 L
cp
S
GR
GS
[0.75 0 0 0.75 0 0.5] CT
0 0 1 RC
10.0 ML
N
359.5 71.832 M
363.5 66.5 L
359.5 61.168 L
355.5 66.5 L
cp
S
GR
GS
[0.75 0 0 0.75 0 0.5] CT
0 0 1 RC
10.0 ML
N
397.5 71.832 M
401.5 66.5 L
397.5 61.168 L
393.5 66.5 L
cp
S
GR
GS
[0.75 0 0 0.75 0 0.5] CT
0 1 0 RC
[8 3 2 3] 0 setdash
2 LJ
0.667 LW
N
57 327.098 M
94.778 327.098 L
132.556 327.098 L
170.333 327.098 L
208.111 327.098 L
245.889 327.098 L
283.667 327.098 L
321.444 300.327 L
359.222 300.327 L
397 300.327 L
S
GR
GS
[0.75 0 0 0.75 0 0.5] CT
0 1 0 RC
10.0 ML
N
57.5 332.832 M
61.5 327.5 L
57.5 322.168 L
53.5 327.5 L
cp
S
GR
GS
[0.75 0 0 0.75 0 0.5] CT
0 1 0 RC
10.0 ML
N
94.5 332.832 M
98.5 327.5 L
94.5 322.168 L
90.5 327.5 L
cp
S
GR
GS
[0.75 0 0 0.75 0 0.5] CT
0 1 0 RC
10.0 ML
N
132.5 332.832 M
136.5 327.5 L
132.5 322.168 L
128.5 327.5 L
cp
S
GR
GS
[0.75 0 0 0.75 0 0.5] CT
0 1 0 RC
10.0 ML
N
170.5 332.832 M
174.5 327.5 L
170.5 322.168 L
166.5 327.5 L
cp
S
GR
GS
[0.75 0 0 0.75 0 0.5] CT
0 1 0 RC
10.0 ML
N
208.5 332.832 M
212.5 327.5 L
208.5 322.168 L
204.5 327.5 L
cp
S
GR
GS
[0.75 0 0 0.75 0 0.5] CT
0 1 0 RC
10.0 ML
N
245.5 332.832 M
249.5 327.5 L
245.5 322.168 L
241.5 327.5 L
cp
S
GR
GS
[0.75 0 0 0.75 0 0.5] CT
0 1 0 RC
10.0 ML
N
283.5 332.832 M
287.5 327.5 L
283.5 322.168 L
279.5 327.5 L
cp
S
GR
GS
[0.75 0 0 0.75 0 0.5] CT
0 1 0 RC
10.0 ML
N
321.5 305.832 M
325.5 300.5 L
321.5 295.168 L
317.5 300.5 L
cp
S
GR
GS
[0.75 0 0 0.75 0 0.5] CT
0 1 0 RC
10.0 ML
N
359.5 305.832 M
363.5 300.5 L
359.5 295.168 L
355.5 300.5 L
cp
S
GR
GS
[0.75 0 0 0.75 0 0.5] CT
0 1 0 RC
10.0 ML
N
397.5 305.832 M
401.5 300.5 L
397.5 295.168 L
393.5 300.5 L
cp
S
GR
GS
[0.75 0 0 0.75 0 0.5] CT
1 0 0 RC
[8 3 2 3] 0 setdash
2 LJ
0.667 LW
N
57 229.731 M
94.778 187.238 L
132.556 159.687 L
170.333 139.262 L
208.111 125.51 L
245.889 110.585 L
283.667 99.83 L
321.444 83.367 L
359.222 76.258 L
397 69.109 L
S
GR
GS
[0.75 0 0 0.75 0 0.5] CT
1 0 0 RC
10.0 ML
N
57.5 234.832 M
61.5 229.5 L
57.5 224.168 L
53.5 229.5 L
cp
S
GR
GS
[0.75 0 0 0.75 0 0.5] CT
1 0 0 RC
10.0 ML
N
94.5 192.832 M
98.5 187.5 L
94.5 182.168 L
90.5 187.5 L
cp
S
GR
GS
[0.75 0 0 0.75 0 0.5] CT
1 0 0 RC
10.0 ML
N
132.5 164.832 M
136.5 159.5 L
132.5 154.168 L
128.5 159.5 L
cp
S
GR
GS
[0.75 0 0 0.75 0 0.5] CT
1 0 0 RC
10.0 ML
N
170.5 144.832 M
174.5 139.5 L
170.5 134.168 L
166.5 139.5 L
cp
S
GR
GS
[0.75 0 0 0.75 0 0.5] CT
1 0 0 RC
10.0 ML
N
208.5 130.832 M
212.5 125.5 L
208.5 120.168 L
204.5 125.5 L
cp
S
GR
GS
[0.75 0 0 0.75 0 0.5] CT
1 0 0 RC
10.0 ML
N
245.5 115.832 M
249.5 110.5 L
245.5 105.168 L
241.5 110.5 L
cp
S
GR
GS
[0.75 0 0 0.75 0 0.5] CT
1 0 0 RC
10.0 ML
N
283.5 104.832 M
287.5 99.5 L
283.5 94.168 L
279.5 99.5 L
cp
S
GR
GS
[0.75 0 0 0.75 0 0.5] CT
1 0 0 RC
10.0 ML
N
321.5 88.832 M
325.5 83.5 L
321.5 78.168 L
317.5 83.5 L
cp
S
GR
GS
[0.75 0 0 0.75 0 0.5] CT
1 0 0 RC
10.0 ML
N
359.5 81.832 M
363.5 76.5 L
359.5 71.168 L
355.5 76.5 L
cp
S
GR
GS
[0.75 0 0 0.75 0 0.5] CT
1 0 0 RC
10.0 ML
N
397.5 74.832 M
401.5 69.5 L
397.5 64.168 L
393.5 69.5 L
cp
S
GR
GS
[0.75 0 0 0.75 0 0.5] CT
0 1 1 RC
[8 3 2 3] 0 setdash
2 LJ
0.667 LW
N
57 300.327 M
94.778 289.703 L
132.556 280.332 L
170.333 280.332 L
208.111 271.949 L
245.889 264.366 L
283.667 257.443 L
321.444 251.075 L
359.222 245.179 L
397 245.179 L
S
GR
GS
[0.75 0 0 0.75 0 0.5] CT
0 1 1 RC
10.0 ML
N
57.5 305.832 M
61.5 300.5 L
57.5 295.168 L
53.5 300.5 L
cp
S
GR
GS
[0.75 0 0 0.75 0 0.5] CT
0 1 1 RC
10.0 ML
N
94.5 294.832 M
98.5 289.5 L
94.5 284.168 L
90.5 289.5 L
cp
S
GR
GS
[0.75 0 0 0.75 0 0.5] CT
0 1 1 RC
10.0 ML
N
132.5 285.832 M
136.5 280.5 L
132.5 275.168 L
128.5 280.5 L
cp
S
GR
GS
[0.75 0 0 0.75 0 0.5] CT
0 1 1 RC
10.0 ML
N
170.5 285.832 M
174.5 280.5 L
170.5 275.168 L
166.5 280.5 L
cp
S
GR
GS
[0.75 0 0 0.75 0 0.5] CT
0 1 1 RC
10.0 ML
N
208.5 276.832 M
212.5 271.5 L
208.5 266.168 L
204.5 271.5 L
cp
S
GR
GS
[0.75 0 0 0.75 0 0.5] CT
0 1 1 RC
10.0 ML
N
245.5 269.832 M
249.5 264.5 L
245.5 259.168 L
241.5 264.5 L
cp
S
GR
GS
[0.75 0 0 0.75 0 0.5] CT
0 1 1 RC
10.0 ML
N
283.5 262.832 M
287.5 257.5 L
283.5 252.168 L
279.5 257.5 L
cp
S
GR
GS
[0.75 0 0 0.75 0 0.5] CT
0 1 1 RC
10.0 ML
N
321.5 256.832 M
325.5 251.5 L
321.5 246.168 L
317.5 251.5 L
cp
S
GR
GS
[0.75 0 0 0.75 0 0.5] CT
0 1 1 RC
10.0 ML
N
359.5 250.832 M
363.5 245.5 L
359.5 240.168 L
355.5 245.5 L
cp
S
GR
GS
[0.75 0 0 0.75 0 0.5] CT
0 1 1 RC
10.0 ML
N
397.5 250.832 M
401.5 245.5 L
397.5 240.168 L
393.5 245.5 L
cp
S
GR
GS
[0.75 0 0 0.75 0 0.5] CT
1 GC
N
419 192 M
419 34 L
528 34 L
528 192 L
cp
f
GR
GS
[0.75 0 0 0.75 342 33.10252] CT
/Helvetica 12 F
GS
[1 0 0 1 0 0] CT
0 4.5 moveto 
1 -1 scale
(Tmplsqr) t 
GR
GR
GS
[0.75 0 0 0.75 0 0.5] CT
0 0 1 RC
1 LJ
0.667 LW
N
423 43.47 M
453 43.47 L
S
GR
GS
[0.75 0 0 0.75 0 0.5] CT
0 0 1 RC
1 LJ
N
442.5 43.5 M
441.736 41.149 L
439.736 39.696 L
437.264 39.696 L
435.264 41.149 L
434.5 43.5 L
435.264 45.851 L
437.264 47.304 L
439.736 47.304 L
441.736 45.851 L
cp
S
GR
GS
[0.75 0 0 0.75 342 44.69085] CT
/Helvetica 12 F
GS
[1 0 0 1 0 0] CT
0 4.5 moveto 
1 -1 scale
(Tmplsmr) t 
GR
GR
GS
[0.75 0 0 0.75 0 0.5] CT
0 1 0 RC
1 LJ
0.667 LW
N
423 58.921 M
453 58.921 L
S
GR
GS
[0.75 0 0 0.75 0 0.5] CT
0 1 0 RC
1 LJ
N
442.5 58.5 M
441.736 56.149 L
439.736 54.696 L
437.264 54.696 L
435.264 56.149 L
434.5 58.5 L
435.264 60.851 L
437.264 62.304 L
439.736 62.304 L
441.736 60.851 L
cp
S
GR
GS
[0.75 0 0 0.75 342 56.27918] CT
/Helvetica 12 F
GS
[1 0 0 1 0 0] CT
0 4.5 moveto 
1 -1 scale
(Tmppcg) t 
GR
GR
GS
[0.75 0 0 0.75 0 0.5] CT
1 0 0 RC
1 LJ
0.667 LW
N
423 74.372 M
453 74.372 L
S
GR
GS
[0.75 0 0 0.75 0 0.5] CT
1 0 0 RC
1 LJ
N
442.5 74.5 M
441.736 72.149 L
439.736 70.696 L
437.264 70.696 L
435.264 72.149 L
434.5 74.5 L
435.264 76.851 L
437.264 78.304 L
439.736 78.304 L
441.736 76.851 L
cp
S
GR
GS
[0.75 0 0 0.75 342 67.86751] CT
/Helvetica 12 F
GS
[1 0 0 1 0 0] CT
0 4.5 moveto 
1 -1 scale
(Tmpminres) t 
GR
GR
GS
[0.75 0 0 0.75 0 0.5] CT
0 1 1 RC
1 LJ
0.667 LW
N
423 89.823 M
453 89.823 L
S
GR
GS
[0.75 0 0 0.75 0 0.5] CT
0 1 1 RC
1 LJ
N
442.5 89.5 M
441.736 87.149 L
439.736 85.696 L
437.264 85.696 L
435.264 87.149 L
434.5 89.5 L
435.264 91.851 L
437.264 93.304 L
439.736 93.304 L
441.736 91.851 L
cp
S
GR
GS
[0.75 0 0 0.75 342 79.45584] CT
/Helvetica 12 F
GS
[1 0 0 1 0 0] CT
0 4.5 moveto 
1 -1 scale
(Pnb) t 
GR
GR
GS
[0.75 0 0 0.75 0 0.5] CT
1 0 1 RC
1 LJ
0.667 LW
N
423 105.274 M
453 105.274 L
S
GR
GS
[0.75 0 0 0.75 0 0.5] CT
1 0 1 RC
1 LJ
N
442.5 105.5 M
441.736 103.149 L
439.736 101.696 L
437.264 101.696 L
435.264 103.149 L
434.5 105.5 L
435.264 107.851 L
437.264 109.304 L
439.736 109.304 L
441.736 107.851 L
cp
S
GR
GS
[0.75 0 0 0.75 342 91.04416] CT
/Helvetica 12 F
GS
[1 0 0 1 0 0] CT
0 4.5 moveto 
1 -1 scale
(Bb) t 
GR
GR
GS
[0.75 0 0 0.75 0 0.5] CT
1 LJ
0.667 LW
N
423 120.726 M
453 120.726 L
S
GR
GS
[0.75 0 0 0.75 0 0.5] CT
1 LJ
N
442.5 120.5 M
441.736 118.149 L
439.736 116.696 L
437.264 116.696 L
435.264 118.149 L
434.5 120.5 L
435.264 122.851 L
437.264 124.304 L
439.736 124.304 L
441.736 122.851 L
cp
S
GR
GS
[0.75 0 0 0.75 342 102.63249] CT
/Helvetica 12 F
GS
[1 0 0 1 0 0] CT
0 4.5 moveto 
1 -1 scale
(Spg) t 
GR
GR
GS
[0.75 0 0 0.75 0 0.5] CT
0 0 1 RC
[8 3 2 3] 0 setdash
2 LJ
0.667 LW
N
423 136.177 M
453 136.177 L
S
GR
GS
[0.75 0 0 0.75 0 0.5] CT
0 0 1 RC
10.0 ML
N
438.5 141.832 M
442.5 136.5 L
438.5 131.168 L
434.5 136.5 L
cp
S
GR
GS
[0.75 0 0 0.75 342 114.22082] CT
/Helvetica 12 F
GS
[1 0 0 1 0 0] CT
0 4.5 moveto 
1 -1 scale
(Pqn) t 
GR
GR
GS
[0.75 0 0 0.75 0 0.5] CT
0 1 0 RC
[8 3 2 3] 0 setdash
2 LJ
0.667 LW
N
423 151.628 M
453 151.628 L
S
GR
GS
[0.75 0 0 0.75 0 0.5] CT
0 1 0 RC
10.0 ML
N
438.5 156.832 M
442.5 151.5 L
438.5 146.168 L
434.5 151.5 L
cp
S
GR
GS
[0.75 0 0 0.75 342 125.80915] CT
/Helvetica 12 F
GS
[1 0 0 1 0 0] CT
0 4.5 moveto 
1 -1 scale
(Lbfgsb) t 
GR
GR
GS
[0.75 0 0 0.75 0 0.5] CT
1 0 0 RC
[8 3 2 3] 0 setdash
2 LJ
0.667 LW
N
423 167.079 M
453 167.079 L
S
GR
GS
[0.75 0 0 0.75 0 0.5] CT
1 0 0 RC
10.0 ML
N
438.5 172.832 M
442.5 167.5 L
438.5 162.168 L
434.5 167.5 L
cp
S
GR
GS
[0.75 0 0 0.75 342 137.39748] CT
/Helvetica 12 F
GS
[1 0 0 1 0 0] CT
0 4.5 moveto 
1 -1 scale
(Bcflash) t 
GR
GR
GS
[0.75 0 0 0.75 0 0.5] CT
0 1 1 RC
[8 3 2 3] 0 setdash
2 LJ
0.667 LW
N
423 182.53 M
453 182.53 L
S
GR
GS
[0.75 0 0 0.75 0 0.5] CT
0 1 1 RC
10.0 ML
N
438.5 187.832 M
442.5 182.5 L
438.5 177.168 L
434.5 182.5 L
cp
S
GR
GS
[0.75 0 0 0.75 0 0.5] CT
0.149 GC
10.0 ML
0.667 LW
N
419 192 M
419 34 L
528 34 L
528 192 L
cp
S
GR
%%Trailer
%%Pages: 1
%%EOF
