%!PS-Adobe-3.0 EPSF-3.0
%%Creator: (MATLAB, The Mathworks, Inc. Version 9.0.0.341360 \(R2016a\). Operating System: Linux)
%%Title: data/fact4logtoliter.eps
%%CreationDate: 2017-02-04T13:28:33
%%Pages: (atend)
%%BoundingBox:     6     6   397   317
%%LanguageLevel: 3
%%EndComments
%%BeginProlog
%%BeginResource: procset (Apache XML Graphics Std ProcSet) 1.2 0
%%Version: 1.2 0
%%Copyright: (Copyright 2001-2003,2010 The Apache Software Foundation. License terms: http://www.apache.org/licenses/LICENSE-2.0)
/bd{bind def}bind def
/ld{load def}bd
/GR/grestore ld
/M/moveto ld
/LJ/setlinejoin ld
/C/curveto ld
/f/fill ld
/LW/setlinewidth ld
/GC/setgray ld
/t/show ld
/N/newpath ld
/CT/concat ld
/cp/closepath ld
/S/stroke ld
/L/lineto ld
/CC/setcmykcolor ld
/A/ashow ld
/GS/gsave ld
/RC/setrgbcolor ld
/RM/rmoveto ld
/ML/setmiterlimit ld
/re {4 2 roll M
1 index 0 rlineto
0 exch rlineto
neg 0 rlineto
cp } bd
/_ctm matrix def
/_tm matrix def
/BT { _ctm currentmatrix pop matrix _tm copy pop 0 0 moveto } bd
/ET { _ctm setmatrix } bd
/iTm { _ctm setmatrix _tm concat } bd
/Tm { _tm astore pop iTm 0 0 moveto } bd
/ux 0.0 def
/uy 0.0 def
/F {
  /Tp exch def
  /Tf exch def
  Tf findfont Tp scalefont setfont
  /cf Tf def  /cs Tp def
} bd
/ULS {currentpoint /uy exch def /ux exch def} bd
/ULE {
  /Tcx currentpoint pop def
  gsave
  newpath
  cf findfont cs scalefont dup
  /FontMatrix get 0 get /Ts exch def /FontInfo get dup
  /UnderlinePosition get Ts mul /To exch def
  /UnderlineThickness get Ts mul /Tt exch def
  ux uy To add moveto  Tcx uy To add lineto
  Tt setlinewidth stroke
  grestore
} bd
/OLE {
  /Tcx currentpoint pop def
  gsave
  newpath
  cf findfont cs scalefont dup
  /FontMatrix get 0 get /Ts exch def /FontInfo get dup
  /UnderlinePosition get Ts mul /To exch def
  /UnderlineThickness get Ts mul /Tt exch def
  ux uy To add cs add moveto Tcx uy To add cs add lineto
  Tt setlinewidth stroke
  grestore
} bd
/SOE {
  /Tcx currentpoint pop def
  gsave
  newpath
  cf findfont cs scalefont dup
  /FontMatrix get 0 get /Ts exch def /FontInfo get dup
  /UnderlinePosition get Ts mul /To exch def
  /UnderlineThickness get Ts mul /Tt exch def
  ux uy To add cs 10 mul 26 idiv add moveto Tcx uy To add cs 10 mul 26 idiv add lineto
  Tt setlinewidth stroke
  grestore
} bd
/QT {
/Y22 exch store
/X22 exch store
/Y21 exch store
/X21 exch store
currentpoint
/Y21 load 2 mul add 3 div exch
/X21 load 2 mul add 3 div exch
/X21 load 2 mul /X22 load add 3 div
/Y21 load 2 mul /Y22 load add 3 div
/X22 load /Y22 load curveto
} bd
/SSPD {
dup length /d exch dict def
{
/v exch def
/k exch def
currentpagedevice k known {
/cpdv currentpagedevice k get def
v cpdv ne {
/upd false def
/nullv v type /nulltype eq def
/nullcpdv cpdv type /nulltype eq def
nullv nullcpdv or
{
/upd true def
} {
/sametype v type cpdv type eq def
sametype {
v type /arraytype eq {
/vlen v length def
/cpdvlen cpdv length def
vlen cpdvlen eq {
0 1 vlen 1 sub {
/i exch def
/obj v i get def
/cpdobj cpdv i get def
obj cpdobj ne {
/upd true def
exit
} if
} for
} {
/upd true def
} ifelse
} {
v type /dicttype eq {
v {
/dv exch def
/dk exch def
/cpddv cpdv dk get def
dv cpddv ne {
/upd true def
exit
} if
} forall
} {
/upd true def
} ifelse
} ifelse
} if
} ifelse
upd true eq {
d k v put
} if
} if
} if
} forall
d length 0 gt {
d setpagedevice
} if
} bd
%%EndResource
%%BeginResource: procset (Apache XML Graphics EPS ProcSet) 1.0 0
%%Version: 1.0 0
%%Copyright: (Copyright 2002-2003 The Apache Software Foundation. License terms: http://www.apache.org/licenses/LICENSE-2.0)
/BeginEPSF { %def
/b4_Inc_state save def         % Save state for cleanup
/dict_count countdictstack def % Count objects on dict stack
/op_count count 1 sub def      % Count objects on operand stack
userdict begin                 % Push userdict on dict stack
/showpage { } def              % Redefine showpage, { } = null proc
0 setgray 0 setlinecap         % Prepare graphics state
1 setlinewidth 0 setlinejoin
10 setmiterlimit [ ] 0 setdash newpath
/languagelevel where           % If level not equal to 1 then
{pop languagelevel             % set strokeadjust and
1 ne                           % overprint to their defaults.
{false setstrokeadjust false setoverprint
} if
} if
} bd
/EndEPSF { %def
count op_count sub {pop} repeat            % Clean up stacks
countdictstack dict_count sub {end} repeat
b4_Inc_state restore
} bd
%%EndResource
%FOPBeginFontDict
%%IncludeResource: font Courier-Bold
%%IncludeResource: font Helvetica
%%IncludeResource: font Courier-BoldOblique
%%IncludeResource: font Courier-Oblique
%%IncludeResource: font Times-Roman
%%IncludeResource: font Helvetica-BoldOblique
%%IncludeResource: font Helvetica-Bold
%%IncludeResource: font Helvetica-Oblique
%%IncludeResource: font Times-BoldItalic
%%IncludeResource: font Courier
%%IncludeResource: font Times-Italic
%%IncludeResource: font Times-Bold
%%IncludeResource: font Symbol
%%IncludeResource: font ZapfDingbats
%FOPEndFontDict
%%BeginResource: encoding WinAnsiEncoding
/WinAnsiEncoding [
/.notdef /.notdef /.notdef /.notdef /.notdef
/.notdef /.notdef /.notdef /.notdef /.notdef
/.notdef /.notdef /.notdef /.notdef /.notdef
/.notdef /.notdef /.notdef /.notdef /.notdef
/.notdef /.notdef /.notdef /.notdef /.notdef
/.notdef /.notdef /.notdef /.notdef /.notdef
/.notdef /.notdef /space /exclam /quotedbl
/numbersign /dollar /percent /ampersand /quotesingle
/parenleft /parenright /asterisk /plus /comma
/hyphen /period /slash /zero /one
/two /three /four /five /six
/seven /eight /nine /colon /semicolon
/less /equal /greater /question /at
/A /B /C /D /E
/F /G /H /I /J
/K /L /M /N /O
/P /Q /R /S /T
/U /V /W /X /Y
/Z /bracketleft /backslash /bracketright /asciicircum
/underscore /quoteleft /a /b /c
/d /e /f /g /h
/i /j /k /l /m
/n /o /p /q /r
/s /t /u /v /w
/x /y /z /braceleft /bar
/braceright /asciitilde /bullet /Euro /bullet
/quotesinglbase /florin /quotedblbase /ellipsis /dagger
/daggerdbl /circumflex /perthousand /Scaron /guilsinglleft
/OE /bullet /Zcaron /bullet /bullet
/quoteleft /quoteright /quotedblleft /quotedblright /bullet
/endash /emdash /asciitilde /trademark /scaron
/guilsinglright /oe /bullet /zcaron /Ydieresis
/space /exclamdown /cent /sterling /currency
/yen /brokenbar /section /dieresis /copyright
/ordfeminine /guillemotleft /logicalnot /sfthyphen /registered
/macron /degree /plusminus /twosuperior /threesuperior
/acute /mu /paragraph /middot /cedilla
/onesuperior /ordmasculine /guillemotright /onequarter /onehalf
/threequarters /questiondown /Agrave /Aacute /Acircumflex
/Atilde /Adieresis /Aring /AE /Ccedilla
/Egrave /Eacute /Ecircumflex /Edieresis /Igrave
/Iacute /Icircumflex /Idieresis /Eth /Ntilde
/Ograve /Oacute /Ocircumflex /Otilde /Odieresis
/multiply /Oslash /Ugrave /Uacute /Ucircumflex
/Udieresis /Yacute /Thorn /germandbls /agrave
/aacute /acircumflex /atilde /adieresis /aring
/ae /ccedilla /egrave /eacute /ecircumflex
/edieresis /igrave /iacute /icircumflex /idieresis
/eth /ntilde /ograve /oacute /ocircumflex
/otilde /odieresis /divide /oslash /ugrave
/uacute /ucircumflex /udieresis /yacute /thorn
/ydieresis
] def
%%EndResource
%FOPBeginFontReencode
/Courier-Bold findfont
dup length dict begin
  {1 index /FID ne {def} {pop pop} ifelse} forall
  /Encoding WinAnsiEncoding def
  currentdict
end
/Courier-Bold exch definefont pop
/Helvetica findfont
dup length dict begin
  {1 index /FID ne {def} {pop pop} ifelse} forall
  /Encoding WinAnsiEncoding def
  currentdict
end
/Helvetica exch definefont pop
/Courier-BoldOblique findfont
dup length dict begin
  {1 index /FID ne {def} {pop pop} ifelse} forall
  /Encoding WinAnsiEncoding def
  currentdict
end
/Courier-BoldOblique exch definefont pop
/Courier-Oblique findfont
dup length dict begin
  {1 index /FID ne {def} {pop pop} ifelse} forall
  /Encoding WinAnsiEncoding def
  currentdict
end
/Courier-Oblique exch definefont pop
/Times-Roman findfont
dup length dict begin
  {1 index /FID ne {def} {pop pop} ifelse} forall
  /Encoding WinAnsiEncoding def
  currentdict
end
/Times-Roman exch definefont pop
/Helvetica-BoldOblique findfont
dup length dict begin
  {1 index /FID ne {def} {pop pop} ifelse} forall
  /Encoding WinAnsiEncoding def
  currentdict
end
/Helvetica-BoldOblique exch definefont pop
/Helvetica-Bold findfont
dup length dict begin
  {1 index /FID ne {def} {pop pop} ifelse} forall
  /Encoding WinAnsiEncoding def
  currentdict
end
/Helvetica-Bold exch definefont pop
/Helvetica-Oblique findfont
dup length dict begin
  {1 index /FID ne {def} {pop pop} ifelse} forall
  /Encoding WinAnsiEncoding def
  currentdict
end
/Helvetica-Oblique exch definefont pop
/Times-BoldItalic findfont
dup length dict begin
  {1 index /FID ne {def} {pop pop} ifelse} forall
  /Encoding WinAnsiEncoding def
  currentdict
end
/Times-BoldItalic exch definefont pop
/Courier findfont
dup length dict begin
  {1 index /FID ne {def} {pop pop} ifelse} forall
  /Encoding WinAnsiEncoding def
  currentdict
end
/Courier exch definefont pop
/Times-Italic findfont
dup length dict begin
  {1 index /FID ne {def} {pop pop} ifelse} forall
  /Encoding WinAnsiEncoding def
  currentdict
end
/Times-Italic exch definefont pop
/Times-Bold findfont
dup length dict begin
  {1 index /FID ne {def} {pop pop} ifelse} forall
  /Encoding WinAnsiEncoding def
  currentdict
end
/Times-Bold exch definefont pop
%FOPEndFontReencode
%%EndProlog
%%Page: 1 1
%%PageBoundingBox: 0 0 428 338
%%BeginPageSetup
[1 0 0 -1 0 338] CT
%%EndPageSetup
GS
[0.75 0 0 0.75 0 0.5] CT
N
0 0 M
570 0 L
570 450 L
0 450 L
0 0 L
cp
clip
1 GC
N
0 0 570 450 re
f
GR
GS
[0.75 0 0 0.75 0 0.5] CT
1 GC
N
0 0 570 450 re
f
GR
GS
[0.75 0 0 0.75 0 0.5] CT
1 GC
N
57 400 M
397 400 L
397 34 L
57 34 L
cp
f
GR
GS
[0.75 0 0 0.75 0 0.5] CT
0.149 GC
2 setlinecap
1 LJ
0.667 LW
N
57 400 M
397 400 L
S
GR
GS
[0.75 0 0 0.75 0 0.5] CT
0.149 GC
2 setlinecap
1 LJ
0.667 LW
N
57 34 M
397 34 L
S
GR
GS
[0.75 0 0 0.75 0 0.5] CT
0.149 GC
2 setlinecap
1 LJ
0.667 LW
N
94.778 400 M
94.778 396.34 L
S
GR
GS
[0.75 0 0 0.75 0 0.5] CT
0.149 GC
2 setlinecap
1 LJ
0.667 LW
N
170.333 400 M
170.333 396.34 L
S
GR
GS
[0.75 0 0 0.75 0 0.5] CT
0.149 GC
2 setlinecap
1 LJ
0.667 LW
N
245.889 400 M
245.889 396.34 L
S
GR
GS
[0.75 0 0 0.75 0 0.5] CT
0.149 GC
2 setlinecap
1 LJ
0.667 LW
N
321.444 400 M
321.444 396.34 L
S
GR
GS
[0.75 0 0 0.75 0 0.5] CT
0.149 GC
2 setlinecap
1 LJ
0.667 LW
N
397 400 M
397 396.34 L
S
GR
GS
[0.75 0 0 0.75 0 0.5] CT
0.149 GC
2 setlinecap
1 LJ
0.667 LW
N
94.778 34 M
94.778 37.66 L
S
GR
GS
[0.75 0 0 0.75 0 0.5] CT
0.149 GC
2 setlinecap
1 LJ
0.667 LW
N
170.333 34 M
170.333 37.66 L
S
GR
GS
[0.75 0 0 0.75 0 0.5] CT
0.149 GC
2 setlinecap
1 LJ
0.667 LW
N
245.889 34 M
245.889 37.66 L
S
GR
GS
[0.75 0 0 0.75 0 0.5] CT
0.149 GC
2 setlinecap
1 LJ
0.667 LW
N
321.444 34 M
321.444 37.66 L
S
GR
GS
[0.75 0 0 0.75 0 0.5] CT
0.149 GC
2 setlinecap
1 LJ
0.667 LW
N
397 34 M
397 37.66 L
S
GR
GS
[0.75 0 0 0.75 71.08333 304.50001] CT
0.149 GC
/Helvetica 13.333 F
GS
[1 0 0 1 0 0] CT
-4.5 13 moveto 
1 -1 scale
(2) t 
GR
GR
GS
[0.75 0 0 0.75 127.75001 304.50001] CT
0.149 GC
/Helvetica 13.333 F
GS
[1 0 0 1 0 0] CT
-4.5 13 moveto 
1 -1 scale
(4) t 
GR
GR
GS
[0.75 0 0 0.75 184.41668 304.50001] CT
0.149 GC
/Helvetica 13.333 F
GS
[1 0 0 1 0 0] CT
-4.5 13 moveto 
1 -1 scale
(6) t 
GR
GR
GS
[0.75 0 0 0.75 241.08334 304.50001] CT
0.149 GC
/Helvetica 13.333 F
GS
[1 0 0 1 0 0] CT
-4.5 13 moveto 
1 -1 scale
(8) t 
GR
GR
GS
[0.75 0 0 0.75 297.75 304.50001] CT
0.149 GC
/Helvetica 13.333 F
GS
[1 0 0 1 0 0] CT
-8.5 13 moveto 
1 -1 scale
(10) t 
GR
GR
GS
[0.75 0 0 0.75 170.25013 318.24999] CT
0.149 GC
/Helvetica 14.667 F
GS
[1 0 0 1 0 0] CT
-30 14 moveto 
1 -1 scale
(-log\(tol\)) t 
GR
GR
GS
[0.75 0 0 0.75 0 0.5] CT
0.149 GC
2 setlinecap
1 LJ
0.667 LW
N
57 400 M
57 34 L
S
GR
GS
[0.75 0 0 0.75 0 0.5] CT
0.149 GC
2 setlinecap
1 LJ
0.667 LW
N
397 400 M
397 34 L
S
GR
GS
[0.75 0 0 0.75 0 0.5] CT
0.149 GC
2 setlinecap
1 LJ
0.667 LW
N
57 400 M
60.66 400 L
S
GR
GS
[0.75 0 0 0.75 0 0.5] CT
0.149 GC
2 setlinecap
1 LJ
0.667 LW
N
57 226.311 M
60.66 226.311 L
S
GR
GS
[0.75 0 0 0.75 0 0.5] CT
0.149 GC
2 setlinecap
1 LJ
0.667 LW
N
57 52.621 M
60.66 52.621 L
S
GR
GS
[0.75 0 0 0.75 0 0.5] CT
0.149 GC
2 setlinecap
1 LJ
0.667 LW
N
397 400 M
393.34 400 L
S
GR
GS
[0.75 0 0 0.75 0 0.5] CT
0.149 GC
2 setlinecap
1 LJ
0.667 LW
N
397 226.311 M
393.34 226.311 L
S
GR
GS
[0.75 0 0 0.75 0 0.5] CT
0.149 GC
2 setlinecap
1 LJ
0.667 LW
N
397 52.621 M
393.34 52.621 L
S
GR
GS
[0.75 0 0 0.75 0 0.5] CT
0.149 GC
2 setlinecap
1 LJ
0.667 LW
N
57 347.714 M
58.83 347.714 L
S
GR
GS
[0.75 0 0 0.75 0 0.5] CT
0.149 GC
2 setlinecap
1 LJ
0.667 LW
N
57 317.129 M
58.83 317.129 L
S
GR
GS
[0.75 0 0 0.75 0 0.5] CT
0.149 GC
2 setlinecap
1 LJ
0.667 LW
N
57 295.429 M
58.83 295.429 L
S
GR
GS
[0.75 0 0 0.75 0 0.5] CT
0.149 GC
2 setlinecap
1 LJ
0.667 LW
N
57 278.596 M
58.83 278.596 L
S
GR
GS
[0.75 0 0 0.75 0 0.5] CT
0.149 GC
2 setlinecap
1 LJ
0.667 LW
N
57 264.843 M
58.83 264.843 L
S
GR
GS
[0.75 0 0 0.75 0 0.5] CT
0.149 GC
2 setlinecap
1 LJ
0.667 LW
N
57 253.215 M
58.83 253.215 L
S
GR
GS
[0.75 0 0 0.75 0 0.5] CT
0.149 GC
2 setlinecap
1 LJ
0.667 LW
N
57 243.143 M
58.83 243.143 L
S
GR
GS
[0.75 0 0 0.75 0 0.5] CT
0.149 GC
2 setlinecap
1 LJ
0.667 LW
N
57 234.258 M
58.83 234.258 L
S
GR
GS
[0.75 0 0 0.75 0 0.5] CT
0.149 GC
2 setlinecap
1 LJ
0.667 LW
N
57 174.025 M
58.83 174.025 L
S
GR
GS
[0.75 0 0 0.75 0 0.5] CT
0.149 GC
2 setlinecap
1 LJ
0.667 LW
N
57 143.44 M
58.83 143.44 L
S
GR
GS
[0.75 0 0 0.75 0 0.5] CT
0.149 GC
2 setlinecap
1 LJ
0.667 LW
N
57 121.739 M
58.83 121.739 L
S
GR
GS
[0.75 0 0 0.75 0 0.5] CT
0.149 GC
2 setlinecap
1 LJ
0.667 LW
N
57 104.907 M
58.83 104.907 L
S
GR
GS
[0.75 0 0 0.75 0 0.5] CT
0.149 GC
2 setlinecap
1 LJ
0.667 LW
N
57 91.154 M
58.83 91.154 L
S
GR
GS
[0.75 0 0 0.75 0 0.5] CT
0.149 GC
2 setlinecap
1 LJ
0.667 LW
N
57 79.526 M
58.83 79.526 L
S
GR
GS
[0.75 0 0 0.75 0 0.5] CT
0.149 GC
2 setlinecap
1 LJ
0.667 LW
N
57 69.453 M
58.83 69.453 L
S
GR
GS
[0.75 0 0 0.75 0 0.5] CT
0.149 GC
2 setlinecap
1 LJ
0.667 LW
N
57 60.569 M
58.83 60.569 L
S
GR
GS
[0.75 0 0 0.75 0 0.5] CT
0.149 GC
2 setlinecap
1 LJ
0.667 LW
N
397 347.714 M
395.17 347.714 L
S
GR
GS
[0.75 0 0 0.75 0 0.5] CT
0.149 GC
2 setlinecap
1 LJ
0.667 LW
N
397 317.129 M
395.17 317.129 L
S
GR
GS
[0.75 0 0 0.75 0 0.5] CT
0.149 GC
2 setlinecap
1 LJ
0.667 LW
N
397 295.429 M
395.17 295.429 L
S
GR
GS
[0.75 0 0 0.75 0 0.5] CT
0.149 GC
2 setlinecap
1 LJ
0.667 LW
N
397 278.596 M
395.17 278.596 L
S
GR
GS
[0.75 0 0 0.75 0 0.5] CT
0.149 GC
2 setlinecap
1 LJ
0.667 LW
N
397 264.843 M
395.17 264.843 L
S
GR
GS
[0.75 0 0 0.75 0 0.5] CT
0.149 GC
2 setlinecap
1 LJ
0.667 LW
N
397 253.215 M
395.17 253.215 L
S
GR
GS
[0.75 0 0 0.75 0 0.5] CT
0.149 GC
2 setlinecap
1 LJ
0.667 LW
N
397 243.143 M
395.17 243.143 L
S
GR
GS
[0.75 0 0 0.75 0 0.5] CT
0.149 GC
2 setlinecap
1 LJ
0.667 LW
N
397 234.258 M
395.17 234.258 L
S
GR
GS
[0.75 0 0 0.75 0 0.5] CT
0.149 GC
2 setlinecap
1 LJ
0.667 LW
N
397 174.025 M
395.17 174.025 L
S
GR
GS
[0.75 0 0 0.75 0 0.5] CT
0.149 GC
2 setlinecap
1 LJ
0.667 LW
N
397 143.44 M
395.17 143.44 L
S
GR
GS
[0.75 0 0 0.75 0 0.5] CT
0.149 GC
2 setlinecap
1 LJ
0.667 LW
N
397 121.739 M
395.17 121.739 L
S
GR
GS
[0.75 0 0 0.75 0 0.5] CT
0.149 GC
2 setlinecap
1 LJ
0.667 LW
N
397 104.907 M
395.17 104.907 L
S
GR
GS
[0.75 0 0 0.75 0 0.5] CT
0.149 GC
2 setlinecap
1 LJ
0.667 LW
N
397 91.154 M
395.17 91.154 L
S
GR
GS
[0.75 0 0 0.75 0 0.5] CT
0.149 GC
2 setlinecap
1 LJ
0.667 LW
N
397 79.526 M
395.17 79.526 L
S
GR
GS
[0.75 0 0 0.75 0 0.5] CT
0.149 GC
2 setlinecap
1 LJ
0.667 LW
N
397 69.453 M
395.17 69.453 L
S
GR
GS
[0.75 0 0 0.75 0 0.5] CT
0.149 GC
2 setlinecap
1 LJ
0.667 LW
N
397 60.569 M
395.17 60.569 L
S
GR
GS
[0.75 0 0 0.75 21 305.75] CT
0.149 GC
/Helvetica 13.333 F
GS
[1 0 0 1 0 0] CT
0 0 moveto 
1 -1 scale
(10) t 
GR
GR
GS
[0.75 0 0 0.75 33.75 301.25] CT
0.149 GC
/Helvetica 10.667 F
GS
[1 0 0 1 0 0] CT
0 0 moveto 
1 -1 scale
(0) t 
GR
GR
GS
[0.75 0 0 0.75 21 175.25] CT
0.149 GC
/Helvetica 13.333 F
GS
[1 0 0 1 0 0] CT
0 0 moveto 
1 -1 scale
(10) t 
GR
GR
GS
[0.75 0 0 0.75 33.75 170.75] CT
0.149 GC
/Helvetica 10.667 F
GS
[1 0 0 1 0 0] CT
0 0 moveto 
1 -1 scale
(1) t 
GR
GR
GS
[0.75 0 0 0.75 21 45.5] CT
0.149 GC
/Helvetica 13.333 F
GS
[1 0 0 1 0 0] CT
0 0 moveto 
1 -1 scale
(10) t 
GR
GR
GS
[0.75 0 0 0.75 33.75 41] CT
0.149 GC
/Helvetica 10.667 F
GS
[1 0 0 1 0 0] CT
0 0 moveto 
1 -1 scale
(2) t 
GR
GR
GS
[0 -0.75 0.75 0 17.75 163.24987] CT
0.149 GC
/Helvetica 14.667 F
GS
[1 0 0 1 0 0] CT
-19.5 -4 moveto 
1 -1 scale
(#iter) t 
GR
GR
GS
[0.75 0 0 0.75 0 0.5] CT
0 0 1 RC
1 LJ
0.667 LW
N
57 400 M
94.778 400 L
132.556 317.129 L
170.333 317.129 L
208.111 317.129 L
245.889 317.129 L
283.667 317.129 L
321.444 317.129 L
359.222 317.129 L
397 317.129 L
S
GR
GS
[0.75 0 0 0.75 0 0.5] CT
0 0 1 RC
1 LJ
N
61.5 399.5 M
60.736 397.149 L
58.736 395.696 L
56.264 395.696 L
54.264 397.149 L
53.5 399.5 L
54.264 401.851 L
56.264 403.304 L
58.736 403.304 L
60.736 401.851 L
cp
S
GR
GS
[0.75 0 0 0.75 0 0.5] CT
0 0 1 RC
1 LJ
N
98.5 399.5 M
97.736 397.149 L
95.736 395.696 L
93.264 395.696 L
91.264 397.149 L
90.5 399.5 L
91.264 401.851 L
93.264 403.304 L
95.736 403.304 L
97.736 401.851 L
cp
S
GR
GS
[0.75 0 0 0.75 0 0.5] CT
0 0 1 RC
1 LJ
N
136.5 317.5 M
135.736 315.149 L
133.736 313.696 L
131.264 313.696 L
129.264 315.149 L
128.5 317.5 L
129.264 319.851 L
131.264 321.304 L
133.736 321.304 L
135.736 319.851 L
cp
S
GR
GS
[0.75 0 0 0.75 0 0.5] CT
0 0 1 RC
1 LJ
N
174.5 317.5 M
173.736 315.149 L
171.736 313.696 L
169.264 313.696 L
167.264 315.149 L
166.5 317.5 L
167.264 319.851 L
169.264 321.304 L
171.736 321.304 L
173.736 319.851 L
cp
S
GR
GS
[0.75 0 0 0.75 0 0.5] CT
0 0 1 RC
1 LJ
N
212.5 317.5 M
211.736 315.149 L
209.736 313.696 L
207.264 313.696 L
205.264 315.149 L
204.5 317.5 L
205.264 319.851 L
207.264 321.304 L
209.736 321.304 L
211.736 319.851 L
cp
S
GR
GS
[0.75 0 0 0.75 0 0.5] CT
0 0 1 RC
1 LJ
N
249.5 317.5 M
248.736 315.149 L
246.736 313.696 L
244.264 313.696 L
242.264 315.149 L
241.5 317.5 L
242.264 319.851 L
244.264 321.304 L
246.736 321.304 L
248.736 319.851 L
cp
S
GR
GS
[0.75 0 0 0.75 0 0.5] CT
0 0 1 RC
1 LJ
N
287.5 317.5 M
286.736 315.149 L
284.736 313.696 L
282.264 313.696 L
280.264 315.149 L
279.5 317.5 L
280.264 319.851 L
282.264 321.304 L
284.736 321.304 L
286.736 319.851 L
cp
S
GR
GS
[0.75 0 0 0.75 0 0.5] CT
0 0 1 RC
1 LJ
N
325.5 317.5 M
324.736 315.149 L
322.736 313.696 L
320.264 313.696 L
318.264 315.149 L
317.5 317.5 L
318.264 319.851 L
320.264 321.304 L
322.736 321.304 L
324.736 319.851 L
cp
S
GR
GS
[0.75 0 0 0.75 0 0.5] CT
0 0 1 RC
1 LJ
N
363.5 317.5 M
362.736 315.149 L
360.736 313.696 L
358.264 313.696 L
356.264 315.149 L
355.5 317.5 L
356.264 319.851 L
358.264 321.304 L
360.736 321.304 L
362.736 319.851 L
cp
S
GR
GS
[0.75 0 0 0.75 0 0.5] CT
0 0 1 RC
1 LJ
N
401.5 317.5 M
400.736 315.149 L
398.736 313.696 L
396.264 313.696 L
394.264 315.149 L
393.5 317.5 L
394.264 319.851 L
396.264 321.304 L
398.736 321.304 L
400.736 319.851 L
cp
S
GR
GS
[0.75 0 0 0.75 0 0.5] CT
0 1 0 RC
1 LJ
0.667 LW
N
57 400 M
94.778 400 L
132.556 317.129 L
170.333 317.129 L
208.111 317.129 L
245.889 317.129 L
283.667 317.129 L
321.444 317.129 L
359.222 317.129 L
397 317.129 L
S
GR
GS
[0.75 0 0 0.75 0 0.5] CT
0 1 0 RC
1 LJ
N
61.5 399.5 M
60.736 397.149 L
58.736 395.696 L
56.264 395.696 L
54.264 397.149 L
53.5 399.5 L
54.264 401.851 L
56.264 403.304 L
58.736 403.304 L
60.736 401.851 L
cp
S
GR
GS
[0.75 0 0 0.75 0 0.5] CT
0 1 0 RC
1 LJ
N
98.5 399.5 M
97.736 397.149 L
95.736 395.696 L
93.264 395.696 L
91.264 397.149 L
90.5 399.5 L
91.264 401.851 L
93.264 403.304 L
95.736 403.304 L
97.736 401.851 L
cp
S
GR
GS
[0.75 0 0 0.75 0 0.5] CT
0 1 0 RC
1 LJ
N
136.5 317.5 M
135.736 315.149 L
133.736 313.696 L
131.264 313.696 L
129.264 315.149 L
128.5 317.5 L
129.264 319.851 L
131.264 321.304 L
133.736 321.304 L
135.736 319.851 L
cp
S
GR
GS
[0.75 0 0 0.75 0 0.5] CT
0 1 0 RC
1 LJ
N
174.5 317.5 M
173.736 315.149 L
171.736 313.696 L
169.264 313.696 L
167.264 315.149 L
166.5 317.5 L
167.264 319.851 L
169.264 321.304 L
171.736 321.304 L
173.736 319.851 L
cp
S
GR
GS
[0.75 0 0 0.75 0 0.5] CT
0 1 0 RC
1 LJ
N
212.5 317.5 M
211.736 315.149 L
209.736 313.696 L
207.264 313.696 L
205.264 315.149 L
204.5 317.5 L
205.264 319.851 L
207.264 321.304 L
209.736 321.304 L
211.736 319.851 L
cp
S
GR
GS
[0.75 0 0 0.75 0 0.5] CT
0 1 0 RC
1 LJ
N
249.5 317.5 M
248.736 315.149 L
246.736 313.696 L
244.264 313.696 L
242.264 315.149 L
241.5 317.5 L
242.264 319.851 L
244.264 321.304 L
246.736 321.304 L
248.736 319.851 L
cp
S
GR
GS
[0.75 0 0 0.75 0 0.5] CT
0 1 0 RC
1 LJ
N
287.5 317.5 M
286.736 315.149 L
284.736 313.696 L
282.264 313.696 L
280.264 315.149 L
279.5 317.5 L
280.264 319.851 L
282.264 321.304 L
284.736 321.304 L
286.736 319.851 L
cp
S
GR
GS
[0.75 0 0 0.75 0 0.5] CT
0 1 0 RC
1 LJ
N
325.5 317.5 M
324.736 315.149 L
322.736 313.696 L
320.264 313.696 L
318.264 315.149 L
317.5 317.5 L
318.264 319.851 L
320.264 321.304 L
322.736 321.304 L
324.736 319.851 L
cp
S
GR
GS
[0.75 0 0 0.75 0 0.5] CT
0 1 0 RC
1 LJ
N
363.5 317.5 M
362.736 315.149 L
360.736 313.696 L
358.264 313.696 L
356.264 315.149 L
355.5 317.5 L
356.264 319.851 L
358.264 321.304 L
360.736 321.304 L
362.736 319.851 L
cp
S
GR
GS
[0.75 0 0 0.75 0 0.5] CT
0 1 0 RC
1 LJ
N
401.5 317.5 M
400.736 315.149 L
398.736 313.696 L
396.264 313.696 L
394.264 315.149 L
393.5 317.5 L
394.264 319.851 L
396.264 321.304 L
398.736 321.304 L
400.736 319.851 L
cp
S
GR
GS
[0.75 0 0 0.75 0 0.5] CT
1 0 0 RC
1 LJ
0.667 LW
N
57 163.482 M
94.778 131.812 L
132.556 295.429 L
170.333 317.129 L
208.111 347.714 L
245.889 347.714 L
283.667 347.714 L
321.444 347.714 L
359.222 347.714 L
397 347.714 L
S
GR
GS
[0.75 0 0 0.75 0 0.5] CT
1 0 0 RC
1 LJ
N
61.5 163.5 M
60.736 161.149 L
58.736 159.696 L
56.264 159.696 L
54.264 161.149 L
53.5 163.5 L
54.264 165.851 L
56.264 167.304 L
58.736 167.304 L
60.736 165.851 L
cp
S
GR
GS
[0.75 0 0 0.75 0 0.5] CT
1 0 0 RC
1 LJ
N
98.5 131.5 M
97.736 129.149 L
95.736 127.696 L
93.264 127.696 L
91.264 129.149 L
90.5 131.5 L
91.264 133.851 L
93.264 135.304 L
95.736 135.304 L
97.736 133.851 L
cp
S
GR
GS
[0.75 0 0 0.75 0 0.5] CT
1 0 0 RC
1 LJ
N
136.5 295.5 M
135.736 293.149 L
133.736 291.696 L
131.264 291.696 L
129.264 293.149 L
128.5 295.5 L
129.264 297.851 L
131.264 299.304 L
133.736 299.304 L
135.736 297.851 L
cp
S
GR
GS
[0.75 0 0 0.75 0 0.5] CT
1 0 0 RC
1 LJ
N
174.5 317.5 M
173.736 315.149 L
171.736 313.696 L
169.264 313.696 L
167.264 315.149 L
166.5 317.5 L
167.264 319.851 L
169.264 321.304 L
171.736 321.304 L
173.736 319.851 L
cp
S
GR
GS
[0.75 0 0 0.75 0 0.5] CT
1 0 0 RC
1 LJ
N
212.5 347.5 M
211.736 345.149 L
209.736 343.696 L
207.264 343.696 L
205.264 345.149 L
204.5 347.5 L
205.264 349.851 L
207.264 351.304 L
209.736 351.304 L
211.736 349.851 L
cp
S
GR
GS
[0.75 0 0 0.75 0 0.5] CT
1 0 0 RC
1 LJ
N
249.5 347.5 M
248.736 345.149 L
246.736 343.696 L
244.264 343.696 L
242.264 345.149 L
241.5 347.5 L
242.264 349.851 L
244.264 351.304 L
246.736 351.304 L
248.736 349.851 L
cp
S
GR
GS
[0.75 0 0 0.75 0 0.5] CT
1 0 0 RC
1 LJ
N
287.5 347.5 M
286.736 345.149 L
284.736 343.696 L
282.264 343.696 L
280.264 345.149 L
279.5 347.5 L
280.264 349.851 L
282.264 351.304 L
284.736 351.304 L
286.736 349.851 L
cp
S
GR
GS
[0.75 0 0 0.75 0 0.5] CT
1 0 0 RC
1 LJ
N
325.5 347.5 M
324.736 345.149 L
322.736 343.696 L
320.264 343.696 L
318.264 345.149 L
317.5 347.5 L
318.264 349.851 L
320.264 351.304 L
322.736 351.304 L
324.736 349.851 L
cp
S
GR
GS
[0.75 0 0 0.75 0 0.5] CT
1 0 0 RC
1 LJ
N
363.5 347.5 M
362.736 345.149 L
360.736 343.696 L
358.264 343.696 L
356.264 345.149 L
355.5 347.5 L
356.264 349.851 L
358.264 351.304 L
360.736 351.304 L
362.736 349.851 L
cp
S
GR
GS
[0.75 0 0 0.75 0 0.5] CT
1 0 0 RC
1 LJ
N
401.5 347.5 M
400.736 345.149 L
398.736 343.696 L
396.264 343.696 L
394.264 345.149 L
393.5 347.5 L
394.264 349.851 L
396.264 351.304 L
398.736 351.304 L
400.736 349.851 L
cp
S
GR
GS
[0.75 0 0 0.75 0 0.5] CT
0 1 1 RC
1 LJ
0.667 LW
N
57 95.023 M
94.778 53.379 L
132.556 206.52 L
170.333 278.596 L
208.111 317.129 L
245.889 317.129 L
283.667 347.714 L
321.444 347.714 L
359.222 347.714 L
397 347.714 L
S
GR
GS
[0.75 0 0 0.75 0 0.5] CT
0 1 1 RC
1 LJ
N
61.5 95.5 M
60.736 93.149 L
58.736 91.696 L
56.264 91.696 L
54.264 93.149 L
53.5 95.5 L
54.264 97.851 L
56.264 99.304 L
58.736 99.304 L
60.736 97.851 L
cp
S
GR
GS
[0.75 0 0 0.75 0 0.5] CT
0 1 1 RC
1 LJ
N
98.5 53.5 M
97.736 51.149 L
95.736 49.696 L
93.264 49.696 L
91.264 51.149 L
90.5 53.5 L
91.264 55.851 L
93.264 57.304 L
95.736 57.304 L
97.736 55.851 L
cp
S
GR
GS
[0.75 0 0 0.75 0 0.5] CT
0 1 1 RC
1 LJ
N
136.5 206.5 M
135.736 204.149 L
133.736 202.696 L
131.264 202.696 L
129.264 204.149 L
128.5 206.5 L
129.264 208.851 L
131.264 210.304 L
133.736 210.304 L
135.736 208.851 L
cp
S
GR
GS
[0.75 0 0 0.75 0 0.5] CT
0 1 1 RC
1 LJ
N
174.5 278.5 M
173.736 276.149 L
171.736 274.696 L
169.264 274.696 L
167.264 276.149 L
166.5 278.5 L
167.264 280.851 L
169.264 282.304 L
171.736 282.304 L
173.736 280.851 L
cp
S
GR
GS
[0.75 0 0 0.75 0 0.5] CT
0 1 1 RC
1 LJ
N
212.5 317.5 M
211.736 315.149 L
209.736 313.696 L
207.264 313.696 L
205.264 315.149 L
204.5 317.5 L
205.264 319.851 L
207.264 321.304 L
209.736 321.304 L
211.736 319.851 L
cp
S
GR
GS
[0.75 0 0 0.75 0 0.5] CT
0 1 1 RC
1 LJ
N
249.5 317.5 M
248.736 315.149 L
246.736 313.696 L
244.264 313.696 L
242.264 315.149 L
241.5 317.5 L
242.264 319.851 L
244.264 321.304 L
246.736 321.304 L
248.736 319.851 L
cp
S
GR
GS
[0.75 0 0 0.75 0 0.5] CT
0 1 1 RC
1 LJ
N
287.5 347.5 M
286.736 345.149 L
284.736 343.696 L
282.264 343.696 L
280.264 345.149 L
279.5 347.5 L
280.264 349.851 L
282.264 351.304 L
284.736 351.304 L
286.736 349.851 L
cp
S
GR
GS
[0.75 0 0 0.75 0 0.5] CT
0 1 1 RC
1 LJ
N
325.5 347.5 M
324.736 345.149 L
322.736 343.696 L
320.264 343.696 L
318.264 345.149 L
317.5 347.5 L
318.264 349.851 L
320.264 351.304 L
322.736 351.304 L
324.736 349.851 L
cp
S
GR
GS
[0.75 0 0 0.75 0 0.5] CT
0 1 1 RC
1 LJ
N
363.5 347.5 M
362.736 345.149 L
360.736 343.696 L
358.264 343.696 L
356.264 345.149 L
355.5 347.5 L
356.264 349.851 L
358.264 351.304 L
360.736 351.304 L
362.736 349.851 L
cp
S
GR
GS
[0.75 0 0 0.75 0 0.5] CT
0 1 1 RC
1 LJ
N
401.5 347.5 M
400.736 345.149 L
398.736 343.696 L
396.264 343.696 L
394.264 345.149 L
393.5 347.5 L
394.264 349.851 L
396.264 351.304 L
398.736 351.304 L
400.736 349.851 L
cp
S
GR
GS
[0.75 0 0 0.75 0 0.5] CT
1 0 1 RC
1 LJ
0.667 LW
N
57 160.272 M
94.778 129.687 L
132.556 278.596 L
170.333 295.429 L
208.111 317.129 L
245.889 317.129 L
283.667 317.129 L
321.444 317.129 L
359.222 317.129 L
397 317.129 L
S
GR
GS
[0.75 0 0 0.75 0 0.5] CT
1 0 1 RC
1 LJ
N
61.5 160.5 M
60.736 158.149 L
58.736 156.696 L
56.264 156.696 L
54.264 158.149 L
53.5 160.5 L
54.264 162.851 L
56.264 164.304 L
58.736 164.304 L
60.736 162.851 L
cp
S
GR
GS
[0.75 0 0 0.75 0 0.5] CT
1 0 1 RC
1 LJ
N
98.5 129.5 M
97.736 127.149 L
95.736 125.696 L
93.264 125.696 L
91.264 127.149 L
90.5 129.5 L
91.264 131.851 L
93.264 133.304 L
95.736 133.304 L
97.736 131.851 L
cp
S
GR
GS
[0.75 0 0 0.75 0 0.5] CT
1 0 1 RC
1 LJ
N
136.5 278.5 M
135.736 276.149 L
133.736 274.696 L
131.264 274.696 L
129.264 276.149 L
128.5 278.5 L
129.264 280.851 L
131.264 282.304 L
133.736 282.304 L
135.736 280.851 L
cp
S
GR
GS
[0.75 0 0 0.75 0 0.5] CT
1 0 1 RC
1 LJ
N
174.5 295.5 M
173.736 293.149 L
171.736 291.696 L
169.264 291.696 L
167.264 293.149 L
166.5 295.5 L
167.264 297.851 L
169.264 299.304 L
171.736 299.304 L
173.736 297.851 L
cp
S
GR
GS
[0.75 0 0 0.75 0 0.5] CT
1 0 1 RC
1 LJ
N
212.5 317.5 M
211.736 315.149 L
209.736 313.696 L
207.264 313.696 L
205.264 315.149 L
204.5 317.5 L
205.264 319.851 L
207.264 321.304 L
209.736 321.304 L
211.736 319.851 L
cp
S
GR
GS
[0.75 0 0 0.75 0 0.5] CT
1 0 1 RC
1 LJ
N
249.5 317.5 M
248.736 315.149 L
246.736 313.696 L
244.264 313.696 L
242.264 315.149 L
241.5 317.5 L
242.264 319.851 L
244.264 321.304 L
246.736 321.304 L
248.736 319.851 L
cp
S
GR
GS
[0.75 0 0 0.75 0 0.5] CT
1 0 1 RC
1 LJ
N
287.5 317.5 M
286.736 315.149 L
284.736 313.696 L
282.264 313.696 L
280.264 315.149 L
279.5 317.5 L
280.264 319.851 L
282.264 321.304 L
284.736 321.304 L
286.736 319.851 L
cp
S
GR
GS
[0.75 0 0 0.75 0 0.5] CT
1 0 1 RC
1 LJ
N
325.5 317.5 M
324.736 315.149 L
322.736 313.696 L
320.264 313.696 L
318.264 315.149 L
317.5 317.5 L
318.264 319.851 L
320.264 321.304 L
322.736 321.304 L
324.736 319.851 L
cp
S
GR
GS
[0.75 0 0 0.75 0 0.5] CT
1 0 1 RC
1 LJ
N
363.5 317.5 M
362.736 315.149 L
360.736 313.696 L
358.264 313.696 L
356.264 315.149 L
355.5 317.5 L
356.264 319.851 L
358.264 321.304 L
360.736 321.304 L
362.736 319.851 L
cp
S
GR
GS
[0.75 0 0 0.75 0 0.5] CT
1 0 1 RC
1 LJ
N
401.5 317.5 M
400.736 315.149 L
398.736 313.696 L
396.264 313.696 L
394.264 315.149 L
393.5 317.5 L
394.264 319.851 L
396.264 321.304 L
398.736 321.304 L
400.736 319.851 L
cp
S
GR
GS
[0.75 0 0 0.75 0 0.5] CT
1 LJ
0.667 LW
N
57 154.234 M
94.778 131.812 L
132.556 93.711 L
170.333 85.116 L
208.111 65.773 L
245.889 46.816 L
283.667 37.621 L
321.444 37.621 L
359.222 37.621 L
397 37.621 L
S
GR
GS
[0.75 0 0 0.75 0 0.5] CT
1 LJ
N
61.5 154.5 M
60.736 152.149 L
58.736 150.696 L
56.264 150.696 L
54.264 152.149 L
53.5 154.5 L
54.264 156.851 L
56.264 158.304 L
58.736 158.304 L
60.736 156.851 L
cp
S
GR
GS
[0.75 0 0 0.75 0 0.5] CT
1 LJ
N
98.5 131.5 M
97.736 129.149 L
95.736 127.696 L
93.264 127.696 L
91.264 129.149 L
90.5 131.5 L
91.264 133.851 L
93.264 135.304 L
95.736 135.304 L
97.736 133.851 L
cp
S
GR
GS
[0.75 0 0 0.75 0 0.5] CT
1 LJ
N
136.5 93.5 M
135.736 91.149 L
133.736 89.696 L
131.264 89.696 L
129.264 91.149 L
128.5 93.5 L
129.264 95.851 L
131.264 97.304 L
133.736 97.304 L
135.736 95.851 L
cp
S
GR
GS
[0.75 0 0 0.75 0 0.5] CT
1 LJ
N
174.5 85.5 M
173.736 83.149 L
171.736 81.696 L
169.264 81.696 L
167.264 83.149 L
166.5 85.5 L
167.264 87.851 L
169.264 89.304 L
171.736 89.304 L
173.736 87.851 L
cp
S
GR
GS
[0.75 0 0 0.75 0 0.5] CT
1 LJ
N
212.5 65.5 M
211.736 63.149 L
209.736 61.696 L
207.264 61.696 L
205.264 63.149 L
204.5 65.5 L
205.264 67.851 L
207.264 69.304 L
209.736 69.304 L
211.736 67.851 L
cp
S
GR
GS
[0.75 0 0 0.75 0 0.5] CT
1 LJ
N
249.5 46.5 M
248.736 44.149 L
246.736 42.696 L
244.264 42.696 L
242.264 44.149 L
241.5 46.5 L
242.264 48.851 L
244.264 50.304 L
246.736 50.304 L
248.736 48.851 L
cp
S
GR
GS
[0.75 0 0 0.75 0 0.5] CT
1 LJ
N
287.5 37.5 M
286.736 35.149 L
284.736 33.696 L
282.264 33.696 L
280.264 35.149 L
279.5 37.5 L
280.264 39.851 L
282.264 41.304 L
284.736 41.304 L
286.736 39.851 L
cp
S
GR
GS
[0.75 0 0 0.75 0 0.5] CT
1 LJ
N
325.5 37.5 M
324.736 35.149 L
322.736 33.696 L
320.264 33.696 L
318.264 35.149 L
317.5 37.5 L
318.264 39.851 L
320.264 41.304 L
322.736 41.304 L
324.736 39.851 L
cp
S
GR
GS
[0.75 0 0 0.75 0 0.5] CT
1 LJ
N
363.5 37.5 M
362.736 35.149 L
360.736 33.696 L
358.264 33.696 L
356.264 35.149 L
355.5 37.5 L
356.264 39.851 L
358.264 41.304 L
360.736 41.304 L
362.736 39.851 L
cp
S
GR
GS
[0.75 0 0 0.75 0 0.5] CT
1 LJ
N
401.5 37.5 M
400.736 35.149 L
398.736 33.696 L
396.264 33.696 L
394.264 35.149 L
393.5 37.5 L
394.264 39.851 L
396.264 41.304 L
398.736 41.304 L
400.736 39.851 L
cp
S
GR
GS
[0.75 0 0 0.75 0 0.5] CT
0 0 1 RC
[8 3 2 3] 0 setdash
2 LJ
0.667 LW
N
57 190.857 M
94.778 131.812 L
132.556 95.023 L
170.333 88.681 L
208.111 71.363 L
245.889 58.095 L
283.667 42.737 L
321.444 34.592 L
359.222 34 L
397 34 L
S
GR
GS
[0.75 0 0 0.75 0 0.5] CT
0 0 1 RC
10.0 ML
N
57.5 195.832 M
61.5 190.5 L
57.5 185.168 L
53.5 190.5 L
cp
S
GR
GS
[0.75 0 0 0.75 0 0.5] CT
0 0 1 RC
10.0 ML
N
94.5 136.832 M
98.5 131.5 L
94.5 126.168 L
90.5 131.5 L
cp
S
GR
GS
[0.75 0 0 0.75 0 0.5] CT
0 0 1 RC
10.0 ML
N
132.5 100.832 M
136.5 95.5 L
132.5 90.168 L
128.5 95.5 L
cp
S
GR
GS
[0.75 0 0 0.75 0 0.5] CT
0 0 1 RC
10.0 ML
N
170.5 93.832 M
174.5 88.5 L
170.5 83.168 L
166.5 88.5 L
cp
S
GR
GS
[0.75 0 0 0.75 0 0.5] CT
0 0 1 RC
10.0 ML
N
208.5 76.832 M
212.5 71.5 L
208.5 66.168 L
204.5 71.5 L
cp
S
GR
GS
[0.75 0 0 0.75 0 0.5] CT
0 0 1 RC
10.0 ML
N
245.5 63.832 M
249.5 58.5 L
245.5 53.168 L
241.5 58.5 L
cp
S
GR
GS
[0.75 0 0 0.75 0 0.5] CT
0 0 1 RC
10.0 ML
N
283.5 47.832 M
287.5 42.5 L
283.5 37.168 L
279.5 42.5 L
cp
S
GR
GS
[0.75 0 0 0.75 0 0.5] CT
0 0 1 RC
10.0 ML
N
321.5 39.832 M
325.5 34.5 L
321.5 29.168 L
317.5 34.5 L
cp
S
GR
GS
[0.75 0 0 0.75 0 0.5] CT
0 0 1 RC
10.0 ML
N
359.5 38.832 M
363.5 33.5 L
359.5 28.168 L
355.5 33.5 L
cp
S
GR
GS
[0.75 0 0 0.75 0 0.5] CT
0 0 1 RC
10.0 ML
N
397.5 38.832 M
401.5 33.5 L
397.5 28.168 L
393.5 33.5 L
cp
S
GR
GS
[0.75 0 0 0.75 0 0.5] CT
0 1 0 RC
[8 3 2 3] 0 setdash
2 LJ
0.667 LW
N
57 347.714 M
94.778 347.714 L
132.556 347.714 L
170.333 347.714 L
208.111 347.714 L
245.889 347.714 L
283.667 347.714 L
321.444 317.129 L
359.222 317.129 L
397 317.129 L
S
GR
GS
[0.75 0 0 0.75 0 0.5] CT
0 1 0 RC
10.0 ML
N
57.5 352.832 M
61.5 347.5 L
57.5 342.168 L
53.5 347.5 L
cp
S
GR
GS
[0.75 0 0 0.75 0 0.5] CT
0 1 0 RC
10.0 ML
N
94.5 352.832 M
98.5 347.5 L
94.5 342.168 L
90.5 347.5 L
cp
S
GR
GS
[0.75 0 0 0.75 0 0.5] CT
0 1 0 RC
10.0 ML
N
132.5 352.832 M
136.5 347.5 L
132.5 342.168 L
128.5 347.5 L
cp
S
GR
GS
[0.75 0 0 0.75 0 0.5] CT
0 1 0 RC
10.0 ML
N
170.5 352.832 M
174.5 347.5 L
170.5 342.168 L
166.5 347.5 L
cp
S
GR
GS
[0.75 0 0 0.75 0 0.5] CT
0 1 0 RC
10.0 ML
N
208.5 352.832 M
212.5 347.5 L
208.5 342.168 L
204.5 347.5 L
cp
S
GR
GS
[0.75 0 0 0.75 0 0.5] CT
0 1 0 RC
10.0 ML
N
245.5 352.832 M
249.5 347.5 L
245.5 342.168 L
241.5 347.5 L
cp
S
GR
GS
[0.75 0 0 0.75 0 0.5] CT
0 1 0 RC
10.0 ML
N
283.5 352.832 M
287.5 347.5 L
283.5 342.168 L
279.5 347.5 L
cp
S
GR
GS
[0.75 0 0 0.75 0 0.5] CT
0 1 0 RC
10.0 ML
N
321.5 322.832 M
325.5 317.5 L
321.5 312.168 L
317.5 317.5 L
cp
S
GR
GS
[0.75 0 0 0.75 0 0.5] CT
0 1 0 RC
10.0 ML
N
359.5 322.832 M
363.5 317.5 L
359.5 312.168 L
355.5 317.5 L
cp
S
GR
GS
[0.75 0 0 0.75 0 0.5] CT
0 1 0 RC
10.0 ML
N
397.5 322.832 M
401.5 317.5 L
397.5 312.168 L
393.5 317.5 L
cp
S
GR
GS
[0.75 0 0 0.75 0 0.5] CT
1 0 0 RC
[8 3 2 3] 0 setdash
2 LJ
0.667 LW
N
57 206.52 M
94.778 163.482 L
132.556 136.25 L
170.333 116.284 L
208.111 103.413 L
245.889 87.474 L
283.667 76.361 L
321.444 59.735 L
359.222 52.621 L
397 46.121 L
S
GR
GS
[0.75 0 0 0.75 0 0.5] CT
1 0 0 RC
10.0 ML
N
57.5 211.832 M
61.5 206.5 L
57.5 201.168 L
53.5 206.5 L
cp
S
GR
GS
[0.75 0 0 0.75 0 0.5] CT
1 0 0 RC
10.0 ML
N
94.5 168.832 M
98.5 163.5 L
94.5 158.168 L
90.5 163.5 L
cp
S
GR
GS
[0.75 0 0 0.75 0 0.5] CT
1 0 0 RC
10.0 ML
N
132.5 141.832 M
136.5 136.5 L
132.5 131.168 L
128.5 136.5 L
cp
S
GR
GS
[0.75 0 0 0.75 0 0.5] CT
1 0 0 RC
10.0 ML
N
170.5 121.832 M
174.5 116.5 L
170.5 111.168 L
166.5 116.5 L
cp
S
GR
GS
[0.75 0 0 0.75 0 0.5] CT
1 0 0 RC
10.0 ML
N
208.5 108.832 M
212.5 103.5 L
208.5 98.168 L
204.5 103.5 L
cp
S
GR
GS
[0.75 0 0 0.75 0 0.5] CT
1 0 0 RC
10.0 ML
N
245.5 92.832 M
249.5 87.5 L
245.5 82.168 L
241.5 87.5 L
cp
S
GR
GS
[0.75 0 0 0.75 0 0.5] CT
1 0 0 RC
10.0 ML
N
283.5 81.832 M
287.5 76.5 L
283.5 71.168 L
279.5 76.5 L
cp
S
GR
GS
[0.75 0 0 0.75 0 0.5] CT
1 0 0 RC
10.0 ML
N
321.5 64.832 M
325.5 59.5 L
321.5 54.168 L
317.5 59.5 L
cp
S
GR
GS
[0.75 0 0 0.75 0 0.5] CT
1 0 0 RC
10.0 ML
N
359.5 57.832 M
363.5 52.5 L
359.5 47.168 L
355.5 52.5 L
cp
S
GR
GS
[0.75 0 0 0.75 0 0.5] CT
1 0 0 RC
10.0 ML
N
397.5 51.832 M
401.5 46.5 L
397.5 41.168 L
393.5 46.5 L
cp
S
GR
GS
[0.75 0 0 0.75 0 0.5] CT
0 1 1 RC
[8 3 2 3] 0 setdash
2 LJ
0.667 LW
N
57 264.843 M
94.778 253.215 L
132.556 243.143 L
170.333 243.143 L
208.111 234.258 L
245.889 226.311 L
283.667 219.121 L
321.444 212.558 L
359.222 206.52 L
397 206.52 L
S
GR
GS
[0.75 0 0 0.75 0 0.5] CT
0 1 1 RC
10.0 ML
N
57.5 269.832 M
61.5 264.5 L
57.5 259.168 L
53.5 264.5 L
cp
S
GR
GS
[0.75 0 0 0.75 0 0.5] CT
0 1 1 RC
10.0 ML
N
94.5 258.832 M
98.5 253.5 L
94.5 248.168 L
90.5 253.5 L
cp
S
GR
GS
[0.75 0 0 0.75 0 0.5] CT
0 1 1 RC
10.0 ML
N
132.5 248.832 M
136.5 243.5 L
132.5 238.168 L
128.5 243.5 L
cp
S
GR
GS
[0.75 0 0 0.75 0 0.5] CT
0 1 1 RC
10.0 ML
N
170.5 248.832 M
174.5 243.5 L
170.5 238.168 L
166.5 243.5 L
cp
S
GR
GS
[0.75 0 0 0.75 0 0.5] CT
0 1 1 RC
10.0 ML
N
208.5 239.832 M
212.5 234.5 L
208.5 229.168 L
204.5 234.5 L
cp
S
GR
GS
[0.75 0 0 0.75 0 0.5] CT
0 1 1 RC
10.0 ML
N
245.5 231.832 M
249.5 226.5 L
245.5 221.168 L
241.5 226.5 L
cp
S
GR
GS
[0.75 0 0 0.75 0 0.5] CT
0 1 1 RC
10.0 ML
N
283.5 224.832 M
287.5 219.5 L
283.5 214.168 L
279.5 219.5 L
cp
S
GR
GS
[0.75 0 0 0.75 0 0.5] CT
0 1 1 RC
10.0 ML
N
321.5 217.832 M
325.5 212.5 L
321.5 207.168 L
317.5 212.5 L
cp
S
GR
GS
[0.75 0 0 0.75 0 0.5] CT
0 1 1 RC
10.0 ML
N
359.5 211.832 M
363.5 206.5 L
359.5 201.168 L
355.5 206.5 L
cp
S
GR
GS
[0.75 0 0 0.75 0 0.5] CT
0 1 1 RC
10.0 ML
N
397.5 211.832 M
401.5 206.5 L
397.5 201.168 L
393.5 206.5 L
cp
S
GR
GS
[0.75 0 0 0.75 0 0.5] CT
1 GC
N
419 192 M
419 34 L
528 34 L
528 192 L
cp
f
GR
GS
[0.75 0 0 0.75 342 33.10252] CT
/Helvetica 12 F
GS
[1 0 0 1 0 0] CT
0 4.5 moveto 
1 -1 scale
(Tmplsqr) t 
GR
GR
GS
[0.75 0 0 0.75 0 0.5] CT
0 0 1 RC
1 LJ
0.667 LW
N
423 43.47 M
453 43.47 L
S
GR
GS
[0.75 0 0 0.75 0 0.5] CT
0 0 1 RC
1 LJ
N
442.5 43.5 M
441.736 41.149 L
439.736 39.696 L
437.264 39.696 L
435.264 41.149 L
434.5 43.5 L
435.264 45.851 L
437.264 47.304 L
439.736 47.304 L
441.736 45.851 L
cp
S
GR
GS
[0.75 0 0 0.75 342 44.69085] CT
/Helvetica 12 F
GS
[1 0 0 1 0 0] CT
0 4.5 moveto 
1 -1 scale
(Tmplsmr) t 
GR
GR
GS
[0.75 0 0 0.75 0 0.5] CT
0 1 0 RC
1 LJ
0.667 LW
N
423 58.921 M
453 58.921 L
S
GR
GS
[0.75 0 0 0.75 0 0.5] CT
0 1 0 RC
1 LJ
N
442.5 58.5 M
441.736 56.149 L
439.736 54.696 L
437.264 54.696 L
435.264 56.149 L
434.5 58.5 L
435.264 60.851 L
437.264 62.304 L
439.736 62.304 L
441.736 60.851 L
cp
S
GR
GS
[0.75 0 0 0.75 342 56.27918] CT
/Helvetica 12 F
GS
[1 0 0 1 0 0] CT
0 4.5 moveto 
1 -1 scale
(Tmppcg) t 
GR
GR
GS
[0.75 0 0 0.75 0 0.5] CT
1 0 0 RC
1 LJ
0.667 LW
N
423 74.372 M
453 74.372 L
S
GR
GS
[0.75 0 0 0.75 0 0.5] CT
1 0 0 RC
1 LJ
N
442.5 74.5 M
441.736 72.149 L
439.736 70.696 L
437.264 70.696 L
435.264 72.149 L
434.5 74.5 L
435.264 76.851 L
437.264 78.304 L
439.736 78.304 L
441.736 76.851 L
cp
S
GR
GS
[0.75 0 0 0.75 342 67.86751] CT
/Helvetica 12 F
GS
[1 0 0 1 0 0] CT
0 4.5 moveto 
1 -1 scale
(Tmpminres) t 
GR
GR
GS
[0.75 0 0 0.75 0 0.5] CT
0 1 1 RC
1 LJ
0.667 LW
N
423 89.823 M
453 89.823 L
S
GR
GS
[0.75 0 0 0.75 0 0.5] CT
0 1 1 RC
1 LJ
N
442.5 89.5 M
441.736 87.149 L
439.736 85.696 L
437.264 85.696 L
435.264 87.149 L
434.5 89.5 L
435.264 91.851 L
437.264 93.304 L
439.736 93.304 L
441.736 91.851 L
cp
S
GR
GS
[0.75 0 0 0.75 342 79.45584] CT
/Helvetica 12 F
GS
[1 0 0 1 0 0] CT
0 4.5 moveto 
1 -1 scale
(Pnb) t 
GR
GR
GS
[0.75 0 0 0.75 0 0.5] CT
1 0 1 RC
1 LJ
0.667 LW
N
423 105.274 M
453 105.274 L
S
GR
GS
[0.75 0 0 0.75 0 0.5] CT
1 0 1 RC
1 LJ
N
442.5 105.5 M
441.736 103.149 L
439.736 101.696 L
437.264 101.696 L
435.264 103.149 L
434.5 105.5 L
435.264 107.851 L
437.264 109.304 L
439.736 109.304 L
441.736 107.851 L
cp
S
GR
GS
[0.75 0 0 0.75 342 91.04416] CT
/Helvetica 12 F
GS
[1 0 0 1 0 0] CT
0 4.5 moveto 
1 -1 scale
(Bb) t 
GR
GR
GS
[0.75 0 0 0.75 0 0.5] CT
1 LJ
0.667 LW
N
423 120.726 M
453 120.726 L
S
GR
GS
[0.75 0 0 0.75 0 0.5] CT
1 LJ
N
442.5 120.5 M
441.736 118.149 L
439.736 116.696 L
437.264 116.696 L
435.264 118.149 L
434.5 120.5 L
435.264 122.851 L
437.264 124.304 L
439.736 124.304 L
441.736 122.851 L
cp
S
GR
GS
[0.75 0 0 0.75 342 102.63249] CT
/Helvetica 12 F
GS
[1 0 0 1 0 0] CT
0 4.5 moveto 
1 -1 scale
(Spg) t 
GR
GR
GS
[0.75 0 0 0.75 0 0.5] CT
0 0 1 RC
[8 3 2 3] 0 setdash
2 LJ
0.667 LW
N
423 136.177 M
453 136.177 L
S
GR
GS
[0.75 0 0 0.75 0 0.5] CT
0 0 1 RC
10.0 ML
N
438.5 141.832 M
442.5 136.5 L
438.5 131.168 L
434.5 136.5 L
cp
S
GR
GS
[0.75 0 0 0.75 342 114.22082] CT
/Helvetica 12 F
GS
[1 0 0 1 0 0] CT
0 4.5 moveto 
1 -1 scale
(Pqn) t 
GR
GR
GS
[0.75 0 0 0.75 0 0.5] CT
0 1 0 RC
[8 3 2 3] 0 setdash
2 LJ
0.667 LW
N
423 151.628 M
453 151.628 L
S
GR
GS
[0.75 0 0 0.75 0 0.5] CT
0 1 0 RC
10.0 ML
N
438.5 156.832 M
442.5 151.5 L
438.5 146.168 L
434.5 151.5 L
cp
S
GR
GS
[0.75 0 0 0.75 342 125.80915] CT
/Helvetica 12 F
GS
[1 0 0 1 0 0] CT
0 4.5 moveto 
1 -1 scale
(Lbfgsb) t 
GR
GR
GS
[0.75 0 0 0.75 0 0.5] CT
1 0 0 RC
[8 3 2 3] 0 setdash
2 LJ
0.667 LW
N
423 167.079 M
453 167.079 L
S
GR
GS
[0.75 0 0 0.75 0 0.5] CT
1 0 0 RC
10.0 ML
N
438.5 172.832 M
442.5 167.5 L
438.5 162.168 L
434.5 167.5 L
cp
S
GR
GS
[0.75 0 0 0.75 342 137.39748] CT
/Helvetica 12 F
GS
[1 0 0 1 0 0] CT
0 4.5 moveto 
1 -1 scale
(Bcflash) t 
GR
GR
GS
[0.75 0 0 0.75 0 0.5] CT
0 1 1 RC
[8 3 2 3] 0 setdash
2 LJ
0.667 LW
N
423 182.53 M
453 182.53 L
S
GR
GS
[0.75 0 0 0.75 0 0.5] CT
0 1 1 RC
10.0 ML
N
438.5 187.832 M
442.5 182.5 L
438.5 177.168 L
434.5 182.5 L
cp
S
GR
GS
[0.75 0 0 0.75 0 0.5] CT
0.149 GC
10.0 ML
0.667 LW
N
419 192 M
419 34 L
528 34 L
528 192 L
cp
S
GR
%%Trailer
%%Pages: 1
%%EOF
