%!PS-Adobe-3.0 EPSF-3.0
%%Creator: (MATLAB, The Mathworks, Inc. Version 9.0.0.341360 \(R2016a\). Operating System: Linux)
%%Title: data/fact4Rangeg.eps
%%CreationDate: 2017-02-04T13:22:20
%%Pages: (atend)
%%BoundingBox:     6     6   397   317
%%LanguageLevel: 3
%%EndComments
%%BeginProlog
%%BeginResource: procset (Apache XML Graphics Std ProcSet) 1.2 0
%%Version: 1.2 0
%%Copyright: (Copyright 2001-2003,2010 The Apache Software Foundation. License terms: http://www.apache.org/licenses/LICENSE-2.0)
/bd{bind def}bind def
/ld{load def}bd
/GR/grestore ld
/M/moveto ld
/LJ/setlinejoin ld
/C/curveto ld
/f/fill ld
/LW/setlinewidth ld
/GC/setgray ld
/t/show ld
/N/newpath ld
/CT/concat ld
/cp/closepath ld
/S/stroke ld
/L/lineto ld
/CC/setcmykcolor ld
/A/ashow ld
/GS/gsave ld
/RC/setrgbcolor ld
/RM/rmoveto ld
/ML/setmiterlimit ld
/re {4 2 roll M
1 index 0 rlineto
0 exch rlineto
neg 0 rlineto
cp } bd
/_ctm matrix def
/_tm matrix def
/BT { _ctm currentmatrix pop matrix _tm copy pop 0 0 moveto } bd
/ET { _ctm setmatrix } bd
/iTm { _ctm setmatrix _tm concat } bd
/Tm { _tm astore pop iTm 0 0 moveto } bd
/ux 0.0 def
/uy 0.0 def
/F {
  /Tp exch def
  /Tf exch def
  Tf findfont Tp scalefont setfont
  /cf Tf def  /cs Tp def
} bd
/ULS {currentpoint /uy exch def /ux exch def} bd
/ULE {
  /Tcx currentpoint pop def
  gsave
  newpath
  cf findfont cs scalefont dup
  /FontMatrix get 0 get /Ts exch def /FontInfo get dup
  /UnderlinePosition get Ts mul /To exch def
  /UnderlineThickness get Ts mul /Tt exch def
  ux uy To add moveto  Tcx uy To add lineto
  Tt setlinewidth stroke
  grestore
} bd
/OLE {
  /Tcx currentpoint pop def
  gsave
  newpath
  cf findfont cs scalefont dup
  /FontMatrix get 0 get /Ts exch def /FontInfo get dup
  /UnderlinePosition get Ts mul /To exch def
  /UnderlineThickness get Ts mul /Tt exch def
  ux uy To add cs add moveto Tcx uy To add cs add lineto
  Tt setlinewidth stroke
  grestore
} bd
/SOE {
  /Tcx currentpoint pop def
  gsave
  newpath
  cf findfont cs scalefont dup
  /FontMatrix get 0 get /Ts exch def /FontInfo get dup
  /UnderlinePosition get Ts mul /To exch def
  /UnderlineThickness get Ts mul /Tt exch def
  ux uy To add cs 10 mul 26 idiv add moveto Tcx uy To add cs 10 mul 26 idiv add lineto
  Tt setlinewidth stroke
  grestore
} bd
/QT {
/Y22 exch store
/X22 exch store
/Y21 exch store
/X21 exch store
currentpoint
/Y21 load 2 mul add 3 div exch
/X21 load 2 mul add 3 div exch
/X21 load 2 mul /X22 load add 3 div
/Y21 load 2 mul /Y22 load add 3 div
/X22 load /Y22 load curveto
} bd
/SSPD {
dup length /d exch dict def
{
/v exch def
/k exch def
currentpagedevice k known {
/cpdv currentpagedevice k get def
v cpdv ne {
/upd false def
/nullv v type /nulltype eq def
/nullcpdv cpdv type /nulltype eq def
nullv nullcpdv or
{
/upd true def
} {
/sametype v type cpdv type eq def
sametype {
v type /arraytype eq {
/vlen v length def
/cpdvlen cpdv length def
vlen cpdvlen eq {
0 1 vlen 1 sub {
/i exch def
/obj v i get def
/cpdobj cpdv i get def
obj cpdobj ne {
/upd true def
exit
} if
} for
} {
/upd true def
} ifelse
} {
v type /dicttype eq {
v {
/dv exch def
/dk exch def
/cpddv cpdv dk get def
dv cpddv ne {
/upd true def
exit
} if
} forall
} {
/upd true def
} ifelse
} ifelse
} if
} ifelse
upd true eq {
d k v put
} if
} if
} if
} forall
d length 0 gt {
d setpagedevice
} if
} bd
%%EndResource
%%BeginResource: procset (Apache XML Graphics EPS ProcSet) 1.0 0
%%Version: 1.0 0
%%Copyright: (Copyright 2002-2003 The Apache Software Foundation. License terms: http://www.apache.org/licenses/LICENSE-2.0)
/BeginEPSF { %def
/b4_Inc_state save def         % Save state for cleanup
/dict_count countdictstack def % Count objects on dict stack
/op_count count 1 sub def      % Count objects on operand stack
userdict begin                 % Push userdict on dict stack
/showpage { } def              % Redefine showpage, { } = null proc
0 setgray 0 setlinecap         % Prepare graphics state
1 setlinewidth 0 setlinejoin
10 setmiterlimit [ ] 0 setdash newpath
/languagelevel where           % If level not equal to 1 then
{pop languagelevel             % set strokeadjust and
1 ne                           % overprint to their defaults.
{false setstrokeadjust false setoverprint
} if
} if
} bd
/EndEPSF { %def
count op_count sub {pop} repeat            % Clean up stacks
countdictstack dict_count sub {end} repeat
b4_Inc_state restore
} bd
%%EndResource
%FOPBeginFontDict
%%IncludeResource: font Courier-Bold
%%IncludeResource: font Helvetica
%%IncludeResource: font Courier-BoldOblique
%%IncludeResource: font Courier-Oblique
%%IncludeResource: font Times-Roman
%%IncludeResource: font Helvetica-BoldOblique
%%IncludeResource: font Helvetica-Bold
%%IncludeResource: font Helvetica-Oblique
%%IncludeResource: font Times-BoldItalic
%%IncludeResource: font Courier
%%IncludeResource: font Times-Italic
%%IncludeResource: font Times-Bold
%%IncludeResource: font Symbol
%%IncludeResource: font ZapfDingbats
%FOPEndFontDict
%%BeginResource: encoding WinAnsiEncoding
/WinAnsiEncoding [
/.notdef /.notdef /.notdef /.notdef /.notdef
/.notdef /.notdef /.notdef /.notdef /.notdef
/.notdef /.notdef /.notdef /.notdef /.notdef
/.notdef /.notdef /.notdef /.notdef /.notdef
/.notdef /.notdef /.notdef /.notdef /.notdef
/.notdef /.notdef /.notdef /.notdef /.notdef
/.notdef /.notdef /space /exclam /quotedbl
/numbersign /dollar /percent /ampersand /quotesingle
/parenleft /parenright /asterisk /plus /comma
/hyphen /period /slash /zero /one
/two /three /four /five /six
/seven /eight /nine /colon /semicolon
/less /equal /greater /question /at
/A /B /C /D /E
/F /G /H /I /J
/K /L /M /N /O
/P /Q /R /S /T
/U /V /W /X /Y
/Z /bracketleft /backslash /bracketright /asciicircum
/underscore /quoteleft /a /b /c
/d /e /f /g /h
/i /j /k /l /m
/n /o /p /q /r
/s /t /u /v /w
/x /y /z /braceleft /bar
/braceright /asciitilde /bullet /Euro /bullet
/quotesinglbase /florin /quotedblbase /ellipsis /dagger
/daggerdbl /circumflex /perthousand /Scaron /guilsinglleft
/OE /bullet /Zcaron /bullet /bullet
/quoteleft /quoteright /quotedblleft /quotedblright /bullet
/endash /emdash /asciitilde /trademark /scaron
/guilsinglright /oe /bullet /zcaron /Ydieresis
/space /exclamdown /cent /sterling /currency
/yen /brokenbar /section /dieresis /copyright
/ordfeminine /guillemotleft /logicalnot /sfthyphen /registered
/macron /degree /plusminus /twosuperior /threesuperior
/acute /mu /paragraph /middot /cedilla
/onesuperior /ordmasculine /guillemotright /onequarter /onehalf
/threequarters /questiondown /Agrave /Aacute /Acircumflex
/Atilde /Adieresis /Aring /AE /Ccedilla
/Egrave /Eacute /Ecircumflex /Edieresis /Igrave
/Iacute /Icircumflex /Idieresis /Eth /Ntilde
/Ograve /Oacute /Ocircumflex /Otilde /Odieresis
/multiply /Oslash /Ugrave /Uacute /Ucircumflex
/Udieresis /Yacute /Thorn /germandbls /agrave
/aacute /acircumflex /atilde /adieresis /aring
/ae /ccedilla /egrave /eacute /ecircumflex
/edieresis /igrave /iacute /icircumflex /idieresis
/eth /ntilde /ograve /oacute /ocircumflex
/otilde /odieresis /divide /oslash /ugrave
/uacute /ucircumflex /udieresis /yacute /thorn
/ydieresis
] def
%%EndResource
%FOPBeginFontReencode
/Courier-Bold findfont
dup length dict begin
  {1 index /FID ne {def} {pop pop} ifelse} forall
  /Encoding WinAnsiEncoding def
  currentdict
end
/Courier-Bold exch definefont pop
/Helvetica findfont
dup length dict begin
  {1 index /FID ne {def} {pop pop} ifelse} forall
  /Encoding WinAnsiEncoding def
  currentdict
end
/Helvetica exch definefont pop
/Courier-BoldOblique findfont
dup length dict begin
  {1 index /FID ne {def} {pop pop} ifelse} forall
  /Encoding WinAnsiEncoding def
  currentdict
end
/Courier-BoldOblique exch definefont pop
/Courier-Oblique findfont
dup length dict begin
  {1 index /FID ne {def} {pop pop} ifelse} forall
  /Encoding WinAnsiEncoding def
  currentdict
end
/Courier-Oblique exch definefont pop
/Times-Roman findfont
dup length dict begin
  {1 index /FID ne {def} {pop pop} ifelse} forall
  /Encoding WinAnsiEncoding def
  currentdict
end
/Times-Roman exch definefont pop
/Helvetica-BoldOblique findfont
dup length dict begin
  {1 index /FID ne {def} {pop pop} ifelse} forall
  /Encoding WinAnsiEncoding def
  currentdict
end
/Helvetica-BoldOblique exch definefont pop
/Helvetica-Bold findfont
dup length dict begin
  {1 index /FID ne {def} {pop pop} ifelse} forall
  /Encoding WinAnsiEncoding def
  currentdict
end
/Helvetica-Bold exch definefont pop
/Helvetica-Oblique findfont
dup length dict begin
  {1 index /FID ne {def} {pop pop} ifelse} forall
  /Encoding WinAnsiEncoding def
  currentdict
end
/Helvetica-Oblique exch definefont pop
/Times-BoldItalic findfont
dup length dict begin
  {1 index /FID ne {def} {pop pop} ifelse} forall
  /Encoding WinAnsiEncoding def
  currentdict
end
/Times-BoldItalic exch definefont pop
/Courier findfont
dup length dict begin
  {1 index /FID ne {def} {pop pop} ifelse} forall
  /Encoding WinAnsiEncoding def
  currentdict
end
/Courier exch definefont pop
/Times-Italic findfont
dup length dict begin
  {1 index /FID ne {def} {pop pop} ifelse} forall
  /Encoding WinAnsiEncoding def
  currentdict
end
/Times-Italic exch definefont pop
/Times-Bold findfont
dup length dict begin
  {1 index /FID ne {def} {pop pop} ifelse} forall
  /Encoding WinAnsiEncoding def
  currentdict
end
/Times-Bold exch definefont pop
%FOPEndFontReencode
%%EndProlog
%%Page: 1 1
%%PageBoundingBox: 0 0 428 338
%%BeginPageSetup
[1 0 0 -1 0 338] CT
%%EndPageSetup
GS
[0.75 0 0 0.75 0 0.5] CT
N
0 0 M
570 0 L
570 450 L
0 450 L
0 0 L
cp
clip
1 GC
N
0 0 570 450 re
f
GR
GS
[0.75 0 0 0.75 0 0.5] CT
1 GC
N
0 0 570 450 re
f
GR
GS
[0.75 0 0 0.75 0 0.5] CT
1 GC
N
57 400 M
394 400 L
394 34 L
57 34 L
cp
f
GR
GS
[0.75 0 0 0.75 0 0.5] CT
0.149 GC
2 setlinecap
1 LJ
0.667 LW
N
57 400 M
394 400 L
S
GR
GS
[0.75 0 0 0.75 0 0.5] CT
0.149 GC
2 setlinecap
1 LJ
0.667 LW
N
57 34 M
394 34 L
S
GR
GS
[0.75 0 0 0.75 0 0.5] CT
0.149 GC
2 setlinecap
1 LJ
0.667 LW
N
79.467 400 M
79.467 396.34 L
S
GR
GS
[0.75 0 0 0.75 0 0.5] CT
0.149 GC
2 setlinecap
1 LJ
0.667 LW
N
124.4 400 M
124.4 396.34 L
S
GR
GS
[0.75 0 0 0.75 0 0.5] CT
0.149 GC
2 setlinecap
1 LJ
0.667 LW
N
169.333 400 M
169.333 396.34 L
S
GR
GS
[0.75 0 0 0.75 0 0.5] CT
0.149 GC
2 setlinecap
1 LJ
0.667 LW
N
214.267 400 M
214.267 396.34 L
S
GR
GS
[0.75 0 0 0.75 0 0.5] CT
0.149 GC
2 setlinecap
1 LJ
0.667 LW
N
259.2 400 M
259.2 396.34 L
S
GR
GS
[0.75 0 0 0.75 0 0.5] CT
0.149 GC
2 setlinecap
1 LJ
0.667 LW
N
304.133 400 M
304.133 396.34 L
S
GR
GS
[0.75 0 0 0.75 0 0.5] CT
0.149 GC
2 setlinecap
1 LJ
0.667 LW
N
349.067 400 M
349.067 396.34 L
S
GR
GS
[0.75 0 0 0.75 0 0.5] CT
0.149 GC
2 setlinecap
1 LJ
0.667 LW
N
394 400 M
394 396.34 L
S
GR
GS
[0.75 0 0 0.75 0 0.5] CT
0.149 GC
2 setlinecap
1 LJ
0.667 LW
N
79.467 34 M
79.467 37.66 L
S
GR
GS
[0.75 0 0 0.75 0 0.5] CT
0.149 GC
2 setlinecap
1 LJ
0.667 LW
N
124.4 34 M
124.4 37.66 L
S
GR
GS
[0.75 0 0 0.75 0 0.5] CT
0.149 GC
2 setlinecap
1 LJ
0.667 LW
N
169.333 34 M
169.333 37.66 L
S
GR
GS
[0.75 0 0 0.75 0 0.5] CT
0.149 GC
2 setlinecap
1 LJ
0.667 LW
N
214.267 34 M
214.267 37.66 L
S
GR
GS
[0.75 0 0 0.75 0 0.5] CT
0.149 GC
2 setlinecap
1 LJ
0.667 LW
N
259.2 34 M
259.2 37.66 L
S
GR
GS
[0.75 0 0 0.75 0 0.5] CT
0.149 GC
2 setlinecap
1 LJ
0.667 LW
N
304.133 34 M
304.133 37.66 L
S
GR
GS
[0.75 0 0 0.75 0 0.5] CT
0.149 GC
2 setlinecap
1 LJ
0.667 LW
N
349.067 34 M
349.067 37.66 L
S
GR
GS
[0.75 0 0 0.75 0 0.5] CT
0.149 GC
2 setlinecap
1 LJ
0.667 LW
N
394 34 M
394 37.66 L
S
GR
GS
[0.75 0 0 0.75 59.6 304.50001] CT
0.149 GC
/Helvetica 13.333 F
GS
[1 0 0 1 0 0] CT
-8.5 13 moveto 
1 -1 scale
(30) t 
GR
GR
GS
[0.75 0 0 0.75 93.3 304.50001] CT
0.149 GC
/Helvetica 13.333 F
GS
[1 0 0 1 0 0] CT
-8.5 13 moveto 
1 -1 scale
(40) t 
GR
GR
GS
[0.75 0 0 0.75 127.00001 304.50001] CT
0.149 GC
/Helvetica 13.333 F
GS
[1 0 0 1 0 0] CT
-8.5 13 moveto 
1 -1 scale
(50) t 
GR
GR
GS
[0.75 0 0 0.75 160.7 304.50001] CT
0.149 GC
/Helvetica 13.333 F
GS
[1 0 0 1 0 0] CT
-8.5 13 moveto 
1 -1 scale
(60) t 
GR
GR
GS
[0.75 0 0 0.75 194.40001 304.50001] CT
0.149 GC
/Helvetica 13.333 F
GS
[1 0 0 1 0 0] CT
-8.5 13 moveto 
1 -1 scale
(70) t 
GR
GR
GS
[0.75 0 0 0.75 228.1 304.50001] CT
0.149 GC
/Helvetica 13.333 F
GS
[1 0 0 1 0 0] CT
-8.5 13 moveto 
1 -1 scale
(80) t 
GR
GR
GS
[0.75 0 0 0.75 261.80001 304.50001] CT
0.149 GC
/Helvetica 13.333 F
GS
[1 0 0 1 0 0] CT
-8.5 13 moveto 
1 -1 scale
(90) t 
GR
GR
GS
[0.75 0 0 0.75 295.5 304.50001] CT
0.149 GC
/Helvetica 13.333 F
GS
[1 0 0 1 0 0] CT
-12.5 13 moveto 
1 -1 scale
(100) t 
GR
GR
GS
[0.75 0 0 0.75 169.12513 318.24999] CT
0.149 GC
/Helvetica 14.667 F
GS
[1 0 0 1 0 0] CT
-24 14 moveto 
1 -1 scale
(Range) t 
GR
GR
GS
[0.75 0 0 0.75 0 0.5] CT
0.149 GC
2 setlinecap
1 LJ
0.667 LW
N
57 400 M
57 34 L
S
GR
GS
[0.75 0 0 0.75 0 0.5] CT
0.149 GC
2 setlinecap
1 LJ
0.667 LW
N
394 400 M
394 34 L
S
GR
GS
[0.75 0 0 0.75 0 0.5] CT
0.149 GC
2 setlinecap
1 LJ
0.667 LW
N
57 323.635 M
60.66 323.635 L
S
GR
GS
[0.75 0 0 0.75 0 0.5] CT
0.149 GC
2 setlinecap
1 LJ
0.667 LW
N
57 177.589 M
60.66 177.589 L
S
GR
GS
[0.75 0 0 0.75 0 0.5] CT
0.149 GC
2 setlinecap
1 LJ
0.667 LW
N
394 323.635 M
390.34 323.635 L
S
GR
GS
[0.75 0 0 0.75 0 0.5] CT
0.149 GC
2 setlinecap
1 LJ
0.667 LW
N
394 177.589 M
390.34 177.589 L
S
GR
GS
[0.75 0 0 0.75 0 0.5] CT
0.149 GC
2 setlinecap
1 LJ
0.667 LW
N
57 381.753 M
58.83 381.753 L
S
GR
GS
[0.75 0 0 0.75 0 0.5] CT
0.149 GC
2 setlinecap
1 LJ
0.667 LW
N
57 367.6 M
58.83 367.6 L
S
GR
GS
[0.75 0 0 0.75 0 0.5] CT
0.149 GC
2 setlinecap
1 LJ
0.667 LW
N
57 356.036 M
58.83 356.036 L
S
GR
GS
[0.75 0 0 0.75 0 0.5] CT
0.149 GC
2 setlinecap
1 LJ
0.667 LW
N
57 346.258 M
58.83 346.258 L
S
GR
GS
[0.75 0 0 0.75 0 0.5] CT
0.149 GC
2 setlinecap
1 LJ
0.667 LW
N
57 337.789 M
58.83 337.789 L
S
GR
GS
[0.75 0 0 0.75 0 0.5] CT
0.149 GC
2 setlinecap
1 LJ
0.667 LW
N
57 330.318 M
58.83 330.318 L
S
GR
GS
[0.75 0 0 0.75 0 0.5] CT
0.149 GC
2 setlinecap
1 LJ
0.667 LW
N
57 279.671 M
58.83 279.671 L
S
GR
GS
[0.75 0 0 0.75 0 0.5] CT
0.149 GC
2 setlinecap
1 LJ
0.667 LW
N
57 253.954 M
58.83 253.954 L
S
GR
GS
[0.75 0 0 0.75 0 0.5] CT
0.149 GC
2 setlinecap
1 LJ
0.667 LW
N
57 235.707 M
58.83 235.707 L
S
GR
GS
[0.75 0 0 0.75 0 0.5] CT
0.149 GC
2 setlinecap
1 LJ
0.667 LW
N
57 221.553 M
58.83 221.553 L
S
GR
GS
[0.75 0 0 0.75 0 0.5] CT
0.149 GC
2 setlinecap
1 LJ
0.667 LW
N
57 209.989 M
58.83 209.989 L
S
GR
GS
[0.75 0 0 0.75 0 0.5] CT
0.149 GC
2 setlinecap
1 LJ
0.667 LW
N
57 200.212 M
58.83 200.212 L
S
GR
GS
[0.75 0 0 0.75 0 0.5] CT
0.149 GC
2 setlinecap
1 LJ
0.667 LW
N
57 191.742 M
58.83 191.742 L
S
GR
GS
[0.75 0 0 0.75 0 0.5] CT
0.149 GC
2 setlinecap
1 LJ
0.667 LW
N
57 184.272 M
58.83 184.272 L
S
GR
GS
[0.75 0 0 0.75 0 0.5] CT
0.149 GC
2 setlinecap
1 LJ
0.667 LW
N
57 133.625 M
58.83 133.625 L
S
GR
GS
[0.75 0 0 0.75 0 0.5] CT
0.149 GC
2 setlinecap
1 LJ
0.667 LW
N
57 107.907 M
58.83 107.907 L
S
GR
GS
[0.75 0 0 0.75 0 0.5] CT
0.149 GC
2 setlinecap
1 LJ
0.667 LW
N
57 89.66 M
58.83 89.66 L
S
GR
GS
[0.75 0 0 0.75 0 0.5] CT
0.149 GC
2 setlinecap
1 LJ
0.667 LW
N
57 75.507 M
58.83 75.507 L
S
GR
GS
[0.75 0 0 0.75 0 0.5] CT
0.149 GC
2 setlinecap
1 LJ
0.667 LW
N
57 63.943 M
58.83 63.943 L
S
GR
GS
[0.75 0 0 0.75 0 0.5] CT
0.149 GC
2 setlinecap
1 LJ
0.667 LW
N
57 54.166 M
58.83 54.166 L
S
GR
GS
[0.75 0 0 0.75 0 0.5] CT
0.149 GC
2 setlinecap
1 LJ
0.667 LW
N
57 45.696 M
58.83 45.696 L
S
GR
GS
[0.75 0 0 0.75 0 0.5] CT
0.149 GC
2 setlinecap
1 LJ
0.667 LW
N
57 38.225 M
58.83 38.225 L
S
GR
GS
[0.75 0 0 0.75 0 0.5] CT
0.149 GC
2 setlinecap
1 LJ
0.667 LW
N
394 381.753 M
392.17 381.753 L
S
GR
GS
[0.75 0 0 0.75 0 0.5] CT
0.149 GC
2 setlinecap
1 LJ
0.667 LW
N
394 367.6 M
392.17 367.6 L
S
GR
GS
[0.75 0 0 0.75 0 0.5] CT
0.149 GC
2 setlinecap
1 LJ
0.667 LW
N
394 356.036 M
392.17 356.036 L
S
GR
GS
[0.75 0 0 0.75 0 0.5] CT
0.149 GC
2 setlinecap
1 LJ
0.667 LW
N
394 346.258 M
392.17 346.258 L
S
GR
GS
[0.75 0 0 0.75 0 0.5] CT
0.149 GC
2 setlinecap
1 LJ
0.667 LW
N
394 337.789 M
392.17 337.789 L
S
GR
GS
[0.75 0 0 0.75 0 0.5] CT
0.149 GC
2 setlinecap
1 LJ
0.667 LW
N
394 330.318 M
392.17 330.318 L
S
GR
GS
[0.75 0 0 0.75 0 0.5] CT
0.149 GC
2 setlinecap
1 LJ
0.667 LW
N
394 279.671 M
392.17 279.671 L
S
GR
GS
[0.75 0 0 0.75 0 0.5] CT
0.149 GC
2 setlinecap
1 LJ
0.667 LW
N
394 253.954 M
392.17 253.954 L
S
GR
GS
[0.75 0 0 0.75 0 0.5] CT
0.149 GC
2 setlinecap
1 LJ
0.667 LW
N
394 235.707 M
392.17 235.707 L
S
GR
GS
[0.75 0 0 0.75 0 0.5] CT
0.149 GC
2 setlinecap
1 LJ
0.667 LW
N
394 221.553 M
392.17 221.553 L
S
GR
GS
[0.75 0 0 0.75 0 0.5] CT
0.149 GC
2 setlinecap
1 LJ
0.667 LW
N
394 209.989 M
392.17 209.989 L
S
GR
GS
[0.75 0 0 0.75 0 0.5] CT
0.149 GC
2 setlinecap
1 LJ
0.667 LW
N
394 200.212 M
392.17 200.212 L
S
GR
GS
[0.75 0 0 0.75 0 0.5] CT
0.149 GC
2 setlinecap
1 LJ
0.667 LW
N
394 191.742 M
392.17 191.742 L
S
GR
GS
[0.75 0 0 0.75 0 0.5] CT
0.149 GC
2 setlinecap
1 LJ
0.667 LW
N
394 184.272 M
392.17 184.272 L
S
GR
GS
[0.75 0 0 0.75 0 0.5] CT
0.149 GC
2 setlinecap
1 LJ
0.667 LW
N
394 133.625 M
392.17 133.625 L
S
GR
GS
[0.75 0 0 0.75 0 0.5] CT
0.149 GC
2 setlinecap
1 LJ
0.667 LW
N
394 107.907 M
392.17 107.907 L
S
GR
GS
[0.75 0 0 0.75 0 0.5] CT
0.149 GC
2 setlinecap
1 LJ
0.667 LW
N
394 89.66 M
392.17 89.66 L
S
GR
GS
[0.75 0 0 0.75 0 0.5] CT
0.149 GC
2 setlinecap
1 LJ
0.667 LW
N
394 75.507 M
392.17 75.507 L
S
GR
GS
[0.75 0 0 0.75 0 0.5] CT
0.149 GC
2 setlinecap
1 LJ
0.667 LW
N
394 63.943 M
392.17 63.943 L
S
GR
GS
[0.75 0 0 0.75 0 0.5] CT
0.149 GC
2 setlinecap
1 LJ
0.667 LW
N
394 54.166 M
392.17 54.166 L
S
GR
GS
[0.75 0 0 0.75 0 0.5] CT
0.149 GC
2 setlinecap
1 LJ
0.667 LW
N
394 45.696 M
392.17 45.696 L
S
GR
GS
[0.75 0 0 0.75 0 0.5] CT
0.149 GC
2 setlinecap
1 LJ
0.667 LW
N
394 38.225 M
392.17 38.225 L
S
GR
GS
[0.75 0 0 0.75 21 248.75] CT
0.149 GC
/Helvetica 13.333 F
GS
[1 0 0 1 0 0] CT
0 0 moveto 
1 -1 scale
(10) t 
GR
GR
GS
[0.75 0 0 0.75 33.75 244.25] CT
0.149 GC
/Helvetica 10.667 F
GS
[1 0 0 1 0 0] CT
0 0 moveto 
1 -1 scale
(1) t 
GR
GR
GS
[0.75 0 0 0.75 21 139.25] CT
0.149 GC
/Helvetica 13.333 F
GS
[1 0 0 1 0 0] CT
0 0 moveto 
1 -1 scale
(10) t 
GR
GR
GS
[0.75 0 0 0.75 33.75 134.75] CT
0.149 GC
/Helvetica 10.667 F
GS
[1 0 0 1 0 0] CT
0 0 moveto 
1 -1 scale
(2) t 
GR
GR
GS
[0 -0.75 0.75 0 17.75 163.24987] CT
0.149 GC
/Helvetica 14.667 F
GS
[1 0 0 1 0 0] CT
-11.5 -4 moveto 
1 -1 scale
(#g) t 
GR
GR
GS
[0.75 0 0 0.75 0 0.5] CT
0 0 1 RC
1 LJ
0.667 LW
N
394 400 M
281.667 256.104 L
169.333 256.104 L
57 265.518 L
S
GR
GS
[0.75 0 0 0.75 0 0.5] CT
0 0 1 RC
1 LJ
N
398.5 399.5 M
397.736 397.149 L
395.736 395.696 L
393.264 395.696 L
391.264 397.149 L
390.5 399.5 L
391.264 401.851 L
393.264 403.304 L
395.736 403.304 L
397.736 401.851 L
cp
S
GR
GS
[0.75 0 0 0.75 0 0.5] CT
0 0 1 RC
1 LJ
N
285.5 256.5 M
284.736 254.149 L
282.736 252.696 L
280.264 252.696 L
278.264 254.149 L
277.5 256.5 L
278.264 258.851 L
280.264 260.304 L
282.736 260.304 L
284.736 258.851 L
cp
S
GR
GS
[0.75 0 0 0.75 0 0.5] CT
0 0 1 RC
1 LJ
N
173.5 256.5 M
172.736 254.149 L
170.736 252.696 L
168.264 252.696 L
166.264 254.149 L
165.5 256.5 L
166.264 258.851 L
168.264 260.304 L
170.736 260.304 L
172.736 258.851 L
cp
S
GR
GS
[0.75 0 0 0.75 0 0.5] CT
0 0 1 RC
1 LJ
N
61.5 265.5 M
60.736 263.149 L
58.736 261.696 L
56.264 261.696 L
54.264 263.149 L
53.5 265.5 L
54.264 267.851 L
56.264 269.304 L
58.736 269.304 L
60.736 267.851 L
cp
S
GR
GS
[0.75 0 0 0.75 0 0.5] CT
0 1 0 RC
1 LJ
0.667 LW
N
394 400 M
281.667 256.104 L
169.333 256.104 L
57 265.518 L
S
GR
GS
[0.75 0 0 0.75 0 0.5] CT
0 1 0 RC
1 LJ
N
398.5 399.5 M
397.736 397.149 L
395.736 395.696 L
393.264 395.696 L
391.264 397.149 L
390.5 399.5 L
391.264 401.851 L
393.264 403.304 L
395.736 403.304 L
397.736 401.851 L
cp
S
GR
GS
[0.75 0 0 0.75 0 0.5] CT
0 1 0 RC
1 LJ
N
285.5 256.5 M
284.736 254.149 L
282.736 252.696 L
280.264 252.696 L
278.264 254.149 L
277.5 256.5 L
278.264 258.851 L
280.264 260.304 L
282.736 260.304 L
284.736 258.851 L
cp
S
GR
GS
[0.75 0 0 0.75 0 0.5] CT
0 1 0 RC
1 LJ
N
173.5 256.5 M
172.736 254.149 L
170.736 252.696 L
168.264 252.696 L
166.264 254.149 L
165.5 256.5 L
166.264 258.851 L
168.264 260.304 L
170.736 260.304 L
172.736 258.851 L
cp
S
GR
GS
[0.75 0 0 0.75 0 0.5] CT
0 1 0 RC
1 LJ
N
61.5 265.5 M
60.736 263.149 L
58.736 261.696 L
56.264 261.696 L
54.264 263.149 L
53.5 265.5 L
54.264 267.851 L
56.264 269.304 L
58.736 269.304 L
60.736 267.851 L
cp
S
GR
GS
[0.75 0 0 0.75 0 0.5] CT
1 0 0 RC
1 LJ
0.667 LW
N
394 367.6 M
281.667 215.508 L
169.333 215.508 L
57 225.478 L
S
GR
GS
[0.75 0 0 0.75 0 0.5] CT
1 0 0 RC
1 LJ
N
398.5 367.5 M
397.736 365.149 L
395.736 363.696 L
393.264 363.696 L
391.264 365.149 L
390.5 367.5 L
391.264 369.851 L
393.264 371.304 L
395.736 371.304 L
397.736 369.851 L
cp
S
GR
GS
[0.75 0 0 0.75 0 0.5] CT
1 0 0 RC
1 LJ
N
285.5 215.5 M
284.736 213.149 L
282.736 211.696 L
280.264 211.696 L
278.264 213.149 L
277.5 215.5 L
278.264 217.851 L
280.264 219.304 L
282.736 219.304 L
284.736 217.851 L
cp
S
GR
GS
[0.75 0 0 0.75 0 0.5] CT
1 0 0 RC
1 LJ
N
173.5 215.5 M
172.736 213.149 L
170.736 211.696 L
168.264 211.696 L
166.264 213.149 L
165.5 215.5 L
166.264 217.851 L
168.264 219.304 L
170.736 219.304 L
172.736 217.851 L
cp
S
GR
GS
[0.75 0 0 0.75 0 0.5] CT
1 0 0 RC
1 LJ
N
61.5 225.5 M
60.736 223.149 L
58.736 221.696 L
56.264 221.696 L
54.264 223.149 L
53.5 225.5 L
54.264 227.851 L
56.264 229.304 L
58.736 229.304 L
60.736 227.851 L
cp
S
GR
GS
[0.75 0 0 0.75 0 0.5] CT
0 1 1 RC
1 LJ
0.667 LW
N
394 367.6 M
281.667 215.508 L
169.333 215.508 L
57 225.478 L
S
GR
GS
[0.75 0 0 0.75 0 0.5] CT
0 1 1 RC
1 LJ
N
398.5 367.5 M
397.736 365.149 L
395.736 363.696 L
393.264 363.696 L
391.264 365.149 L
390.5 367.5 L
391.264 369.851 L
393.264 371.304 L
395.736 371.304 L
397.736 369.851 L
cp
S
GR
GS
[0.75 0 0 0.75 0 0.5] CT
0 1 1 RC
1 LJ
N
285.5 215.5 M
284.736 213.149 L
282.736 211.696 L
280.264 211.696 L
278.264 213.149 L
277.5 215.5 L
278.264 217.851 L
280.264 219.304 L
282.736 219.304 L
284.736 217.851 L
cp
S
GR
GS
[0.75 0 0 0.75 0 0.5] CT
0 1 1 RC
1 LJ
N
173.5 215.5 M
172.736 213.149 L
170.736 211.696 L
168.264 211.696 L
166.264 213.149 L
165.5 215.5 L
166.264 217.851 L
168.264 219.304 L
170.736 219.304 L
172.736 217.851 L
cp
S
GR
GS
[0.75 0 0 0.75 0 0.5] CT
0 1 1 RC
1 LJ
N
61.5 225.5 M
60.736 223.149 L
58.736 221.696 L
56.264 221.696 L
54.264 223.149 L
53.5 225.5 L
54.264 227.851 L
56.264 229.304 L
58.736 229.304 L
60.736 227.851 L
cp
S
GR
GS
[0.75 0 0 0.75 0 0.5] CT
1 0 1 RC
1 LJ
0.667 LW
N
394 400 M
281.667 260.636 L
169.333 260.636 L
57 270.806 L
S
GR
GS
[0.75 0 0 0.75 0 0.5] CT
1 0 1 RC
1 LJ
N
398.5 399.5 M
397.736 397.149 L
395.736 395.696 L
393.264 395.696 L
391.264 397.149 L
390.5 399.5 L
391.264 401.851 L
393.264 403.304 L
395.736 403.304 L
397.736 401.851 L
cp
S
GR
GS
[0.75 0 0 0.75 0 0.5] CT
1 0 1 RC
1 LJ
N
285.5 260.5 M
284.736 258.149 L
282.736 256.696 L
280.264 256.696 L
278.264 258.149 L
277.5 260.5 L
278.264 262.851 L
280.264 264.304 L
282.736 264.304 L
284.736 262.851 L
cp
S
GR
GS
[0.75 0 0 0.75 0 0.5] CT
1 0 1 RC
1 LJ
N
173.5 260.5 M
172.736 258.149 L
170.736 256.696 L
168.264 256.696 L
166.264 258.149 L
165.5 260.5 L
166.264 262.851 L
168.264 264.304 L
170.736 264.304 L
172.736 262.851 L
cp
S
GR
GS
[0.75 0 0 0.75 0 0.5] CT
1 0 1 RC
1 LJ
N
61.5 270.5 M
60.736 268.149 L
58.736 266.696 L
56.264 266.696 L
54.264 268.149 L
53.5 270.5 L
54.264 272.851 L
56.264 274.304 L
58.736 274.304 L
60.736 272.851 L
cp
S
GR
GS
[0.75 0 0 0.75 0 0.5] CT
1 LJ
0.667 LW
N
394 164.459 M
281.667 45.38 L
169.333 75.761 L
57 80.934 L
S
GR
GS
[0.75 0 0 0.75 0 0.5] CT
1 LJ
N
398.5 164.5 M
397.736 162.149 L
395.736 160.696 L
393.264 160.696 L
391.264 162.149 L
390.5 164.5 L
391.264 166.851 L
393.264 168.304 L
395.736 168.304 L
397.736 166.851 L
cp
S
GR
GS
[0.75 0 0 0.75 0 0.5] CT
1 LJ
N
285.5 45.5 M
284.736 43.149 L
282.736 41.696 L
280.264 41.696 L
278.264 43.149 L
277.5 45.5 L
278.264 47.851 L
280.264 49.304 L
282.736 49.304 L
284.736 47.851 L
cp
S
GR
GS
[0.75 0 0 0.75 0 0.5] CT
1 LJ
N
173.5 75.5 M
172.736 73.149 L
170.736 71.696 L
168.264 71.696 L
166.264 73.149 L
165.5 75.5 L
166.264 77.851 L
168.264 79.304 L
170.736 79.304 L
172.736 77.851 L
cp
S
GR
GS
[0.75 0 0 0.75 0 0.5] CT
1 LJ
N
61.5 80.5 M
60.736 78.149 L
58.736 76.696 L
56.264 76.696 L
54.264 78.149 L
53.5 80.5 L
54.264 82.851 L
56.264 84.304 L
58.736 84.304 L
60.736 82.851 L
cp
S
GR
GS
[0.75 0 0 0.75 0 0.5] CT
0 0 1 RC
[8 3 2 3] 0 setdash
2 LJ
0.667 LW
N
394 159.501 M
281.667 34 L
169.333 43.591 L
57 54.62 L
S
GR
GS
[0.75 0 0 0.75 0 0.5] CT
0 0 1 RC
10.0 ML
N
394.5 164.832 M
398.5 159.5 L
394.5 154.168 L
390.5 159.5 L
cp
S
GR
GS
[0.75 0 0 0.75 0 0.5] CT
0 0 1 RC
10.0 ML
N
281.5 38.832 M
285.5 33.5 L
281.5 28.168 L
277.5 33.5 L
cp
S
GR
GS
[0.75 0 0 0.75 0 0.5] CT
0 0 1 RC
10.0 ML
N
169.5 48.832 M
173.5 43.5 L
169.5 38.168 L
165.5 43.5 L
cp
S
GR
GS
[0.75 0 0 0.75 0 0.5] CT
0 0 1 RC
10.0 ML
N
57.5 59.832 M
61.5 54.5 L
57.5 49.168 L
53.5 54.5 L
cp
S
GR
GS
[0.75 0 0 0.75 0 0.5] CT
0 1 0 RC
[8 3 2 3] 0 setdash
2 LJ
0.667 LW
N
394 346.258 M
281.667 346.258 L
169.333 346.258 L
57 346.258 L
S
GR
GS
[0.75 0 0 0.75 0 0.5] CT
0 1 0 RC
10.0 ML
N
394.5 351.832 M
398.5 346.5 L
394.5 341.168 L
390.5 346.5 L
cp
S
GR
GS
[0.75 0 0 0.75 0 0.5] CT
0 1 0 RC
10.0 ML
N
281.5 351.832 M
285.5 346.5 L
281.5 341.168 L
277.5 346.5 L
cp
S
GR
GS
[0.75 0 0 0.75 0 0.5] CT
0 1 0 RC
10.0 ML
N
169.5 351.832 M
173.5 346.5 L
169.5 341.168 L
165.5 346.5 L
cp
S
GR
GS
[0.75 0 0 0.75 0 0.5] CT
0 1 0 RC
10.0 ML
N
57.5 351.832 M
61.5 346.5 L
57.5 341.168 L
53.5 346.5 L
cp
S
GR
GS
[0.75 0 0 0.75 0 0.5] CT
1 0 0 RC
[8 3 2 3] 0 setdash
2 LJ
0.667 LW
N
394 161.932 M
281.667 89.819 L
169.333 86.869 L
57 120.753 L
S
GR
GS
[0.75 0 0 0.75 0 0.5] CT
1 0 0 RC
10.0 ML
N
394.5 166.832 M
398.5 161.5 L
394.5 156.168 L
390.5 161.5 L
cp
S
GR
GS
[0.75 0 0 0.75 0 0.5] CT
1 0 0 RC
10.0 ML
N
281.5 94.832 M
285.5 89.5 L
281.5 84.168 L
277.5 89.5 L
cp
S
GR
GS
[0.75 0 0 0.75 0 0.5] CT
1 0 0 RC
10.0 ML
N
169.5 91.832 M
173.5 86.5 L
169.5 81.168 L
165.5 86.5 L
cp
S
GR
GS
[0.75 0 0 0.75 0 0.5] CT
1 0 0 RC
10.0 ML
N
57.5 125.832 M
61.5 120.5 L
57.5 115.168 L
53.5 120.5 L
cp
S
GR
GS
[0.75 0 0 0.75 0 0.5] CT
0 1 1 RC
[8 3 2 3] 0 setdash
2 LJ
0.667 LW
N
394 302.294 M
281.667 306.994 L
169.333 312.071 L
57 289.979 L
S
GR
GS
[0.75 0 0 0.75 0 0.5] CT
0 1 1 RC
10.0 ML
N
394.5 307.832 M
398.5 302.5 L
394.5 297.168 L
390.5 302.5 L
cp
S
GR
GS
[0.75 0 0 0.75 0 0.5] CT
0 1 1 RC
10.0 ML
N
281.5 311.832 M
285.5 306.5 L
281.5 301.168 L
277.5 306.5 L
cp
S
GR
GS
[0.75 0 0 0.75 0 0.5] CT
0 1 1 RC
10.0 ML
N
169.5 317.832 M
173.5 312.5 L
169.5 307.168 L
165.5 312.5 L
cp
S
GR
GS
[0.75 0 0 0.75 0 0.5] CT
0 1 1 RC
10.0 ML
N
57.5 294.832 M
61.5 289.5 L
57.5 284.168 L
53.5 289.5 L
cp
S
GR
GS
[0.75 0 0 0.75 0 0.5] CT
1 GC
N
420 192 M
420 34 L
529 34 L
529 192 L
cp
f
GR
GS
[0.75 0 0 0.75 342.75 33.10252] CT
/Helvetica 12 F
GS
[1 0 0 1 0 0] CT
0 4.5 moveto 
1 -1 scale
(Tmplsqr) t 
GR
GR
GS
[0.75 0 0 0.75 0 0.5] CT
0 0 1 RC
1 LJ
0.667 LW
N
424 43.47 M
454 43.47 L
S
GR
GS
[0.75 0 0 0.75 0 0.5] CT
0 0 1 RC
1 LJ
N
443.5 43.5 M
442.736 41.149 L
440.736 39.696 L
438.264 39.696 L
436.264 41.149 L
435.5 43.5 L
436.264 45.851 L
438.264 47.304 L
440.736 47.304 L
442.736 45.851 L
cp
S
GR
GS
[0.75 0 0 0.75 342.75 44.69085] CT
/Helvetica 12 F
GS
[1 0 0 1 0 0] CT
0 4.5 moveto 
1 -1 scale
(Tmplsmr) t 
GR
GR
GS
[0.75 0 0 0.75 0 0.5] CT
0 1 0 RC
1 LJ
0.667 LW
N
424 58.921 M
454 58.921 L
S
GR
GS
[0.75 0 0 0.75 0 0.5] CT
0 1 0 RC
1 LJ
N
443.5 58.5 M
442.736 56.149 L
440.736 54.696 L
438.264 54.696 L
436.264 56.149 L
435.5 58.5 L
436.264 60.851 L
438.264 62.304 L
440.736 62.304 L
442.736 60.851 L
cp
S
GR
GS
[0.75 0 0 0.75 342.75 56.27918] CT
/Helvetica 12 F
GS
[1 0 0 1 0 0] CT
0 4.5 moveto 
1 -1 scale
(Tmppcg) t 
GR
GR
GS
[0.75 0 0 0.75 0 0.5] CT
1 0 0 RC
1 LJ
0.667 LW
N
424 74.372 M
454 74.372 L
S
GR
GS
[0.75 0 0 0.75 0 0.5] CT
1 0 0 RC
1 LJ
N
443.5 74.5 M
442.736 72.149 L
440.736 70.696 L
438.264 70.696 L
436.264 72.149 L
435.5 74.5 L
436.264 76.851 L
438.264 78.304 L
440.736 78.304 L
442.736 76.851 L
cp
S
GR
GS
[0.75 0 0 0.75 342.75 67.86751] CT
/Helvetica 12 F
GS
[1 0 0 1 0 0] CT
0 4.5 moveto 
1 -1 scale
(Tmpminres) t 
GR
GR
GS
[0.75 0 0 0.75 0 0.5] CT
0 1 1 RC
1 LJ
0.667 LW
N
424 89.823 M
454 89.823 L
S
GR
GS
[0.75 0 0 0.75 0 0.5] CT
0 1 1 RC
1 LJ
N
443.5 89.5 M
442.736 87.149 L
440.736 85.696 L
438.264 85.696 L
436.264 87.149 L
435.5 89.5 L
436.264 91.851 L
438.264 93.304 L
440.736 93.304 L
442.736 91.851 L
cp
S
GR
GS
[0.75 0 0 0.75 342.75 79.45584] CT
/Helvetica 12 F
GS
[1 0 0 1 0 0] CT
0 4.5 moveto 
1 -1 scale
(Pnb) t 
GR
GR
GS
[0.75 0 0 0.75 0 0.5] CT
1 0 1 RC
1 LJ
0.667 LW
N
424 105.274 M
454 105.274 L
S
GR
GS
[0.75 0 0 0.75 0 0.5] CT
1 0 1 RC
1 LJ
N
443.5 105.5 M
442.736 103.149 L
440.736 101.696 L
438.264 101.696 L
436.264 103.149 L
435.5 105.5 L
436.264 107.851 L
438.264 109.304 L
440.736 109.304 L
442.736 107.851 L
cp
S
GR
GS
[0.75 0 0 0.75 342.75 91.04416] CT
/Helvetica 12 F
GS
[1 0 0 1 0 0] CT
0 4.5 moveto 
1 -1 scale
(Bb) t 
GR
GR
GS
[0.75 0 0 0.75 0 0.5] CT
1 LJ
0.667 LW
N
424 120.726 M
454 120.726 L
S
GR
GS
[0.75 0 0 0.75 0 0.5] CT
1 LJ
N
443.5 120.5 M
442.736 118.149 L
440.736 116.696 L
438.264 116.696 L
436.264 118.149 L
435.5 120.5 L
436.264 122.851 L
438.264 124.304 L
440.736 124.304 L
442.736 122.851 L
cp
S
GR
GS
[0.75 0 0 0.75 342.75 102.63249] CT
/Helvetica 12 F
GS
[1 0 0 1 0 0] CT
0 4.5 moveto 
1 -1 scale
(Spg) t 
GR
GR
GS
[0.75 0 0 0.75 0 0.5] CT
0 0 1 RC
[8 3 2 3] 0 setdash
2 LJ
0.667 LW
N
424 136.177 M
454 136.177 L
S
GR
GS
[0.75 0 0 0.75 0 0.5] CT
0 0 1 RC
10.0 ML
N
439.5 141.832 M
443.5 136.5 L
439.5 131.168 L
435.5 136.5 L
cp
S
GR
GS
[0.75 0 0 0.75 342.75 114.22082] CT
/Helvetica 12 F
GS
[1 0 0 1 0 0] CT
0 4.5 moveto 
1 -1 scale
(Pqn) t 
GR
GR
GS
[0.75 0 0 0.75 0 0.5] CT
0 1 0 RC
[8 3 2 3] 0 setdash
2 LJ
0.667 LW
N
424 151.628 M
454 151.628 L
S
GR
GS
[0.75 0 0 0.75 0 0.5] CT
0 1 0 RC
10.0 ML
N
439.5 156.832 M
443.5 151.5 L
439.5 146.168 L
435.5 151.5 L
cp
S
GR
GS
[0.75 0 0 0.75 342.75 125.80915] CT
/Helvetica 12 F
GS
[1 0 0 1 0 0] CT
0 4.5 moveto 
1 -1 scale
(Lbfgsb) t 
GR
GR
GS
[0.75 0 0 0.75 0 0.5] CT
1 0 0 RC
[8 3 2 3] 0 setdash
2 LJ
0.667 LW
N
424 167.079 M
454 167.079 L
S
GR
GS
[0.75 0 0 0.75 0 0.5] CT
1 0 0 RC
10.0 ML
N
439.5 172.832 M
443.5 167.5 L
439.5 162.168 L
435.5 167.5 L
cp
S
GR
GS
[0.75 0 0 0.75 342.75 137.39748] CT
/Helvetica 12 F
GS
[1 0 0 1 0 0] CT
0 4.5 moveto 
1 -1 scale
(Bcflash) t 
GR
GR
GS
[0.75 0 0 0.75 0 0.5] CT
0 1 1 RC
[8 3 2 3] 0 setdash
2 LJ
0.667 LW
N
424 182.53 M
454 182.53 L
S
GR
GS
[0.75 0 0 0.75 0 0.5] CT
0 1 1 RC
10.0 ML
N
439.5 187.832 M
443.5 182.5 L
439.5 177.168 L
435.5 182.5 L
cp
S
GR
GS
[0.75 0 0 0.75 0 0.5] CT
0.149 GC
10.0 ML
0.667 LW
N
420 192 M
420 34 L
529 34 L
529 192 L
cp
S
GR
%%Trailer
%%Pages: 1
%%EOF
