%!PS-Adobe-3.0 EPSF-3.0
%%Creator: (MATLAB, The Mathworks, Inc. Version 9.0.0.341360 \(R2016a\). Operating System: Linux)
%%Title: data/fact1Rangeiter.eps
%%CreationDate: 2017-02-05T08:23:55
%%Pages: (atend)
%%BoundingBox:     4     3   391   296
%%LanguageLevel: 3
%%EndComments
%%BeginProlog
%%BeginResource: procset (Apache XML Graphics Std ProcSet) 1.2 0
%%Version: 1.2 0
%%Copyright: (Copyright 2001-2003,2010 The Apache Software Foundation. License terms: http://www.apache.org/licenses/LICENSE-2.0)
/bd{bind def}bind def
/ld{load def}bd
/GR/grestore ld
/M/moveto ld
/LJ/setlinejoin ld
/C/curveto ld
/f/fill ld
/LW/setlinewidth ld
/GC/setgray ld
/t/show ld
/N/newpath ld
/CT/concat ld
/cp/closepath ld
/S/stroke ld
/L/lineto ld
/CC/setcmykcolor ld
/A/ashow ld
/GS/gsave ld
/RC/setrgbcolor ld
/RM/rmoveto ld
/ML/setmiterlimit ld
/re {4 2 roll M
1 index 0 rlineto
0 exch rlineto
neg 0 rlineto
cp } bd
/_ctm matrix def
/_tm matrix def
/BT { _ctm currentmatrix pop matrix _tm copy pop 0 0 moveto } bd
/ET { _ctm setmatrix } bd
/iTm { _ctm setmatrix _tm concat } bd
/Tm { _tm astore pop iTm 0 0 moveto } bd
/ux 0.0 def
/uy 0.0 def
/F {
  /Tp exch def
  /Tf exch def
  Tf findfont Tp scalefont setfont
  /cf Tf def  /cs Tp def
} bd
/ULS {currentpoint /uy exch def /ux exch def} bd
/ULE {
  /Tcx currentpoint pop def
  gsave
  newpath
  cf findfont cs scalefont dup
  /FontMatrix get 0 get /Ts exch def /FontInfo get dup
  /UnderlinePosition get Ts mul /To exch def
  /UnderlineThickness get Ts mul /Tt exch def
  ux uy To add moveto  Tcx uy To add lineto
  Tt setlinewidth stroke
  grestore
} bd
/OLE {
  /Tcx currentpoint pop def
  gsave
  newpath
  cf findfont cs scalefont dup
  /FontMatrix get 0 get /Ts exch def /FontInfo get dup
  /UnderlinePosition get Ts mul /To exch def
  /UnderlineThickness get Ts mul /Tt exch def
  ux uy To add cs add moveto Tcx uy To add cs add lineto
  Tt setlinewidth stroke
  grestore
} bd
/SOE {
  /Tcx currentpoint pop def
  gsave
  newpath
  cf findfont cs scalefont dup
  /FontMatrix get 0 get /Ts exch def /FontInfo get dup
  /UnderlinePosition get Ts mul /To exch def
  /UnderlineThickness get Ts mul /Tt exch def
  ux uy To add cs 10 mul 26 idiv add moveto Tcx uy To add cs 10 mul 26 idiv add lineto
  Tt setlinewidth stroke
  grestore
} bd
/QT {
/Y22 exch store
/X22 exch store
/Y21 exch store
/X21 exch store
currentpoint
/Y21 load 2 mul add 3 div exch
/X21 load 2 mul add 3 div exch
/X21 load 2 mul /X22 load add 3 div
/Y21 load 2 mul /Y22 load add 3 div
/X22 load /Y22 load curveto
} bd
/SSPD {
dup length /d exch dict def
{
/v exch def
/k exch def
currentpagedevice k known {
/cpdv currentpagedevice k get def
v cpdv ne {
/upd false def
/nullv v type /nulltype eq def
/nullcpdv cpdv type /nulltype eq def
nullv nullcpdv or
{
/upd true def
} {
/sametype v type cpdv type eq def
sametype {
v type /arraytype eq {
/vlen v length def
/cpdvlen cpdv length def
vlen cpdvlen eq {
0 1 vlen 1 sub {
/i exch def
/obj v i get def
/cpdobj cpdv i get def
obj cpdobj ne {
/upd true def
exit
} if
} for
} {
/upd true def
} ifelse
} {
v type /dicttype eq {
v {
/dv exch def
/dk exch def
/cpddv cpdv dk get def
dv cpddv ne {
/upd true def
exit
} if
} forall
} {
/upd true def
} ifelse
} ifelse
} if
} ifelse
upd true eq {
d k v put
} if
} if
} if
} forall
d length 0 gt {
d setpagedevice
} if
} bd
%%EndResource
%%BeginResource: procset (Apache XML Graphics EPS ProcSet) 1.0 0
%%Version: 1.0 0
%%Copyright: (Copyright 2002-2003 The Apache Software Foundation. License terms: http://www.apache.org/licenses/LICENSE-2.0)
/BeginEPSF { %def
/b4_Inc_state save def         % Save state for cleanup
/dict_count countdictstack def % Count objects on dict stack
/op_count count 1 sub def      % Count objects on operand stack
userdict begin                 % Push userdict on dict stack
/showpage { } def              % Redefine showpage, { } = null proc
0 setgray 0 setlinecap         % Prepare graphics state
1 setlinewidth 0 setlinejoin
10 setmiterlimit [ ] 0 setdash newpath
/languagelevel where           % If level not equal to 1 then
{pop languagelevel             % set strokeadjust and
1 ne                           % overprint to their defaults.
{false setstrokeadjust false setoverprint
} if
} if
} bd
/EndEPSF { %def
count op_count sub {pop} repeat            % Clean up stacks
countdictstack dict_count sub {end} repeat
b4_Inc_state restore
} bd
%%EndResource
%FOPBeginFontDict
%%IncludeResource: font Courier-Bold
%%IncludeResource: font Helvetica
%%IncludeResource: font Courier-BoldOblique
%%IncludeResource: font Courier-Oblique
%%IncludeResource: font Times-Roman
%%IncludeResource: font Helvetica-BoldOblique
%%IncludeResource: font Helvetica-Bold
%%IncludeResource: font Helvetica-Oblique
%%IncludeResource: font Times-BoldItalic
%%IncludeResource: font Courier
%%IncludeResource: font Times-Italic
%%IncludeResource: font Times-Bold
%%IncludeResource: font Symbol
%%IncludeResource: font ZapfDingbats
%FOPEndFontDict
%%BeginResource: encoding WinAnsiEncoding
/WinAnsiEncoding [
/.notdef /.notdef /.notdef /.notdef /.notdef
/.notdef /.notdef /.notdef /.notdef /.notdef
/.notdef /.notdef /.notdef /.notdef /.notdef
/.notdef /.notdef /.notdef /.notdef /.notdef
/.notdef /.notdef /.notdef /.notdef /.notdef
/.notdef /.notdef /.notdef /.notdef /.notdef
/.notdef /.notdef /space /exclam /quotedbl
/numbersign /dollar /percent /ampersand /quotesingle
/parenleft /parenright /asterisk /plus /comma
/hyphen /period /slash /zero /one
/two /three /four /five /six
/seven /eight /nine /colon /semicolon
/less /equal /greater /question /at
/A /B /C /D /E
/F /G /H /I /J
/K /L /M /N /O
/P /Q /R /S /T
/U /V /W /X /Y
/Z /bracketleft /backslash /bracketright /asciicircum
/underscore /quoteleft /a /b /c
/d /e /f /g /h
/i /j /k /l /m
/n /o /p /q /r
/s /t /u /v /w
/x /y /z /braceleft /bar
/braceright /asciitilde /bullet /Euro /bullet
/quotesinglbase /florin /quotedblbase /ellipsis /dagger
/daggerdbl /circumflex /perthousand /Scaron /guilsinglleft
/OE /bullet /Zcaron /bullet /bullet
/quoteleft /quoteright /quotedblleft /quotedblright /bullet
/endash /emdash /asciitilde /trademark /scaron
/guilsinglright /oe /bullet /zcaron /Ydieresis
/space /exclamdown /cent /sterling /currency
/yen /brokenbar /section /dieresis /copyright
/ordfeminine /guillemotleft /logicalnot /sfthyphen /registered
/macron /degree /plusminus /twosuperior /threesuperior
/acute /mu /paragraph /middot /cedilla
/onesuperior /ordmasculine /guillemotright /onequarter /onehalf
/threequarters /questiondown /Agrave /Aacute /Acircumflex
/Atilde /Adieresis /Aring /AE /Ccedilla
/Egrave /Eacute /Ecircumflex /Edieresis /Igrave
/Iacute /Icircumflex /Idieresis /Eth /Ntilde
/Ograve /Oacute /Ocircumflex /Otilde /Odieresis
/multiply /Oslash /Ugrave /Uacute /Ucircumflex
/Udieresis /Yacute /Thorn /germandbls /agrave
/aacute /acircumflex /atilde /adieresis /aring
/ae /ccedilla /egrave /eacute /ecircumflex
/edieresis /igrave /iacute /icircumflex /idieresis
/eth /ntilde /ograve /oacute /ocircumflex
/otilde /odieresis /divide /oslash /ugrave
/uacute /ucircumflex /udieresis /yacute /thorn
/ydieresis
] def
%%EndResource
%FOPBeginFontReencode
/Courier-Bold findfont
dup length dict begin
  {1 index /FID ne {def} {pop pop} ifelse} forall
  /Encoding WinAnsiEncoding def
  currentdict
end
/Courier-Bold exch definefont pop
/Helvetica findfont
dup length dict begin
  {1 index /FID ne {def} {pop pop} ifelse} forall
  /Encoding WinAnsiEncoding def
  currentdict
end
/Helvetica exch definefont pop
/Courier-BoldOblique findfont
dup length dict begin
  {1 index /FID ne {def} {pop pop} ifelse} forall
  /Encoding WinAnsiEncoding def
  currentdict
end
/Courier-BoldOblique exch definefont pop
/Courier-Oblique findfont
dup length dict begin
  {1 index /FID ne {def} {pop pop} ifelse} forall
  /Encoding WinAnsiEncoding def
  currentdict
end
/Courier-Oblique exch definefont pop
/Times-Roman findfont
dup length dict begin
  {1 index /FID ne {def} {pop pop} ifelse} forall
  /Encoding WinAnsiEncoding def
  currentdict
end
/Times-Roman exch definefont pop
/Helvetica-BoldOblique findfont
dup length dict begin
  {1 index /FID ne {def} {pop pop} ifelse} forall
  /Encoding WinAnsiEncoding def
  currentdict
end
/Helvetica-BoldOblique exch definefont pop
/Helvetica-Bold findfont
dup length dict begin
  {1 index /FID ne {def} {pop pop} ifelse} forall
  /Encoding WinAnsiEncoding def
  currentdict
end
/Helvetica-Bold exch definefont pop
/Helvetica-Oblique findfont
dup length dict begin
  {1 index /FID ne {def} {pop pop} ifelse} forall
  /Encoding WinAnsiEncoding def
  currentdict
end
/Helvetica-Oblique exch definefont pop
/Times-BoldItalic findfont
dup length dict begin
  {1 index /FID ne {def} {pop pop} ifelse} forall
  /Encoding WinAnsiEncoding def
  currentdict
end
/Times-BoldItalic exch definefont pop
/Courier findfont
dup length dict begin
  {1 index /FID ne {def} {pop pop} ifelse} forall
  /Encoding WinAnsiEncoding def
  currentdict
end
/Courier exch definefont pop
/Times-Italic findfont
dup length dict begin
  {1 index /FID ne {def} {pop pop} ifelse} forall
  /Encoding WinAnsiEncoding def
  currentdict
end
/Times-Italic exch definefont pop
/Times-Bold findfont
dup length dict begin
  {1 index /FID ne {def} {pop pop} ifelse} forall
  /Encoding WinAnsiEncoding def
  currentdict
end
/Times-Bold exch definefont pop
%FOPEndFontReencode
%%EndProlog
%%Page: 1 1
%%PageBoundingBox: 0 0 420 315
%%BeginPageSetup
[1 0 0 -1 0 315] CT
%%EndPageSetup
GS
[0.75 0 0 0.75 0 0] CT
1 GC
N
0 0 560 420 re
f
GR
GS
[0.75 0 0 0.75 0 0] CT
1 GC
N
0 0 560 420 re
f
GR
GS
[0.75 0 0 0.75 0 0] CT
1 GC
N
55 374 M
385 374 L
385 32 L
55 32 L
cp
f
GR
GS
[0.75 0 0 0.75 0 0] CT
0.149 GC
2 setlinecap
1 LJ
0.667 LW
N
55 374 M
385 374 L
S
GR
GS
[0.75 0 0 0.75 0 0] CT
0.149 GC
2 setlinecap
1 LJ
0.667 LW
N
55 32 M
385 32 L
S
GR
GS
[0.75 0 0 0.75 0 0] CT
0.149 GC
2 setlinecap
1 LJ
0.667 LW
N
77 374 M
77 370.58 L
S
GR
GS
[0.75 0 0 0.75 0 0] CT
0.149 GC
2 setlinecap
1 LJ
0.667 LW
N
121 374 M
121 370.58 L
S
GR
GS
[0.75 0 0 0.75 0 0] CT
0.149 GC
2 setlinecap
1 LJ
0.667 LW
N
165 374 M
165 370.58 L
S
GR
GS
[0.75 0 0 0.75 0 0] CT
0.149 GC
2 setlinecap
1 LJ
0.667 LW
N
209 374 M
209 370.58 L
S
GR
GS
[0.75 0 0 0.75 0 0] CT
0.149 GC
2 setlinecap
1 LJ
0.667 LW
N
253 374 M
253 370.58 L
S
GR
GS
[0.75 0 0 0.75 0 0] CT
0.149 GC
2 setlinecap
1 LJ
0.667 LW
N
297 374 M
297 370.58 L
S
GR
GS
[0.75 0 0 0.75 0 0] CT
0.149 GC
2 setlinecap
1 LJ
0.667 LW
N
341 374 M
341 370.58 L
S
GR
GS
[0.75 0 0 0.75 0 0] CT
0.149 GC
2 setlinecap
1 LJ
0.667 LW
N
385 374 M
385 370.58 L
S
GR
GS
[0.75 0 0 0.75 0 0] CT
0.149 GC
2 setlinecap
1 LJ
0.667 LW
N
77 32 M
77 35.42 L
S
GR
GS
[0.75 0 0 0.75 0 0] CT
0.149 GC
2 setlinecap
1 LJ
0.667 LW
N
121 32 M
121 35.42 L
S
GR
GS
[0.75 0 0 0.75 0 0] CT
0.149 GC
2 setlinecap
1 LJ
0.667 LW
N
165 32 M
165 35.42 L
S
GR
GS
[0.75 0 0 0.75 0 0] CT
0.149 GC
2 setlinecap
1 LJ
0.667 LW
N
209 32 M
209 35.42 L
S
GR
GS
[0.75 0 0 0.75 0 0] CT
0.149 GC
2 setlinecap
1 LJ
0.667 LW
N
253 32 M
253 35.42 L
S
GR
GS
[0.75 0 0 0.75 0 0] CT
0.149 GC
2 setlinecap
1 LJ
0.667 LW
N
297 32 M
297 35.42 L
S
GR
GS
[0.75 0 0 0.75 0 0] CT
0.149 GC
2 setlinecap
1 LJ
0.667 LW
N
341 32 M
341 35.42 L
S
GR
GS
[0.75 0 0 0.75 0 0] CT
0.149 GC
2 setlinecap
1 LJ
0.667 LW
N
385 32 M
385 35.42 L
S
GR
GS
[0.75 0 0 0.75 57.75 284.50001] CT
0.149 GC
/Helvetica 13.333 F
GS
[1 0 0 1 0 0] CT
-8.5 13 moveto 
1 -1 scale
(30) t 
GR
GR
GS
[0.75 0 0 0.75 90.75 284.50001] CT
0.149 GC
/Helvetica 13.333 F
GS
[1 0 0 1 0 0] CT
-8.5 13 moveto 
1 -1 scale
(40) t 
GR
GR
GS
[0.75 0 0 0.75 123.75 284.50001] CT
0.149 GC
/Helvetica 13.333 F
GS
[1 0 0 1 0 0] CT
-8.5 13 moveto 
1 -1 scale
(50) t 
GR
GR
GS
[0.75 0 0 0.75 156.75 284.50001] CT
0.149 GC
/Helvetica 13.333 F
GS
[1 0 0 1 0 0] CT
-8.5 13 moveto 
1 -1 scale
(60) t 
GR
GR
GS
[0.75 0 0 0.75 189.75001 284.50001] CT
0.149 GC
/Helvetica 13.333 F
GS
[1 0 0 1 0 0] CT
-8.5 13 moveto 
1 -1 scale
(70) t 
GR
GR
GS
[0.75 0 0 0.75 222.75 284.50001] CT
0.149 GC
/Helvetica 13.333 F
GS
[1 0 0 1 0 0] CT
-8.5 13 moveto 
1 -1 scale
(80) t 
GR
GR
GS
[0.75 0 0 0.75 255.75 284.50001] CT
0.149 GC
/Helvetica 13.333 F
GS
[1 0 0 1 0 0] CT
-8.5 13 moveto 
1 -1 scale
(90) t 
GR
GR
GS
[0.75 0 0 0.75 288.75 284.50001] CT
0.149 GC
/Helvetica 13.333 F
GS
[1 0 0 1 0 0] CT
-12.5 13 moveto 
1 -1 scale
(100) t 
GR
GR
GS
[0.75 0 0 0.75 165.00011 298.24999] CT
0.149 GC
/Helvetica 14.667 F
GS
[1 0 0 1 0 0] CT
-24 14 moveto 
1 -1 scale
(Range) t 
GR
GR
GS
[0.75 0 0 0.75 0 0] CT
0.149 GC
2 setlinecap
1 LJ
0.667 LW
N
55 374 M
55 32 L
S
GR
GS
[0.75 0 0 0.75 0 0] CT
0.149 GC
2 setlinecap
1 LJ
0.667 LW
N
385 374 M
385 32 L
S
GR
GS
[0.75 0 0 0.75 0 0] CT
0.149 GC
2 setlinecap
1 LJ
0.667 LW
N
55 298.413 M
58.42 298.413 L
S
GR
GS
[0.75 0 0 0.75 0 0] CT
0.149 GC
2 setlinecap
1 LJ
0.667 LW
N
55 190.273 M
58.42 190.273 L
S
GR
GS
[0.75 0 0 0.75 0 0] CT
0.149 GC
2 setlinecap
1 LJ
0.667 LW
N
55 82.133 M
58.42 82.133 L
S
GR
GS
[0.75 0 0 0.75 0 0] CT
0.149 GC
2 setlinecap
1 LJ
0.667 LW
N
385 298.413 M
381.58 298.413 L
S
GR
GS
[0.75 0 0 0.75 0 0] CT
0.149 GC
2 setlinecap
1 LJ
0.667 LW
N
385 190.273 M
381.58 190.273 L
S
GR
GS
[0.75 0 0 0.75 0 0] CT
0.149 GC
2 setlinecap
1 LJ
0.667 LW
N
385 82.133 M
381.58 82.133 L
S
GR
GS
[0.75 0 0 0.75 0 0] CT
0.149 GC
2 setlinecap
1 LJ
0.667 LW
N
55 354.957 M
56.71 354.957 L
S
GR
GS
[0.75 0 0 0.75 0 0] CT
0.149 GC
2 setlinecap
1 LJ
0.667 LW
N
55 341.447 M
56.71 341.447 L
S
GR
GS
[0.75 0 0 0.75 0 0] CT
0.149 GC
2 setlinecap
1 LJ
0.667 LW
N
55 330.967 M
56.71 330.967 L
S
GR
GS
[0.75 0 0 0.75 0 0] CT
0.149 GC
2 setlinecap
1 LJ
0.667 LW
N
55 322.404 M
56.71 322.404 L
S
GR
GS
[0.75 0 0 0.75 0 0] CT
0.149 GC
2 setlinecap
1 LJ
0.667 LW
N
55 315.164 M
56.71 315.164 L
S
GR
GS
[0.75 0 0 0.75 0 0] CT
0.149 GC
2 setlinecap
1 LJ
0.667 LW
N
55 308.893 M
56.71 308.893 L
S
GR
GS
[0.75 0 0 0.75 0 0] CT
0.149 GC
2 setlinecap
1 LJ
0.667 LW
N
55 303.362 M
56.71 303.362 L
S
GR
GS
[0.75 0 0 0.75 0 0] CT
0.149 GC
2 setlinecap
1 LJ
0.667 LW
N
55 265.86 M
56.71 265.86 L
S
GR
GS
[0.75 0 0 0.75 0 0] CT
0.149 GC
2 setlinecap
1 LJ
0.667 LW
N
55 246.817 M
56.71 246.817 L
S
GR
GS
[0.75 0 0 0.75 0 0] CT
0.149 GC
2 setlinecap
1 LJ
0.667 LW
N
55 233.307 M
56.71 233.307 L
S
GR
GS
[0.75 0 0 0.75 0 0] CT
0.149 GC
2 setlinecap
1 LJ
0.667 LW
N
55 222.827 M
56.71 222.827 L
S
GR
GS
[0.75 0 0 0.75 0 0] CT
0.149 GC
2 setlinecap
1 LJ
0.667 LW
N
55 214.264 M
56.71 214.264 L
S
GR
GS
[0.75 0 0 0.75 0 0] CT
0.149 GC
2 setlinecap
1 LJ
0.667 LW
N
55 207.024 M
56.71 207.024 L
S
GR
GS
[0.75 0 0 0.75 0 0] CT
0.149 GC
2 setlinecap
1 LJ
0.667 LW
N
55 200.753 M
56.71 200.753 L
S
GR
GS
[0.75 0 0 0.75 0 0] CT
0.149 GC
2 setlinecap
1 LJ
0.667 LW
N
55 195.221 M
56.71 195.221 L
S
GR
GS
[0.75 0 0 0.75 0 0] CT
0.149 GC
2 setlinecap
1 LJ
0.667 LW
N
55 157.72 M
56.71 157.72 L
S
GR
GS
[0.75 0 0 0.75 0 0] CT
0.149 GC
2 setlinecap
1 LJ
0.667 LW
N
55 138.677 M
56.71 138.677 L
S
GR
GS
[0.75 0 0 0.75 0 0] CT
0.149 GC
2 setlinecap
1 LJ
0.667 LW
N
55 125.166 M
56.71 125.166 L
S
GR
GS
[0.75 0 0 0.75 0 0] CT
0.149 GC
2 setlinecap
1 LJ
0.667 LW
N
55 114.687 M
56.71 114.687 L
S
GR
GS
[0.75 0 0 0.75 0 0] CT
0.149 GC
2 setlinecap
1 LJ
0.667 LW
N
55 106.124 M
56.71 106.124 L
S
GR
GS
[0.75 0 0 0.75 0 0] CT
0.149 GC
2 setlinecap
1 LJ
0.667 LW
N
55 98.884 M
56.71 98.884 L
S
GR
GS
[0.75 0 0 0.75 0 0] CT
0.149 GC
2 setlinecap
1 LJ
0.667 LW
N
55 92.613 M
56.71 92.613 L
S
GR
GS
[0.75 0 0 0.75 0 0] CT
0.149 GC
2 setlinecap
1 LJ
0.667 LW
N
55 87.081 M
56.71 87.081 L
S
GR
GS
[0.75 0 0 0.75 0 0] CT
0.149 GC
2 setlinecap
1 LJ
0.667 LW
N
55 49.58 M
56.71 49.58 L
S
GR
GS
[0.75 0 0 0.75 0 0] CT
0.149 GC
2 setlinecap
1 LJ
0.667 LW
N
385 354.957 M
383.29 354.957 L
S
GR
GS
[0.75 0 0 0.75 0 0] CT
0.149 GC
2 setlinecap
1 LJ
0.667 LW
N
385 341.447 M
383.29 341.447 L
S
GR
GS
[0.75 0 0 0.75 0 0] CT
0.149 GC
2 setlinecap
1 LJ
0.667 LW
N
385 330.967 M
383.29 330.967 L
S
GR
GS
[0.75 0 0 0.75 0 0] CT
0.149 GC
2 setlinecap
1 LJ
0.667 LW
N
385 322.404 M
383.29 322.404 L
S
GR
GS
[0.75 0 0 0.75 0 0] CT
0.149 GC
2 setlinecap
1 LJ
0.667 LW
N
385 315.164 M
383.29 315.164 L
S
GR
GS
[0.75 0 0 0.75 0 0] CT
0.149 GC
2 setlinecap
1 LJ
0.667 LW
N
385 308.893 M
383.29 308.893 L
S
GR
GS
[0.75 0 0 0.75 0 0] CT
0.149 GC
2 setlinecap
1 LJ
0.667 LW
N
385 303.362 M
383.29 303.362 L
S
GR
GS
[0.75 0 0 0.75 0 0] CT
0.149 GC
2 setlinecap
1 LJ
0.667 LW
N
385 265.86 M
383.29 265.86 L
S
GR
GS
[0.75 0 0 0.75 0 0] CT
0.149 GC
2 setlinecap
1 LJ
0.667 LW
N
385 246.817 M
383.29 246.817 L
S
GR
GS
[0.75 0 0 0.75 0 0] CT
0.149 GC
2 setlinecap
1 LJ
0.667 LW
N
385 233.307 M
383.29 233.307 L
S
GR
GS
[0.75 0 0 0.75 0 0] CT
0.149 GC
2 setlinecap
1 LJ
0.667 LW
N
385 222.827 M
383.29 222.827 L
S
GR
GS
[0.75 0 0 0.75 0 0] CT
0.149 GC
2 setlinecap
1 LJ
0.667 LW
N
385 214.264 M
383.29 214.264 L
S
GR
GS
[0.75 0 0 0.75 0 0] CT
0.149 GC
2 setlinecap
1 LJ
0.667 LW
N
385 207.024 M
383.29 207.024 L
S
GR
GS
[0.75 0 0 0.75 0 0] CT
0.149 GC
2 setlinecap
1 LJ
0.667 LW
N
385 200.753 M
383.29 200.753 L
S
GR
GS
[0.75 0 0 0.75 0 0] CT
0.149 GC
2 setlinecap
1 LJ
0.667 LW
N
385 195.221 M
383.29 195.221 L
S
GR
GS
[0.75 0 0 0.75 0 0] CT
0.149 GC
2 setlinecap
1 LJ
0.667 LW
N
385 157.72 M
383.29 157.72 L
S
GR
GS
[0.75 0 0 0.75 0 0] CT
0.149 GC
2 setlinecap
1 LJ
0.667 LW
N
385 138.677 M
383.29 138.677 L
S
GR
GS
[0.75 0 0 0.75 0 0] CT
0.149 GC
2 setlinecap
1 LJ
0.667 LW
N
385 125.166 M
383.29 125.166 L
S
GR
GS
[0.75 0 0 0.75 0 0] CT
0.149 GC
2 setlinecap
1 LJ
0.667 LW
N
385 114.687 M
383.29 114.687 L
S
GR
GS
[0.75 0 0 0.75 0 0] CT
0.149 GC
2 setlinecap
1 LJ
0.667 LW
N
385 106.124 M
383.29 106.124 L
S
GR
GS
[0.75 0 0 0.75 0 0] CT
0.149 GC
2 setlinecap
1 LJ
0.667 LW
N
385 98.884 M
383.29 98.884 L
S
GR
GS
[0.75 0 0 0.75 0 0] CT
0.149 GC
2 setlinecap
1 LJ
0.667 LW
N
385 92.613 M
383.29 92.613 L
S
GR
GS
[0.75 0 0 0.75 0 0] CT
0.149 GC
2 setlinecap
1 LJ
0.667 LW
N
385 87.081 M
383.29 87.081 L
S
GR
GS
[0.75 0 0 0.75 0 0] CT
0.149 GC
2 setlinecap
1 LJ
0.667 LW
N
385 49.58 M
383.29 49.58 L
S
GR
GS
[0.75 0 0 0.75 19.5 228.75] CT
0.149 GC
/Helvetica 13.333 F
GS
[1 0 0 1 0 0] CT
0 0 moveto 
1 -1 scale
(10) t 
GR
GR
GS
[0.75 0 0 0.75 32.25 224.25] CT
0.149 GC
/Helvetica 10.667 F
GS
[1 0 0 1 0 0] CT
0 0 moveto 
1 -1 scale
(1) t 
GR
GR
GS
[0.75 0 0 0.75 19.5 147.75] CT
0.149 GC
/Helvetica 13.333 F
GS
[1 0 0 1 0 0] CT
0 0 moveto 
1 -1 scale
(10) t 
GR
GR
GS
[0.75 0 0 0.75 32.25 143.25] CT
0.149 GC
/Helvetica 10.667 F
GS
[1 0 0 1 0 0] CT
0 0 moveto 
1 -1 scale
(2) t 
GR
GR
GS
[0.75 0 0 0.75 19.5 66.75] CT
0.149 GC
/Helvetica 13.333 F
GS
[1 0 0 1 0 0] CT
0 0 moveto 
1 -1 scale
(10) t 
GR
GR
GS
[0.75 0 0 0.75 32.25 62.25] CT
0.149 GC
/Helvetica 10.667 F
GS
[1 0 0 1 0 0] CT
0 0 moveto 
1 -1 scale
(3) t 
GR
GR
GS
[0 -0.75 0.75 0 16.25 152.24987] CT
0.149 GC
/Helvetica 14.667 F
GS
[1 0 0 1 0 0] CT
-19.5 -4 moveto 
1 -1 scale
(#iter) t 
GR
GR
GS
[0.75 0 0 0.75 0 0] CT
0 0 1 RC
1 LJ
0.667 LW
N
385 354.957 M
275 181.321 L
165 179.048 L
55 193.179 L
S
GR
GS
[0.75 0 0 0.75 0 0] CT
0 0 1 RC
1 LJ
N
389.5 354.5 M
388.736 352.149 L
386.736 350.696 L
384.264 350.696 L
382.264 352.149 L
381.5 354.5 L
382.264 356.851 L
384.264 358.304 L
386.736 358.304 L
388.736 356.851 L
cp
S
GR
GS
[0.75 0 0 0.75 0 0] CT
0 0 1 RC
1 LJ
N
279.5 181.5 M
278.736 179.149 L
276.736 177.696 L
274.264 177.696 L
272.264 179.149 L
271.5 181.5 L
272.264 183.851 L
274.264 185.304 L
276.736 185.304 L
278.736 183.851 L
cp
S
GR
GS
[0.75 0 0 0.75 0 0] CT
0 0 1 RC
1 LJ
N
169.5 179.5 M
168.736 177.149 L
166.736 175.696 L
164.264 175.696 L
162.264 177.149 L
161.5 179.5 L
162.264 181.851 L
164.264 183.304 L
166.736 183.304 L
168.736 181.851 L
cp
S
GR
GS
[0.75 0 0 0.75 0 0] CT
0 0 1 RC
1 LJ
N
59.5 193.5 M
58.736 191.149 L
56.736 189.696 L
54.264 189.696 L
52.264 191.149 L
51.5 193.5 L
52.264 195.851 L
54.264 197.304 L
56.736 197.304 L
58.736 195.851 L
cp
S
GR
GS
[0.75 0 0 0.75 0 0] CT
0 1 0 RC
1 LJ
0.667 LW
N
385 354.957 M
275 181.321 L
165 179.048 L
55 193.179 L
S
GR
GS
[0.75 0 0 0.75 0 0] CT
0 1 0 RC
1 LJ
N
389.5 354.5 M
388.736 352.149 L
386.736 350.696 L
384.264 350.696 L
382.264 352.149 L
381.5 354.5 L
382.264 356.851 L
384.264 358.304 L
386.736 358.304 L
388.736 356.851 L
cp
S
GR
GS
[0.75 0 0 0.75 0 0] CT
0 1 0 RC
1 LJ
N
279.5 181.5 M
278.736 179.149 L
276.736 177.696 L
274.264 177.696 L
272.264 179.149 L
271.5 181.5 L
272.264 183.851 L
274.264 185.304 L
276.736 185.304 L
278.736 183.851 L
cp
S
GR
GS
[0.75 0 0 0.75 0 0] CT
0 1 0 RC
1 LJ
N
169.5 179.5 M
168.736 177.149 L
166.736 175.696 L
164.264 175.696 L
162.264 177.149 L
161.5 179.5 L
162.264 181.851 L
164.264 183.304 L
166.736 183.304 L
168.736 181.851 L
cp
S
GR
GS
[0.75 0 0 0.75 0 0] CT
0 1 0 RC
1 LJ
N
59.5 193.5 M
58.736 191.149 L
56.736 189.696 L
54.264 189.696 L
52.264 191.149 L
51.5 193.5 L
52.264 195.851 L
54.264 197.304 L
56.736 197.304 L
58.736 195.851 L
cp
S
GR
GS
[0.75 0 0 0.75 0 0] CT
1 0 0 RC
1 LJ
0.667 LW
N
385 374 M
275 182.104 L
165 179.793 L
55 194.189 L
S
GR
GS
[0.75 0 0 0.75 0 0] CT
1 0 0 RC
1 LJ
N
389.5 373.5 M
388.736 371.149 L
386.736 369.696 L
384.264 369.696 L
382.264 371.149 L
381.5 373.5 L
382.264 375.851 L
384.264 377.304 L
386.736 377.304 L
388.736 375.851 L
cp
S
GR
GS
[0.75 0 0 0.75 0 0] CT
1 0 0 RC
1 LJ
N
279.5 182.5 M
278.736 180.149 L
276.736 178.696 L
274.264 178.696 L
272.264 180.149 L
271.5 182.5 L
272.264 184.851 L
274.264 186.304 L
276.736 186.304 L
278.736 184.851 L
cp
S
GR
GS
[0.75 0 0 0.75 0 0] CT
1 0 0 RC
1 LJ
N
169.5 179.5 M
168.736 177.149 L
166.736 175.696 L
164.264 175.696 L
162.264 177.149 L
161.5 179.5 L
162.264 181.851 L
164.264 183.304 L
166.736 183.304 L
168.736 181.851 L
cp
S
GR
GS
[0.75 0 0 0.75 0 0] CT
1 0 0 RC
1 LJ
N
59.5 194.5 M
58.736 192.149 L
56.736 190.696 L
54.264 190.696 L
52.264 192.149 L
51.5 194.5 L
52.264 196.851 L
54.264 198.304 L
56.736 198.304 L
58.736 196.851 L
cp
S
GR
GS
[0.75 0 0 0.75 0 0] CT
0 1 1 RC
1 LJ
0.667 LW
N
385 374 M
275 182.104 L
165 179.793 L
55 194.189 L
S
GR
GS
[0.75 0 0 0.75 0 0] CT
0 1 1 RC
1 LJ
N
389.5 373.5 M
388.736 371.149 L
386.736 369.696 L
384.264 369.696 L
382.264 371.149 L
381.5 373.5 L
382.264 375.851 L
384.264 377.304 L
386.736 377.304 L
388.736 375.851 L
cp
S
GR
GS
[0.75 0 0 0.75 0 0] CT
0 1 1 RC
1 LJ
N
279.5 182.5 M
278.736 180.149 L
276.736 178.696 L
274.264 178.696 L
272.264 180.149 L
271.5 182.5 L
272.264 184.851 L
274.264 186.304 L
276.736 186.304 L
278.736 184.851 L
cp
S
GR
GS
[0.75 0 0 0.75 0 0] CT
0 1 1 RC
1 LJ
N
169.5 179.5 M
168.736 177.149 L
166.736 175.696 L
164.264 175.696 L
162.264 177.149 L
161.5 179.5 L
162.264 181.851 L
164.264 183.304 L
166.736 183.304 L
168.736 181.851 L
cp
S
GR
GS
[0.75 0 0 0.75 0 0] CT
0 1 1 RC
1 LJ
N
59.5 194.5 M
58.736 192.149 L
56.736 190.696 L
54.264 190.696 L
52.264 192.149 L
51.5 194.5 L
52.264 196.851 L
54.264 198.304 L
56.736 198.304 L
58.736 196.851 L
cp
S
GR
GS
[0.75 0 0 0.75 0 0] CT
1 0 1 RC
1 LJ
0.667 LW
N
385 354.957 M
275 182.104 L
165 179.793 L
55 194.189 L
S
GR
GS
[0.75 0 0 0.75 0 0] CT
1 0 1 RC
1 LJ
N
389.5 354.5 M
388.736 352.149 L
386.736 350.696 L
384.264 350.696 L
382.264 352.149 L
381.5 354.5 L
382.264 356.851 L
384.264 358.304 L
386.736 358.304 L
388.736 356.851 L
cp
S
GR
GS
[0.75 0 0 0.75 0 0] CT
1 0 1 RC
1 LJ
N
279.5 182.5 M
278.736 180.149 L
276.736 178.696 L
274.264 178.696 L
272.264 180.149 L
271.5 182.5 L
272.264 184.851 L
274.264 186.304 L
276.736 186.304 L
278.736 184.851 L
cp
S
GR
GS
[0.75 0 0 0.75 0 0] CT
1 0 1 RC
1 LJ
N
169.5 179.5 M
168.736 177.149 L
166.736 175.696 L
164.264 175.696 L
162.264 177.149 L
161.5 179.5 L
162.264 181.851 L
164.264 183.304 L
166.736 183.304 L
168.736 181.851 L
cp
S
GR
GS
[0.75 0 0 0.75 0 0] CT
1 0 1 RC
1 LJ
N
59.5 194.5 M
58.736 192.149 L
56.736 190.696 L
54.264 190.696 L
52.264 192.149 L
51.5 194.5 L
52.264 196.851 L
54.264 198.304 L
56.736 198.304 L
58.736 196.851 L
cp
S
GR
GS
[0.75 0 0 0.75 0 0] CT
1 LJ
0.667 LW
N
385 157.021 M
275 59.101 L
165 67.831 L
55 63.122 L
S
GR
GS
[0.75 0 0 0.75 0 0] CT
1 LJ
N
389.5 157.5 M
388.736 155.149 L
386.736 153.696 L
384.264 153.696 L
382.264 155.149 L
381.5 157.5 L
382.264 159.851 L
384.264 161.304 L
386.736 161.304 L
388.736 159.851 L
cp
S
GR
GS
[0.75 0 0 0.75 0 0] CT
1 LJ
N
279.5 59.5 M
278.736 57.149 L
276.736 55.696 L
274.264 55.696 L
272.264 57.149 L
271.5 59.5 L
272.264 61.851 L
274.264 63.304 L
276.736 63.304 L
278.736 61.851 L
cp
S
GR
GS
[0.75 0 0 0.75 0 0] CT
1 LJ
N
169.5 67.5 M
168.736 65.149 L
166.736 63.696 L
164.264 63.696 L
162.264 65.149 L
161.5 67.5 L
162.264 69.851 L
164.264 71.304 L
166.736 71.304 L
168.736 69.851 L
cp
S
GR
GS
[0.75 0 0 0.75 0 0] CT
1 LJ
N
59.5 63.5 M
58.736 61.149 L
56.736 59.696 L
54.264 59.696 L
52.264 61.149 L
51.5 63.5 L
52.264 65.851 L
54.264 67.304 L
56.736 67.304 L
58.736 65.851 L
cp
S
GR
GS
[0.75 0 0 0.75 0 0] CT
0 0 1 RC
[8 3 2 3] 0 setdash
2 LJ
0.667 LW
N
385 144.15 M
275 32.815 L
165 32 L
55 45.468 L
S
GR
GS
[0.75 0 0 0.75 0 0] CT
0 0 1 RC
10.0 ML
N
385.5 149.832 M
389.5 144.5 L
385.5 139.168 L
381.5 144.5 L
cp
S
GR
GS
[0.75 0 0 0.75 0 0] CT
0 0 1 RC
10.0 ML
N
275.5 37.832 M
279.5 32.5 L
275.5 27.168 L
271.5 32.5 L
cp
S
GR
GS
[0.75 0 0 0.75 0 0] CT
0 0 1 RC
10.0 ML
N
165.5 36.832 M
169.5 31.5 L
165.5 26.168 L
161.5 31.5 L
cp
S
GR
GS
[0.75 0 0 0.75 0 0] CT
0 0 1 RC
10.0 ML
N
55.5 50.832 M
59.5 45.5 L
55.5 40.168 L
51.5 45.5 L
cp
S
GR
GS
[0.75 0 0 0.75 0 0] CT
0 1 0 RC
[8 3 2 3] 0 setdash
2 LJ
0.667 LW
N
385 354.957 M
275 341.447 L
165 341.447 L
55 354.957 L
S
GR
GS
[0.75 0 0 0.75 0 0] CT
0 1 0 RC
10.0 ML
N
385.5 359.832 M
389.5 354.5 L
385.5 349.168 L
381.5 354.5 L
cp
S
GR
GS
[0.75 0 0 0.75 0 0] CT
0 1 0 RC
10.0 ML
N
275.5 346.832 M
279.5 341.5 L
275.5 336.168 L
271.5 341.5 L
cp
S
GR
GS
[0.75 0 0 0.75 0 0] CT
0 1 0 RC
10.0 ML
N
165.5 346.832 M
169.5 341.5 L
165.5 336.168 L
161.5 341.5 L
cp
S
GR
GS
[0.75 0 0 0.75 0 0] CT
0 1 0 RC
10.0 ML
N
55.5 359.832 M
59.5 354.5 L
55.5 349.168 L
51.5 354.5 L
cp
S
GR
GS
[0.75 0 0 0.75 0 0] CT
1 0 0 RC
[8 3 2 3] 0 setdash
2 LJ
0.667 LW
N
385 160.129 M
275 90.098 L
165 96.785 L
55 95.581 L
S
GR
GS
[0.75 0 0 0.75 0 0] CT
1 0 0 RC
10.0 ML
N
385.5 165.832 M
389.5 160.5 L
385.5 155.168 L
381.5 160.5 L
cp
S
GR
GS
[0.75 0 0 0.75 0 0] CT
1 0 0 RC
10.0 ML
N
275.5 95.832 M
279.5 90.5 L
275.5 85.168 L
271.5 90.5 L
cp
S
GR
GS
[0.75 0 0 0.75 0 0] CT
1 0 0 RC
10.0 ML
N
165.5 101.832 M
169.5 96.5 L
165.5 91.168 L
161.5 96.5 L
cp
S
GR
GS
[0.75 0 0 0.75 0 0] CT
1 0 0 RC
10.0 ML
N
55.5 100.832 M
59.5 95.5 L
55.5 90.168 L
51.5 95.5 L
cp
S
GR
GS
[0.75 0 0 0.75 0 0] CT
0 1 1 RC
[8 3 2 3] 0 setdash
2 LJ
0.667 LW
N
385 286.091 M
275 246.817 L
165 251.766 L
55 286.091 L
S
GR
GS
[0.75 0 0 0.75 0 0] CT
0 1 1 RC
10.0 ML
N
385.5 291.832 M
389.5 286.5 L
385.5 281.168 L
381.5 286.5 L
cp
S
GR
GS
[0.75 0 0 0.75 0 0] CT
0 1 1 RC
10.0 ML
N
275.5 251.832 M
279.5 246.5 L
275.5 241.168 L
271.5 246.5 L
cp
S
GR
GS
[0.75 0 0 0.75 0 0] CT
0 1 1 RC
10.0 ML
N
165.5 256.832 M
169.5 251.5 L
165.5 246.168 L
161.5 251.5 L
cp
S
GR
GS
[0.75 0 0 0.75 0 0] CT
0 1 1 RC
10.0 ML
N
55.5 291.832 M
59.5 286.5 L
55.5 281.168 L
51.5 286.5 L
cp
S
GR
GS
[0.75 0 0 0.75 0 0] CT
1 GC
N
411 190 M
411 32 L
520 32 L
520 190 L
cp
f
GR
GS
[0.75 0 0 0.75 336 31.10252] CT
/Helvetica 12 F
GS
[1 0 0 1 0 0] CT
0 4.5 moveto 
1 -1 scale
(Tmplsqr) t 
GR
GR
GS
[0.75 0 0 0.75 0 0] CT
0 0 1 RC
1 LJ
0.667 LW
N
415 41.47 M
445 41.47 L
S
GR
GS
[0.75 0 0 0.75 0 0] CT
0 0 1 RC
1 LJ
N
434.5 41.5 M
433.736 39.149 L
431.736 37.696 L
429.264 37.696 L
427.264 39.149 L
426.5 41.5 L
427.264 43.851 L
429.264 45.304 L
431.736 45.304 L
433.736 43.851 L
cp
S
GR
GS
[0.75 0 0 0.75 336 42.69085] CT
/Helvetica 12 F
GS
[1 0 0 1 0 0] CT
0 4.5 moveto 
1 -1 scale
(Tmplsmr) t 
GR
GR
GS
[0.75 0 0 0.75 0 0] CT
0 1 0 RC
1 LJ
0.667 LW
N
415 56.921 M
445 56.921 L
S
GR
GS
[0.75 0 0 0.75 0 0] CT
0 1 0 RC
1 LJ
N
434.5 56.5 M
433.736 54.149 L
431.736 52.696 L
429.264 52.696 L
427.264 54.149 L
426.5 56.5 L
427.264 58.851 L
429.264 60.304 L
431.736 60.304 L
433.736 58.851 L
cp
S
GR
GS
[0.75 0 0 0.75 336 54.27918] CT
/Helvetica 12 F
GS
[1 0 0 1 0 0] CT
0 4.5 moveto 
1 -1 scale
(Tmppcg) t 
GR
GR
GS
[0.75 0 0 0.75 0 0] CT
1 0 0 RC
1 LJ
0.667 LW
N
415 72.372 M
445 72.372 L
S
GR
GS
[0.75 0 0 0.75 0 0] CT
1 0 0 RC
1 LJ
N
434.5 72.5 M
433.736 70.149 L
431.736 68.696 L
429.264 68.696 L
427.264 70.149 L
426.5 72.5 L
427.264 74.851 L
429.264 76.304 L
431.736 76.304 L
433.736 74.851 L
cp
S
GR
GS
[0.75 0 0 0.75 336 65.86751] CT
/Helvetica 12 F
GS
[1 0 0 1 0 0] CT
0 4.5 moveto 
1 -1 scale
(Tmpminres) t 
GR
GR
GS
[0.75 0 0 0.75 0 0] CT
0 1 1 RC
1 LJ
0.667 LW
N
415 87.823 M
445 87.823 L
S
GR
GS
[0.75 0 0 0.75 0 0] CT
0 1 1 RC
1 LJ
N
434.5 87.5 M
433.736 85.149 L
431.736 83.696 L
429.264 83.696 L
427.264 85.149 L
426.5 87.5 L
427.264 89.851 L
429.264 91.304 L
431.736 91.304 L
433.736 89.851 L
cp
S
GR
GS
[0.75 0 0 0.75 336 77.45584] CT
/Helvetica 12 F
GS
[1 0 0 1 0 0] CT
0 4.5 moveto 
1 -1 scale
(Pnb) t 
GR
GR
GS
[0.75 0 0 0.75 0 0] CT
1 0 1 RC
1 LJ
0.667 LW
N
415 103.274 M
445 103.274 L
S
GR
GS
[0.75 0 0 0.75 0 0] CT
1 0 1 RC
1 LJ
N
434.5 103.5 M
433.736 101.149 L
431.736 99.696 L
429.264 99.696 L
427.264 101.149 L
426.5 103.5 L
427.264 105.851 L
429.264 107.304 L
431.736 107.304 L
433.736 105.851 L
cp
S
GR
GS
[0.75 0 0 0.75 336 89.04416] CT
/Helvetica 12 F
GS
[1 0 0 1 0 0] CT
0 4.5 moveto 
1 -1 scale
(Bb) t 
GR
GR
GS
[0.75 0 0 0.75 0 0] CT
1 LJ
0.667 LW
N
415 118.726 M
445 118.726 L
S
GR
GS
[0.75 0 0 0.75 0 0] CT
1 LJ
N
434.5 118.5 M
433.736 116.149 L
431.736 114.696 L
429.264 114.696 L
427.264 116.149 L
426.5 118.5 L
427.264 120.851 L
429.264 122.304 L
431.736 122.304 L
433.736 120.851 L
cp
S
GR
GS
[0.75 0 0 0.75 336 100.63249] CT
/Helvetica 12 F
GS
[1 0 0 1 0 0] CT
0 4.5 moveto 
1 -1 scale
(Spg) t 
GR
GR
GS
[0.75 0 0 0.75 0 0] CT
0 0 1 RC
[8 3 2 3] 0 setdash
2 LJ
0.667 LW
N
415 134.177 M
445 134.177 L
S
GR
GS
[0.75 0 0 0.75 0 0] CT
0 0 1 RC
10.0 ML
N
430.5 139.832 M
434.5 134.5 L
430.5 129.168 L
426.5 134.5 L
cp
S
GR
GS
[0.75 0 0 0.75 336 112.22082] CT
/Helvetica 12 F
GS
[1 0 0 1 0 0] CT
0 4.5 moveto 
1 -1 scale
(Pqn) t 
GR
GR
GS
[0.75 0 0 0.75 0 0] CT
0 1 0 RC
[8 3 2 3] 0 setdash
2 LJ
0.667 LW
N
415 149.628 M
445 149.628 L
S
GR
GS
[0.75 0 0 0.75 0 0] CT
0 1 0 RC
10.0 ML
N
430.5 154.832 M
434.5 149.5 L
430.5 144.168 L
426.5 149.5 L
cp
S
GR
GS
[0.75 0 0 0.75 336 123.80915] CT
/Helvetica 12 F
GS
[1 0 0 1 0 0] CT
0 4.5 moveto 
1 -1 scale
(Lbfgsb) t 
GR
GR
GS
[0.75 0 0 0.75 0 0] CT
1 0 0 RC
[8 3 2 3] 0 setdash
2 LJ
0.667 LW
N
415 165.079 M
445 165.079 L
S
GR
GS
[0.75 0 0 0.75 0 0] CT
1 0 0 RC
10.0 ML
N
430.5 170.832 M
434.5 165.5 L
430.5 160.168 L
426.5 165.5 L
cp
S
GR
GS
[0.75 0 0 0.75 336 135.39748] CT
/Helvetica 12 F
GS
[1 0 0 1 0 0] CT
0 4.5 moveto 
1 -1 scale
(Bcflash) t 
GR
GR
GS
[0.75 0 0 0.75 0 0] CT
0 1 1 RC
[8 3 2 3] 0 setdash
2 LJ
0.667 LW
N
415 180.53 M
445 180.53 L
S
GR
GS
[0.75 0 0 0.75 0 0] CT
0 1 1 RC
10.0 ML
N
430.5 185.832 M
434.5 180.5 L
430.5 175.168 L
426.5 180.5 L
cp
S
GR
GS
[0.75 0 0 0.75 0 0] CT
0.149 GC
10.0 ML
0.667 LW
N
411 190 M
411 32 L
520 32 L
520 190 L
cp
S
GR
%%Trailer
%%Pages: 1
%%EOF
