%!PS-Adobe-3.0 EPSF-3.0
%%Creator: (MATLAB, The Mathworks, Inc. Version 9.0.0.341360 \(R2016a\). Operating System: Linux)
%%Title: data/fact1RangeRT.eps
%%CreationDate: 2017-02-05T08:24:00
%%Pages: (atend)
%%BoundingBox:     5     3   391   295
%%LanguageLevel: 3
%%EndComments
%%BeginProlog
%%BeginResource: procset (Apache XML Graphics Std ProcSet) 1.2 0
%%Version: 1.2 0
%%Copyright: (Copyright 2001-2003,2010 The Apache Software Foundation. License terms: http://www.apache.org/licenses/LICENSE-2.0)
/bd{bind def}bind def
/ld{load def}bd
/GR/grestore ld
/M/moveto ld
/LJ/setlinejoin ld
/C/curveto ld
/f/fill ld
/LW/setlinewidth ld
/GC/setgray ld
/t/show ld
/N/newpath ld
/CT/concat ld
/cp/closepath ld
/S/stroke ld
/L/lineto ld
/CC/setcmykcolor ld
/A/ashow ld
/GS/gsave ld
/RC/setrgbcolor ld
/RM/rmoveto ld
/ML/setmiterlimit ld
/re {4 2 roll M
1 index 0 rlineto
0 exch rlineto
neg 0 rlineto
cp } bd
/_ctm matrix def
/_tm matrix def
/BT { _ctm currentmatrix pop matrix _tm copy pop 0 0 moveto } bd
/ET { _ctm setmatrix } bd
/iTm { _ctm setmatrix _tm concat } bd
/Tm { _tm astore pop iTm 0 0 moveto } bd
/ux 0.0 def
/uy 0.0 def
/F {
  /Tp exch def
  /Tf exch def
  Tf findfont Tp scalefont setfont
  /cf Tf def  /cs Tp def
} bd
/ULS {currentpoint /uy exch def /ux exch def} bd
/ULE {
  /Tcx currentpoint pop def
  gsave
  newpath
  cf findfont cs scalefont dup
  /FontMatrix get 0 get /Ts exch def /FontInfo get dup
  /UnderlinePosition get Ts mul /To exch def
  /UnderlineThickness get Ts mul /Tt exch def
  ux uy To add moveto  Tcx uy To add lineto
  Tt setlinewidth stroke
  grestore
} bd
/OLE {
  /Tcx currentpoint pop def
  gsave
  newpath
  cf findfont cs scalefont dup
  /FontMatrix get 0 get /Ts exch def /FontInfo get dup
  /UnderlinePosition get Ts mul /To exch def
  /UnderlineThickness get Ts mul /Tt exch def
  ux uy To add cs add moveto Tcx uy To add cs add lineto
  Tt setlinewidth stroke
  grestore
} bd
/SOE {
  /Tcx currentpoint pop def
  gsave
  newpath
  cf findfont cs scalefont dup
  /FontMatrix get 0 get /Ts exch def /FontInfo get dup
  /UnderlinePosition get Ts mul /To exch def
  /UnderlineThickness get Ts mul /Tt exch def
  ux uy To add cs 10 mul 26 idiv add moveto Tcx uy To add cs 10 mul 26 idiv add lineto
  Tt setlinewidth stroke
  grestore
} bd
/QT {
/Y22 exch store
/X22 exch store
/Y21 exch store
/X21 exch store
currentpoint
/Y21 load 2 mul add 3 div exch
/X21 load 2 mul add 3 div exch
/X21 load 2 mul /X22 load add 3 div
/Y21 load 2 mul /Y22 load add 3 div
/X22 load /Y22 load curveto
} bd
/SSPD {
dup length /d exch dict def
{
/v exch def
/k exch def
currentpagedevice k known {
/cpdv currentpagedevice k get def
v cpdv ne {
/upd false def
/nullv v type /nulltype eq def
/nullcpdv cpdv type /nulltype eq def
nullv nullcpdv or
{
/upd true def
} {
/sametype v type cpdv type eq def
sametype {
v type /arraytype eq {
/vlen v length def
/cpdvlen cpdv length def
vlen cpdvlen eq {
0 1 vlen 1 sub {
/i exch def
/obj v i get def
/cpdobj cpdv i get def
obj cpdobj ne {
/upd true def
exit
} if
} for
} {
/upd true def
} ifelse
} {
v type /dicttype eq {
v {
/dv exch def
/dk exch def
/cpddv cpdv dk get def
dv cpddv ne {
/upd true def
exit
} if
} forall
} {
/upd true def
} ifelse
} ifelse
} if
} ifelse
upd true eq {
d k v put
} if
} if
} if
} forall
d length 0 gt {
d setpagedevice
} if
} bd
%%EndResource
%%BeginResource: procset (Apache XML Graphics EPS ProcSet) 1.0 0
%%Version: 1.0 0
%%Copyright: (Copyright 2002-2003 The Apache Software Foundation. License terms: http://www.apache.org/licenses/LICENSE-2.0)
/BeginEPSF { %def
/b4_Inc_state save def         % Save state for cleanup
/dict_count countdictstack def % Count objects on dict stack
/op_count count 1 sub def      % Count objects on operand stack
userdict begin                 % Push userdict on dict stack
/showpage { } def              % Redefine showpage, { } = null proc
0 setgray 0 setlinecap         % Prepare graphics state
1 setlinewidth 0 setlinejoin
10 setmiterlimit [ ] 0 setdash newpath
/languagelevel where           % If level not equal to 1 then
{pop languagelevel             % set strokeadjust and
1 ne                           % overprint to their defaults.
{false setstrokeadjust false setoverprint
} if
} if
} bd
/EndEPSF { %def
count op_count sub {pop} repeat            % Clean up stacks
countdictstack dict_count sub {end} repeat
b4_Inc_state restore
} bd
%%EndResource
%FOPBeginFontDict
%%IncludeResource: font Courier-Bold
%%IncludeResource: font Helvetica
%%IncludeResource: font Courier-BoldOblique
%%IncludeResource: font Courier-Oblique
%%IncludeResource: font Times-Roman
%%IncludeResource: font Helvetica-BoldOblique
%%IncludeResource: font Helvetica-Bold
%%IncludeResource: font Helvetica-Oblique
%%IncludeResource: font Times-BoldItalic
%%IncludeResource: font Courier
%%IncludeResource: font Times-Italic
%%IncludeResource: font Times-Bold
%%IncludeResource: font Symbol
%%IncludeResource: font ZapfDingbats
%FOPEndFontDict
%%BeginResource: encoding WinAnsiEncoding
/WinAnsiEncoding [
/.notdef /.notdef /.notdef /.notdef /.notdef
/.notdef /.notdef /.notdef /.notdef /.notdef
/.notdef /.notdef /.notdef /.notdef /.notdef
/.notdef /.notdef /.notdef /.notdef /.notdef
/.notdef /.notdef /.notdef /.notdef /.notdef
/.notdef /.notdef /.notdef /.notdef /.notdef
/.notdef /.notdef /space /exclam /quotedbl
/numbersign /dollar /percent /ampersand /quotesingle
/parenleft /parenright /asterisk /plus /comma
/hyphen /period /slash /zero /one
/two /three /four /five /six
/seven /eight /nine /colon /semicolon
/less /equal /greater /question /at
/A /B /C /D /E
/F /G /H /I /J
/K /L /M /N /O
/P /Q /R /S /T
/U /V /W /X /Y
/Z /bracketleft /backslash /bracketright /asciicircum
/underscore /quoteleft /a /b /c
/d /e /f /g /h
/i /j /k /l /m
/n /o /p /q /r
/s /t /u /v /w
/x /y /z /braceleft /bar
/braceright /asciitilde /bullet /Euro /bullet
/quotesinglbase /florin /quotedblbase /ellipsis /dagger
/daggerdbl /circumflex /perthousand /Scaron /guilsinglleft
/OE /bullet /Zcaron /bullet /bullet
/quoteleft /quoteright /quotedblleft /quotedblright /bullet
/endash /emdash /asciitilde /trademark /scaron
/guilsinglright /oe /bullet /zcaron /Ydieresis
/space /exclamdown /cent /sterling /currency
/yen /brokenbar /section /dieresis /copyright
/ordfeminine /guillemotleft /logicalnot /sfthyphen /registered
/macron /degree /plusminus /twosuperior /threesuperior
/acute /mu /paragraph /middot /cedilla
/onesuperior /ordmasculine /guillemotright /onequarter /onehalf
/threequarters /questiondown /Agrave /Aacute /Acircumflex
/Atilde /Adieresis /Aring /AE /Ccedilla
/Egrave /Eacute /Ecircumflex /Edieresis /Igrave
/Iacute /Icircumflex /Idieresis /Eth /Ntilde
/Ograve /Oacute /Ocircumflex /Otilde /Odieresis
/multiply /Oslash /Ugrave /Uacute /Ucircumflex
/Udieresis /Yacute /Thorn /germandbls /agrave
/aacute /acircumflex /atilde /adieresis /aring
/ae /ccedilla /egrave /eacute /ecircumflex
/edieresis /igrave /iacute /icircumflex /idieresis
/eth /ntilde /ograve /oacute /ocircumflex
/otilde /odieresis /divide /oslash /ugrave
/uacute /ucircumflex /udieresis /yacute /thorn
/ydieresis
] def
%%EndResource
%FOPBeginFontReencode
/Courier-Bold findfont
dup length dict begin
  {1 index /FID ne {def} {pop pop} ifelse} forall
  /Encoding WinAnsiEncoding def
  currentdict
end
/Courier-Bold exch definefont pop
/Helvetica findfont
dup length dict begin
  {1 index /FID ne {def} {pop pop} ifelse} forall
  /Encoding WinAnsiEncoding def
  currentdict
end
/Helvetica exch definefont pop
/Courier-BoldOblique findfont
dup length dict begin
  {1 index /FID ne {def} {pop pop} ifelse} forall
  /Encoding WinAnsiEncoding def
  currentdict
end
/Courier-BoldOblique exch definefont pop
/Courier-Oblique findfont
dup length dict begin
  {1 index /FID ne {def} {pop pop} ifelse} forall
  /Encoding WinAnsiEncoding def
  currentdict
end
/Courier-Oblique exch definefont pop
/Times-Roman findfont
dup length dict begin
  {1 index /FID ne {def} {pop pop} ifelse} forall
  /Encoding WinAnsiEncoding def
  currentdict
end
/Times-Roman exch definefont pop
/Helvetica-BoldOblique findfont
dup length dict begin
  {1 index /FID ne {def} {pop pop} ifelse} forall
  /Encoding WinAnsiEncoding def
  currentdict
end
/Helvetica-BoldOblique exch definefont pop
/Helvetica-Bold findfont
dup length dict begin
  {1 index /FID ne {def} {pop pop} ifelse} forall
  /Encoding WinAnsiEncoding def
  currentdict
end
/Helvetica-Bold exch definefont pop
/Helvetica-Oblique findfont
dup length dict begin
  {1 index /FID ne {def} {pop pop} ifelse} forall
  /Encoding WinAnsiEncoding def
  currentdict
end
/Helvetica-Oblique exch definefont pop
/Times-BoldItalic findfont
dup length dict begin
  {1 index /FID ne {def} {pop pop} ifelse} forall
  /Encoding WinAnsiEncoding def
  currentdict
end
/Times-BoldItalic exch definefont pop
/Courier findfont
dup length dict begin
  {1 index /FID ne {def} {pop pop} ifelse} forall
  /Encoding WinAnsiEncoding def
  currentdict
end
/Courier exch definefont pop
/Times-Italic findfont
dup length dict begin
  {1 index /FID ne {def} {pop pop} ifelse} forall
  /Encoding WinAnsiEncoding def
  currentdict
end
/Times-Italic exch definefont pop
/Times-Bold findfont
dup length dict begin
  {1 index /FID ne {def} {pop pop} ifelse} forall
  /Encoding WinAnsiEncoding def
  currentdict
end
/Times-Bold exch definefont pop
%FOPEndFontReencode
%%EndProlog
%%Page: 1 1
%%PageBoundingBox: 0 0 420 315
%%BeginPageSetup
[1 0 0 -1 0 315] CT
%%EndPageSetup
GS
[0.75 0 0 0.75 0 0] CT
1 GC
N
0 0 560 420 re
f
GR
GS
[0.75 0 0 0.75 0 0] CT
1 GC
N
0 0 560 420 re
f
GR
GS
[0.75 0 0 0.75 0 0] CT
1 GC
N
55 374 M
385 374 L
385 32 L
55 32 L
cp
f
GR
GS
[0.75 0 0 0.75 0 0] CT
0.149 GC
2 setlinecap
1 LJ
0.667 LW
N
55 374 M
385 374 L
S
GR
GS
[0.75 0 0 0.75 0 0] CT
0.149 GC
2 setlinecap
1 LJ
0.667 LW
N
55 32 M
385 32 L
S
GR
GS
[0.75 0 0 0.75 0 0] CT
0.149 GC
2 setlinecap
1 LJ
0.667 LW
N
77 374 M
77 370.58 L
S
GR
GS
[0.75 0 0 0.75 0 0] CT
0.149 GC
2 setlinecap
1 LJ
0.667 LW
N
121 374 M
121 370.58 L
S
GR
GS
[0.75 0 0 0.75 0 0] CT
0.149 GC
2 setlinecap
1 LJ
0.667 LW
N
165 374 M
165 370.58 L
S
GR
GS
[0.75 0 0 0.75 0 0] CT
0.149 GC
2 setlinecap
1 LJ
0.667 LW
N
209 374 M
209 370.58 L
S
GR
GS
[0.75 0 0 0.75 0 0] CT
0.149 GC
2 setlinecap
1 LJ
0.667 LW
N
253 374 M
253 370.58 L
S
GR
GS
[0.75 0 0 0.75 0 0] CT
0.149 GC
2 setlinecap
1 LJ
0.667 LW
N
297 374 M
297 370.58 L
S
GR
GS
[0.75 0 0 0.75 0 0] CT
0.149 GC
2 setlinecap
1 LJ
0.667 LW
N
341 374 M
341 370.58 L
S
GR
GS
[0.75 0 0 0.75 0 0] CT
0.149 GC
2 setlinecap
1 LJ
0.667 LW
N
385 374 M
385 370.58 L
S
GR
GS
[0.75 0 0 0.75 0 0] CT
0.149 GC
2 setlinecap
1 LJ
0.667 LW
N
77 32 M
77 35.42 L
S
GR
GS
[0.75 0 0 0.75 0 0] CT
0.149 GC
2 setlinecap
1 LJ
0.667 LW
N
121 32 M
121 35.42 L
S
GR
GS
[0.75 0 0 0.75 0 0] CT
0.149 GC
2 setlinecap
1 LJ
0.667 LW
N
165 32 M
165 35.42 L
S
GR
GS
[0.75 0 0 0.75 0 0] CT
0.149 GC
2 setlinecap
1 LJ
0.667 LW
N
209 32 M
209 35.42 L
S
GR
GS
[0.75 0 0 0.75 0 0] CT
0.149 GC
2 setlinecap
1 LJ
0.667 LW
N
253 32 M
253 35.42 L
S
GR
GS
[0.75 0 0 0.75 0 0] CT
0.149 GC
2 setlinecap
1 LJ
0.667 LW
N
297 32 M
297 35.42 L
S
GR
GS
[0.75 0 0 0.75 0 0] CT
0.149 GC
2 setlinecap
1 LJ
0.667 LW
N
341 32 M
341 35.42 L
S
GR
GS
[0.75 0 0 0.75 0 0] CT
0.149 GC
2 setlinecap
1 LJ
0.667 LW
N
385 32 M
385 35.42 L
S
GR
GS
[0.75 0 0 0.75 57.75 284.50001] CT
0.149 GC
/Helvetica 13.333 F
GS
[1 0 0 1 0 0] CT
-8.5 13 moveto 
1 -1 scale
(30) t 
GR
GR
GS
[0.75 0 0 0.75 90.75 284.50001] CT
0.149 GC
/Helvetica 13.333 F
GS
[1 0 0 1 0 0] CT
-8.5 13 moveto 
1 -1 scale
(40) t 
GR
GR
GS
[0.75 0 0 0.75 123.75 284.50001] CT
0.149 GC
/Helvetica 13.333 F
GS
[1 0 0 1 0 0] CT
-8.5 13 moveto 
1 -1 scale
(50) t 
GR
GR
GS
[0.75 0 0 0.75 156.75 284.50001] CT
0.149 GC
/Helvetica 13.333 F
GS
[1 0 0 1 0 0] CT
-8.5 13 moveto 
1 -1 scale
(60) t 
GR
GR
GS
[0.75 0 0 0.75 189.75001 284.50001] CT
0.149 GC
/Helvetica 13.333 F
GS
[1 0 0 1 0 0] CT
-8.5 13 moveto 
1 -1 scale
(70) t 
GR
GR
GS
[0.75 0 0 0.75 222.75 284.50001] CT
0.149 GC
/Helvetica 13.333 F
GS
[1 0 0 1 0 0] CT
-8.5 13 moveto 
1 -1 scale
(80) t 
GR
GR
GS
[0.75 0 0 0.75 255.75 284.50001] CT
0.149 GC
/Helvetica 13.333 F
GS
[1 0 0 1 0 0] CT
-8.5 13 moveto 
1 -1 scale
(90) t 
GR
GR
GS
[0.75 0 0 0.75 288.75 284.50001] CT
0.149 GC
/Helvetica 13.333 F
GS
[1 0 0 1 0 0] CT
-12.5 13 moveto 
1 -1 scale
(100) t 
GR
GR
GS
[0.75 0 0 0.75 165.00011 298.24999] CT
0.149 GC
/Helvetica 14.667 F
GS
[1 0 0 1 0 0] CT
-24 14 moveto 
1 -1 scale
(Range) t 
GR
GR
GS
[0.75 0 0 0.75 0 0] CT
0.149 GC
2 setlinecap
1 LJ
0.667 LW
N
55 374 M
55 32 L
S
GR
GS
[0.75 0 0 0.75 0 0] CT
0.149 GC
2 setlinecap
1 LJ
0.667 LW
N
385 374 M
385 32 L
S
GR
GS
[0.75 0 0 0.75 0 0] CT
0.149 GC
2 setlinecap
1 LJ
0.667 LW
N
55 303.502 M
58.42 303.502 L
S
GR
GS
[0.75 0 0 0.75 0 0] CT
0.149 GC
2 setlinecap
1 LJ
0.667 LW
N
55 200.465 M
58.42 200.465 L
S
GR
GS
[0.75 0 0 0.75 0 0] CT
0.149 GC
2 setlinecap
1 LJ
0.667 LW
N
55 97.428 M
58.42 97.428 L
S
GR
GS
[0.75 0 0 0.75 0 0] CT
0.149 GC
2 setlinecap
1 LJ
0.667 LW
N
385 303.502 M
381.58 303.502 L
S
GR
GS
[0.75 0 0 0.75 0 0] CT
0.149 GC
2 setlinecap
1 LJ
0.667 LW
N
385 200.465 M
381.58 200.465 L
S
GR
GS
[0.75 0 0 0.75 0 0] CT
0.149 GC
2 setlinecap
1 LJ
0.667 LW
N
385 97.428 M
381.58 97.428 L
S
GR
GS
[0.75 0 0 0.75 0 0] CT
0.149 GC
2 setlinecap
1 LJ
0.667 LW
N
55 357.378 M
56.71 357.378 L
S
GR
GS
[0.75 0 0 0.75 0 0] CT
0.149 GC
2 setlinecap
1 LJ
0.667 LW
N
55 344.504 M
56.71 344.504 L
S
GR
GS
[0.75 0 0 0.75 0 0] CT
0.149 GC
2 setlinecap
1 LJ
0.667 LW
N
55 334.519 M
56.71 334.519 L
S
GR
GS
[0.75 0 0 0.75 0 0] CT
0.149 GC
2 setlinecap
1 LJ
0.667 LW
N
55 326.36 M
56.71 326.36 L
S
GR
GS
[0.75 0 0 0.75 0 0] CT
0.149 GC
2 setlinecap
1 LJ
0.667 LW
N
55 319.462 M
56.71 319.462 L
S
GR
GS
[0.75 0 0 0.75 0 0] CT
0.149 GC
2 setlinecap
1 LJ
0.667 LW
N
55 313.487 M
56.71 313.487 L
S
GR
GS
[0.75 0 0 0.75 0 0] CT
0.149 GC
2 setlinecap
1 LJ
0.667 LW
N
55 308.216 M
56.71 308.216 L
S
GR
GS
[0.75 0 0 0.75 0 0] CT
0.149 GC
2 setlinecap
1 LJ
0.667 LW
N
55 272.485 M
56.71 272.485 L
S
GR
GS
[0.75 0 0 0.75 0 0] CT
0.149 GC
2 setlinecap
1 LJ
0.667 LW
N
55 254.341 M
56.71 254.341 L
S
GR
GS
[0.75 0 0 0.75 0 0] CT
0.149 GC
2 setlinecap
1 LJ
0.667 LW
N
55 241.467 M
56.71 241.467 L
S
GR
GS
[0.75 0 0 0.75 0 0] CT
0.149 GC
2 setlinecap
1 LJ
0.667 LW
N
55 231.482 M
56.71 231.482 L
S
GR
GS
[0.75 0 0 0.75 0 0] CT
0.149 GC
2 setlinecap
1 LJ
0.667 LW
N
55 223.323 M
56.71 223.323 L
S
GR
GS
[0.75 0 0 0.75 0 0] CT
0.149 GC
2 setlinecap
1 LJ
0.667 LW
N
55 216.425 M
56.71 216.425 L
S
GR
GS
[0.75 0 0 0.75 0 0] CT
0.149 GC
2 setlinecap
1 LJ
0.667 LW
N
55 210.45 M
56.71 210.45 L
S
GR
GS
[0.75 0 0 0.75 0 0] CT
0.149 GC
2 setlinecap
1 LJ
0.667 LW
N
55 205.179 M
56.71 205.179 L
S
GR
GS
[0.75 0 0 0.75 0 0] CT
0.149 GC
2 setlinecap
1 LJ
0.667 LW
N
55 169.448 M
56.71 169.448 L
S
GR
GS
[0.75 0 0 0.75 0 0] CT
0.149 GC
2 setlinecap
1 LJ
0.667 LW
N
55 151.304 M
56.71 151.304 L
S
GR
GS
[0.75 0 0 0.75 0 0] CT
0.149 GC
2 setlinecap
1 LJ
0.667 LW
N
55 138.43 M
56.71 138.43 L
S
GR
GS
[0.75 0 0 0.75 0 0] CT
0.149 GC
2 setlinecap
1 LJ
0.667 LW
N
55 128.445 M
56.71 128.445 L
S
GR
GS
[0.75 0 0 0.75 0 0] CT
0.149 GC
2 setlinecap
1 LJ
0.667 LW
N
55 120.286 M
56.71 120.286 L
S
GR
GS
[0.75 0 0 0.75 0 0] CT
0.149 GC
2 setlinecap
1 LJ
0.667 LW
N
55 113.388 M
56.71 113.388 L
S
GR
GS
[0.75 0 0 0.75 0 0] CT
0.149 GC
2 setlinecap
1 LJ
0.667 LW
N
55 107.413 M
56.71 107.413 L
S
GR
GS
[0.75 0 0 0.75 0 0] CT
0.149 GC
2 setlinecap
1 LJ
0.667 LW
N
55 102.142 M
56.71 102.142 L
S
GR
GS
[0.75 0 0 0.75 0 0] CT
0.149 GC
2 setlinecap
1 LJ
0.667 LW
N
55 66.411 M
56.71 66.411 L
S
GR
GS
[0.75 0 0 0.75 0 0] CT
0.149 GC
2 setlinecap
1 LJ
0.667 LW
N
55 48.267 M
56.71 48.267 L
S
GR
GS
[0.75 0 0 0.75 0 0] CT
0.149 GC
2 setlinecap
1 LJ
0.667 LW
N
55 35.393 M
56.71 35.393 L
S
GR
GS
[0.75 0 0 0.75 0 0] CT
0.149 GC
2 setlinecap
1 LJ
0.667 LW
N
385 357.378 M
383.29 357.378 L
S
GR
GS
[0.75 0 0 0.75 0 0] CT
0.149 GC
2 setlinecap
1 LJ
0.667 LW
N
385 344.504 M
383.29 344.504 L
S
GR
GS
[0.75 0 0 0.75 0 0] CT
0.149 GC
2 setlinecap
1 LJ
0.667 LW
N
385 334.519 M
383.29 334.519 L
S
GR
GS
[0.75 0 0 0.75 0 0] CT
0.149 GC
2 setlinecap
1 LJ
0.667 LW
N
385 326.36 M
383.29 326.36 L
S
GR
GS
[0.75 0 0 0.75 0 0] CT
0.149 GC
2 setlinecap
1 LJ
0.667 LW
N
385 319.462 M
383.29 319.462 L
S
GR
GS
[0.75 0 0 0.75 0 0] CT
0.149 GC
2 setlinecap
1 LJ
0.667 LW
N
385 313.487 M
383.29 313.487 L
S
GR
GS
[0.75 0 0 0.75 0 0] CT
0.149 GC
2 setlinecap
1 LJ
0.667 LW
N
385 308.216 M
383.29 308.216 L
S
GR
GS
[0.75 0 0 0.75 0 0] CT
0.149 GC
2 setlinecap
1 LJ
0.667 LW
N
385 272.485 M
383.29 272.485 L
S
GR
GS
[0.75 0 0 0.75 0 0] CT
0.149 GC
2 setlinecap
1 LJ
0.667 LW
N
385 254.341 M
383.29 254.341 L
S
GR
GS
[0.75 0 0 0.75 0 0] CT
0.149 GC
2 setlinecap
1 LJ
0.667 LW
N
385 241.467 M
383.29 241.467 L
S
GR
GS
[0.75 0 0 0.75 0 0] CT
0.149 GC
2 setlinecap
1 LJ
0.667 LW
N
385 231.482 M
383.29 231.482 L
S
GR
GS
[0.75 0 0 0.75 0 0] CT
0.149 GC
2 setlinecap
1 LJ
0.667 LW
N
385 223.323 M
383.29 223.323 L
S
GR
GS
[0.75 0 0 0.75 0 0] CT
0.149 GC
2 setlinecap
1 LJ
0.667 LW
N
385 216.425 M
383.29 216.425 L
S
GR
GS
[0.75 0 0 0.75 0 0] CT
0.149 GC
2 setlinecap
1 LJ
0.667 LW
N
385 210.45 M
383.29 210.45 L
S
GR
GS
[0.75 0 0 0.75 0 0] CT
0.149 GC
2 setlinecap
1 LJ
0.667 LW
N
385 205.179 M
383.29 205.179 L
S
GR
GS
[0.75 0 0 0.75 0 0] CT
0.149 GC
2 setlinecap
1 LJ
0.667 LW
N
385 169.448 M
383.29 169.448 L
S
GR
GS
[0.75 0 0 0.75 0 0] CT
0.149 GC
2 setlinecap
1 LJ
0.667 LW
N
385 151.304 M
383.29 151.304 L
S
GR
GS
[0.75 0 0 0.75 0 0] CT
0.149 GC
2 setlinecap
1 LJ
0.667 LW
N
385 138.43 M
383.29 138.43 L
S
GR
GS
[0.75 0 0 0.75 0 0] CT
0.149 GC
2 setlinecap
1 LJ
0.667 LW
N
385 128.445 M
383.29 128.445 L
S
GR
GS
[0.75 0 0 0.75 0 0] CT
0.149 GC
2 setlinecap
1 LJ
0.667 LW
N
385 120.286 M
383.29 120.286 L
S
GR
GS
[0.75 0 0 0.75 0 0] CT
0.149 GC
2 setlinecap
1 LJ
0.667 LW
N
385 113.388 M
383.29 113.388 L
S
GR
GS
[0.75 0 0 0.75 0 0] CT
0.149 GC
2 setlinecap
1 LJ
0.667 LW
N
385 107.413 M
383.29 107.413 L
S
GR
GS
[0.75 0 0 0.75 0 0] CT
0.149 GC
2 setlinecap
1 LJ
0.667 LW
N
385 102.142 M
383.29 102.142 L
S
GR
GS
[0.75 0 0 0.75 0 0] CT
0.149 GC
2 setlinecap
1 LJ
0.667 LW
N
385 66.411 M
383.29 66.411 L
S
GR
GS
[0.75 0 0 0.75 0 0] CT
0.149 GC
2 setlinecap
1 LJ
0.667 LW
N
385 48.267 M
383.29 48.267 L
S
GR
GS
[0.75 0 0 0.75 0 0] CT
0.149 GC
2 setlinecap
1 LJ
0.667 LW
N
385 35.393 M
383.29 35.393 L
S
GR
GS
[0.75 0 0 0.75 19.5 233.25] CT
0.149 GC
/Helvetica 13.333 F
GS
[1 0 0 1 0 0] CT
0 0 moveto 
1 -1 scale
(10) t 
GR
GR
GS
[0.75 0 0 0.75 32.25 228.75] CT
0.149 GC
/Helvetica 10.667 F
GS
[1 0 0 1 0 0] CT
0 0 moveto 
1 -1 scale
(1) t 
GR
GR
GS
[0.75 0 0 0.75 19.5 155.25] CT
0.149 GC
/Helvetica 13.333 F
GS
[1 0 0 1 0 0] CT
0 0 moveto 
1 -1 scale
(10) t 
GR
GR
GS
[0.75 0 0 0.75 32.25 150.75] CT
0.149 GC
/Helvetica 10.667 F
GS
[1 0 0 1 0 0] CT
0 0 moveto 
1 -1 scale
(2) t 
GR
GR
GS
[0.75 0 0 0.75 19.5 78] CT
0.149 GC
/Helvetica 13.333 F
GS
[1 0 0 1 0 0] CT
0 0 moveto 
1 -1 scale
(10) t 
GR
GR
GS
[0.75 0 0 0.75 32.25 73.5] CT
0.149 GC
/Helvetica 10.667 F
GS
[1 0 0 1 0 0] CT
0 0 moveto 
1 -1 scale
(3) t 
GR
GR
GS
[0 -0.75 0.75 0 16.25 152.24987] CT
0.149 GC
/Helvetica 14.667 F
GS
[1 0 0 1 0 0] CT
-10 -4 moveto 
1 -1 scale
(RT) t 
GR
GR
GS
[0.75 0 0 0.75 0 0] CT
0 0 1 RC
1 LJ
0.667 LW
N
385 328.271 M
275 37.102 L
165 47.741 L
55 74.517 L
S
GR
GS
[0.75 0 0 0.75 0 0] CT
0 0 1 RC
1 LJ
N
389.5 328.5 M
388.736 326.149 L
386.736 324.696 L
384.264 324.696 L
382.264 326.149 L
381.5 328.5 L
382.264 330.851 L
384.264 332.304 L
386.736 332.304 L
388.736 330.851 L
cp
S
GR
GS
[0.75 0 0 0.75 0 0] CT
0 0 1 RC
1 LJ
N
279.5 37.5 M
278.736 35.149 L
276.736 33.696 L
274.264 33.696 L
272.264 35.149 L
271.5 37.5 L
272.264 39.851 L
274.264 41.304 L
276.736 41.304 L
278.736 39.851 L
cp
S
GR
GS
[0.75 0 0 0.75 0 0] CT
0 0 1 RC
1 LJ
N
169.5 47.5 M
168.736 45.149 L
166.736 43.696 L
164.264 43.696 L
162.264 45.149 L
161.5 47.5 L
162.264 49.851 L
164.264 51.304 L
166.736 51.304 L
168.736 49.851 L
cp
S
GR
GS
[0.75 0 0 0.75 0 0] CT
0 0 1 RC
1 LJ
N
59.5 74.5 M
58.736 72.149 L
56.736 70.696 L
54.264 70.696 L
52.264 72.149 L
51.5 74.5 L
52.264 76.851 L
54.264 78.304 L
56.736 78.304 L
58.736 76.851 L
cp
S
GR
GS
[0.75 0 0 0.75 0 0] CT
0 1 0 RC
1 LJ
0.667 LW
N
385 325.477 M
275 46.477 L
165 55.14 L
55 82.404 L
S
GR
GS
[0.75 0 0 0.75 0 0] CT
0 1 0 RC
1 LJ
N
389.5 325.5 M
388.736 323.149 L
386.736 321.696 L
384.264 321.696 L
382.264 323.149 L
381.5 325.5 L
382.264 327.851 L
384.264 329.304 L
386.736 329.304 L
388.736 327.851 L
cp
S
GR
GS
[0.75 0 0 0.75 0 0] CT
0 1 0 RC
1 LJ
N
279.5 46.5 M
278.736 44.149 L
276.736 42.696 L
274.264 42.696 L
272.264 44.149 L
271.5 46.5 L
272.264 48.851 L
274.264 50.304 L
276.736 50.304 L
278.736 48.851 L
cp
S
GR
GS
[0.75 0 0 0.75 0 0] CT
0 1 0 RC
1 LJ
N
169.5 55.5 M
168.736 53.149 L
166.736 51.696 L
164.264 51.696 L
162.264 53.149 L
161.5 55.5 L
162.264 57.851 L
164.264 59.304 L
166.736 59.304 L
168.736 57.851 L
cp
S
GR
GS
[0.75 0 0 0.75 0 0] CT
0 1 0 RC
1 LJ
N
59.5 82.5 M
58.736 80.149 L
56.736 78.696 L
54.264 78.696 L
52.264 80.149 L
51.5 82.5 L
52.264 84.851 L
54.264 86.304 L
56.736 86.304 L
58.736 84.851 L
cp
S
GR
GS
[0.75 0 0 0.75 0 0] CT
1 0 0 RC
1 LJ
0.667 LW
N
385 367.026 M
275 61.907 L
165 72.842 L
55 103.15 L
S
GR
GS
[0.75 0 0 0.75 0 0] CT
1 0 0 RC
1 LJ
N
389.5 367.5 M
388.736 365.149 L
386.736 363.696 L
384.264 363.696 L
382.264 365.149 L
381.5 367.5 L
382.264 369.851 L
384.264 371.304 L
386.736 371.304 L
388.736 369.851 L
cp
S
GR
GS
[0.75 0 0 0.75 0 0] CT
1 0 0 RC
1 LJ
N
279.5 61.5 M
278.736 59.149 L
276.736 57.696 L
274.264 57.696 L
272.264 59.149 L
271.5 61.5 L
272.264 63.851 L
274.264 65.304 L
276.736 65.304 L
278.736 63.851 L
cp
S
GR
GS
[0.75 0 0 0.75 0 0] CT
1 0 0 RC
1 LJ
N
169.5 72.5 M
168.736 70.149 L
166.736 68.696 L
164.264 68.696 L
162.264 70.149 L
161.5 72.5 L
162.264 74.851 L
164.264 76.304 L
166.736 76.304 L
168.736 74.851 L
cp
S
GR
GS
[0.75 0 0 0.75 0 0] CT
1 0 0 RC
1 LJ
N
59.5 103.5 M
58.736 101.149 L
56.736 99.696 L
54.264 99.696 L
52.264 101.149 L
51.5 103.5 L
52.264 105.851 L
54.264 107.304 L
56.736 107.304 L
58.736 105.851 L
cp
S
GR
GS
[0.75 0 0 0.75 0 0] CT
0 1 1 RC
1 LJ
0.667 LW
N
385 374 M
275 75.118 L
165 87.183 L
55 115.407 L
S
GR
GS
[0.75 0 0 0.75 0 0] CT
0 1 1 RC
1 LJ
N
389.5 373.5 M
388.736 371.149 L
386.736 369.696 L
384.264 369.696 L
382.264 371.149 L
381.5 373.5 L
382.264 375.851 L
384.264 377.304 L
386.736 377.304 L
388.736 375.851 L
cp
S
GR
GS
[0.75 0 0 0.75 0 0] CT
0 1 1 RC
1 LJ
N
279.5 75.5 M
278.736 73.149 L
276.736 71.696 L
274.264 71.696 L
272.264 73.149 L
271.5 75.5 L
272.264 77.851 L
274.264 79.304 L
276.736 79.304 L
278.736 77.851 L
cp
S
GR
GS
[0.75 0 0 0.75 0 0] CT
0 1 1 RC
1 LJ
N
169.5 87.5 M
168.736 85.149 L
166.736 83.696 L
164.264 83.696 L
162.264 85.149 L
161.5 87.5 L
162.264 89.851 L
164.264 91.304 L
166.736 91.304 L
168.736 89.851 L
cp
S
GR
GS
[0.75 0 0 0.75 0 0] CT
0 1 1 RC
1 LJ
N
59.5 115.5 M
58.736 113.149 L
56.736 111.696 L
54.264 111.696 L
52.264 113.149 L
51.5 115.5 L
52.264 117.851 L
54.264 119.304 L
56.736 119.304 L
58.736 117.851 L
cp
S
GR
GS
[0.75 0 0 0.75 0 0] CT
1 0 1 RC
1 LJ
0.667 LW
N
385 272.238 M
275 32 L
165 41.068 L
55 72.557 L
S
GR
GS
[0.75 0 0 0.75 0 0] CT
1 0 1 RC
1 LJ
N
389.5 272.5 M
388.736 270.149 L
386.736 268.696 L
384.264 268.696 L
382.264 270.149 L
381.5 272.5 L
382.264 274.851 L
384.264 276.304 L
386.736 276.304 L
388.736 274.851 L
cp
S
GR
GS
[0.75 0 0 0.75 0 0] CT
1 0 1 RC
1 LJ
N
279.5 31.5 M
278.736 29.149 L
276.736 27.696 L
274.264 27.696 L
272.264 29.149 L
271.5 31.5 L
272.264 33.851 L
274.264 35.304 L
276.736 35.304 L
278.736 33.851 L
cp
S
GR
GS
[0.75 0 0 0.75 0 0] CT
1 0 1 RC
1 LJ
N
169.5 41.5 M
168.736 39.149 L
166.736 37.696 L
164.264 37.696 L
162.264 39.149 L
161.5 41.5 L
162.264 43.851 L
164.264 45.304 L
166.736 45.304 L
168.736 43.851 L
cp
S
GR
GS
[0.75 0 0 0.75 0 0] CT
1 0 1 RC
1 LJ
N
59.5 72.5 M
58.736 70.149 L
56.736 68.696 L
54.264 68.696 L
52.264 70.149 L
51.5 72.5 L
52.264 74.851 L
54.264 76.304 L
56.736 76.304 L
58.736 74.851 L
cp
S
GR
GS
[0.75 0 0 0.75 0 0] CT
1 LJ
0.667 LW
N
385 325.49 M
275 225.274 L
165 236.639 L
55 230.618 L
S
GR
GS
[0.75 0 0 0.75 0 0] CT
1 LJ
N
389.5 325.5 M
388.736 323.149 L
386.736 321.696 L
384.264 321.696 L
382.264 323.149 L
381.5 325.5 L
382.264 327.851 L
384.264 329.304 L
386.736 329.304 L
388.736 327.851 L
cp
S
GR
GS
[0.75 0 0 0.75 0 0] CT
1 LJ
N
279.5 225.5 M
278.736 223.149 L
276.736 221.696 L
274.264 221.696 L
272.264 223.149 L
271.5 225.5 L
272.264 227.851 L
274.264 229.304 L
276.736 229.304 L
278.736 227.851 L
cp
S
GR
GS
[0.75 0 0 0.75 0 0] CT
1 LJ
N
169.5 236.5 M
168.736 234.149 L
166.736 232.696 L
164.264 232.696 L
162.264 234.149 L
161.5 236.5 L
162.264 238.851 L
164.264 240.304 L
166.736 240.304 L
168.736 238.851 L
cp
S
GR
GS
[0.75 0 0 0.75 0 0] CT
1 LJ
N
59.5 230.5 M
58.736 228.149 L
56.736 226.696 L
54.264 226.696 L
52.264 228.149 L
51.5 230.5 L
52.264 232.851 L
54.264 234.304 L
56.736 234.304 L
58.736 232.851 L
cp
S
GR
GS
[0.75 0 0 0.75 0 0] CT
0 0 1 RC
[8 3 2 3] 0 setdash
2 LJ
0.667 LW
N
385 317.332 M
275 216.899 L
165 214.58 L
55 226.642 L
S
GR
GS
[0.75 0 0 0.75 0 0] CT
0 0 1 RC
10.0 ML
N
385.5 322.832 M
389.5 317.5 L
385.5 312.168 L
381.5 317.5 L
cp
S
GR
GS
[0.75 0 0 0.75 0 0] CT
0 0 1 RC
10.0 ML
N
275.5 221.832 M
279.5 216.5 L
275.5 211.168 L
271.5 216.5 L
cp
S
GR
GS
[0.75 0 0 0.75 0 0] CT
0 0 1 RC
10.0 ML
N
165.5 219.832 M
169.5 214.5 L
165.5 209.168 L
161.5 214.5 L
cp
S
GR
GS
[0.75 0 0 0.75 0 0] CT
0 0 1 RC
10.0 ML
N
55.5 231.832 M
59.5 226.5 L
55.5 221.168 L
51.5 226.5 L
cp
S
GR
GS
[0.75 0 0 0.75 0 0] CT
0 1 0 RC
[8 3 2 3] 0 setdash
2 LJ
0.667 LW
N
385 297.739 M
275 145.755 L
165 145.472 L
55 155.96 L
S
GR
GS
[0.75 0 0 0.75 0 0] CT
0 1 0 RC
10.0 ML
N
385.5 302.832 M
389.5 297.5 L
385.5 292.168 L
381.5 297.5 L
cp
S
GR
GS
[0.75 0 0 0.75 0 0] CT
0 1 0 RC
10.0 ML
N
275.5 150.832 M
279.5 145.5 L
275.5 140.168 L
271.5 145.5 L
cp
S
GR
GS
[0.75 0 0 0.75 0 0] CT
0 1 0 RC
10.0 ML
N
165.5 150.832 M
169.5 145.5 L
165.5 140.168 L
161.5 145.5 L
cp
S
GR
GS
[0.75 0 0 0.75 0 0] CT
0 1 0 RC
10.0 ML
N
55.5 160.832 M
59.5 155.5 L
55.5 150.168 L
51.5 155.5 L
cp
S
GR
GS
[0.75 0 0 0.75 0 0] CT
1 0 0 RC
[8 3 2 3] 0 setdash
2 LJ
0.667 LW
N
385 280.995 M
275 226.5 L
165 241.451 L
55 247.829 L
S
GR
GS
[0.75 0 0 0.75 0 0] CT
1 0 0 RC
10.0 ML
N
385.5 285.832 M
389.5 280.5 L
385.5 275.168 L
381.5 280.5 L
cp
S
GR
GS
[0.75 0 0 0.75 0 0] CT
1 0 0 RC
10.0 ML
N
275.5 231.832 M
279.5 226.5 L
275.5 221.168 L
271.5 226.5 L
cp
S
GR
GS
[0.75 0 0 0.75 0 0] CT
1 0 0 RC
10.0 ML
N
165.5 246.832 M
169.5 241.5 L
165.5 236.168 L
161.5 241.5 L
cp
S
GR
GS
[0.75 0 0 0.75 0 0] CT
1 0 0 RC
10.0 ML
N
55.5 252.832 M
59.5 247.5 L
55.5 242.168 L
51.5 247.5 L
cp
S
GR
GS
[0.75 0 0 0.75 0 0] CT
0 1 1 RC
[8 3 2 3] 0 setdash
2 LJ
0.667 LW
N
385 342.747 M
275 256.122 L
165 260.903 L
55 291.126 L
S
GR
GS
[0.75 0 0 0.75 0 0] CT
0 1 1 RC
10.0 ML
N
385.5 347.832 M
389.5 342.5 L
385.5 337.168 L
381.5 342.5 L
cp
S
GR
GS
[0.75 0 0 0.75 0 0] CT
0 1 1 RC
10.0 ML
N
275.5 261.832 M
279.5 256.5 L
275.5 251.168 L
271.5 256.5 L
cp
S
GR
GS
[0.75 0 0 0.75 0 0] CT
0 1 1 RC
10.0 ML
N
165.5 265.832 M
169.5 260.5 L
165.5 255.168 L
161.5 260.5 L
cp
S
GR
GS
[0.75 0 0 0.75 0 0] CT
0 1 1 RC
10.0 ML
N
55.5 296.832 M
59.5 291.5 L
55.5 286.168 L
51.5 291.5 L
cp
S
GR
GS
[0.75 0 0 0.75 0 0] CT
1 GC
N
411 190 M
411 32 L
520 32 L
520 190 L
cp
f
GR
GS
[0.75 0 0 0.75 336 31.10252] CT
/Helvetica 12 F
GS
[1 0 0 1 0 0] CT
0 4.5 moveto 
1 -1 scale
(Tmplsqr) t 
GR
GR
GS
[0.75 0 0 0.75 0 0] CT
0 0 1 RC
1 LJ
0.667 LW
N
415 41.47 M
445 41.47 L
S
GR
GS
[0.75 0 0 0.75 0 0] CT
0 0 1 RC
1 LJ
N
434.5 41.5 M
433.736 39.149 L
431.736 37.696 L
429.264 37.696 L
427.264 39.149 L
426.5 41.5 L
427.264 43.851 L
429.264 45.304 L
431.736 45.304 L
433.736 43.851 L
cp
S
GR
GS
[0.75 0 0 0.75 336 42.69085] CT
/Helvetica 12 F
GS
[1 0 0 1 0 0] CT
0 4.5 moveto 
1 -1 scale
(Tmplsmr) t 
GR
GR
GS
[0.75 0 0 0.75 0 0] CT
0 1 0 RC
1 LJ
0.667 LW
N
415 56.921 M
445 56.921 L
S
GR
GS
[0.75 0 0 0.75 0 0] CT
0 1 0 RC
1 LJ
N
434.5 56.5 M
433.736 54.149 L
431.736 52.696 L
429.264 52.696 L
427.264 54.149 L
426.5 56.5 L
427.264 58.851 L
429.264 60.304 L
431.736 60.304 L
433.736 58.851 L
cp
S
GR
GS
[0.75 0 0 0.75 336 54.27918] CT
/Helvetica 12 F
GS
[1 0 0 1 0 0] CT
0 4.5 moveto 
1 -1 scale
(Tmppcg) t 
GR
GR
GS
[0.75 0 0 0.75 0 0] CT
1 0 0 RC
1 LJ
0.667 LW
N
415 72.372 M
445 72.372 L
S
GR
GS
[0.75 0 0 0.75 0 0] CT
1 0 0 RC
1 LJ
N
434.5 72.5 M
433.736 70.149 L
431.736 68.696 L
429.264 68.696 L
427.264 70.149 L
426.5 72.5 L
427.264 74.851 L
429.264 76.304 L
431.736 76.304 L
433.736 74.851 L
cp
S
GR
GS
[0.75 0 0 0.75 336 65.86751] CT
/Helvetica 12 F
GS
[1 0 0 1 0 0] CT
0 4.5 moveto 
1 -1 scale
(Tmpminres) t 
GR
GR
GS
[0.75 0 0 0.75 0 0] CT
0 1 1 RC
1 LJ
0.667 LW
N
415 87.823 M
445 87.823 L
S
GR
GS
[0.75 0 0 0.75 0 0] CT
0 1 1 RC
1 LJ
N
434.5 87.5 M
433.736 85.149 L
431.736 83.696 L
429.264 83.696 L
427.264 85.149 L
426.5 87.5 L
427.264 89.851 L
429.264 91.304 L
431.736 91.304 L
433.736 89.851 L
cp
S
GR
GS
[0.75 0 0 0.75 336 77.45584] CT
/Helvetica 12 F
GS
[1 0 0 1 0 0] CT
0 4.5 moveto 
1 -1 scale
(Pnb) t 
GR
GR
GS
[0.75 0 0 0.75 0 0] CT
1 0 1 RC
1 LJ
0.667 LW
N
415 103.274 M
445 103.274 L
S
GR
GS
[0.75 0 0 0.75 0 0] CT
1 0 1 RC
1 LJ
N
434.5 103.5 M
433.736 101.149 L
431.736 99.696 L
429.264 99.696 L
427.264 101.149 L
426.5 103.5 L
427.264 105.851 L
429.264 107.304 L
431.736 107.304 L
433.736 105.851 L
cp
S
GR
GS
[0.75 0 0 0.75 336 89.04416] CT
/Helvetica 12 F
GS
[1 0 0 1 0 0] CT
0 4.5 moveto 
1 -1 scale
(Bb) t 
GR
GR
GS
[0.75 0 0 0.75 0 0] CT
1 LJ
0.667 LW
N
415 118.726 M
445 118.726 L
S
GR
GS
[0.75 0 0 0.75 0 0] CT
1 LJ
N
434.5 118.5 M
433.736 116.149 L
431.736 114.696 L
429.264 114.696 L
427.264 116.149 L
426.5 118.5 L
427.264 120.851 L
429.264 122.304 L
431.736 122.304 L
433.736 120.851 L
cp
S
GR
GS
[0.75 0 0 0.75 336 100.63249] CT
/Helvetica 12 F
GS
[1 0 0 1 0 0] CT
0 4.5 moveto 
1 -1 scale
(Spg) t 
GR
GR
GS
[0.75 0 0 0.75 0 0] CT
0 0 1 RC
[8 3 2 3] 0 setdash
2 LJ
0.667 LW
N
415 134.177 M
445 134.177 L
S
GR
GS
[0.75 0 0 0.75 0 0] CT
0 0 1 RC
10.0 ML
N
430.5 139.832 M
434.5 134.5 L
430.5 129.168 L
426.5 134.5 L
cp
S
GR
GS
[0.75 0 0 0.75 336 112.22082] CT
/Helvetica 12 F
GS
[1 0 0 1 0 0] CT
0 4.5 moveto 
1 -1 scale
(Pqn) t 
GR
GR
GS
[0.75 0 0 0.75 0 0] CT
0 1 0 RC
[8 3 2 3] 0 setdash
2 LJ
0.667 LW
N
415 149.628 M
445 149.628 L
S
GR
GS
[0.75 0 0 0.75 0 0] CT
0 1 0 RC
10.0 ML
N
430.5 154.832 M
434.5 149.5 L
430.5 144.168 L
426.5 149.5 L
cp
S
GR
GS
[0.75 0 0 0.75 336 123.80915] CT
/Helvetica 12 F
GS
[1 0 0 1 0 0] CT
0 4.5 moveto 
1 -1 scale
(Lbfgsb) t 
GR
GR
GS
[0.75 0 0 0.75 0 0] CT
1 0 0 RC
[8 3 2 3] 0 setdash
2 LJ
0.667 LW
N
415 165.079 M
445 165.079 L
S
GR
GS
[0.75 0 0 0.75 0 0] CT
1 0 0 RC
10.0 ML
N
430.5 170.832 M
434.5 165.5 L
430.5 160.168 L
426.5 165.5 L
cp
S
GR
GS
[0.75 0 0 0.75 336 135.39748] CT
/Helvetica 12 F
GS
[1 0 0 1 0 0] CT
0 4.5 moveto 
1 -1 scale
(Bcflash) t 
GR
GR
GS
[0.75 0 0 0.75 0 0] CT
0 1 1 RC
[8 3 2 3] 0 setdash
2 LJ
0.667 LW
N
415 180.53 M
445 180.53 L
S
GR
GS
[0.75 0 0 0.75 0 0] CT
0 1 1 RC
10.0 ML
N
430.5 185.832 M
434.5 180.5 L
430.5 175.168 L
426.5 180.5 L
cp
S
GR
GS
[0.75 0 0 0.75 0 0] CT
0.149 GC
10.0 ML
0.667 LW
N
411 190 M
411 32 L
520 32 L
520 190 L
cp
S
GR
%%Trailer
%%Pages: 1
%%EOF
