%!PS-Adobe-3.0 EPSF-3.0
%%Creator: (MATLAB, The Mathworks, Inc. Version 9.0.0.341360 \(R2016a\). Operating System: Linux)
%%Title: data/fact1RangePg.eps
%%CreationDate: 2017-02-05T08:23:59
%%Pages: (atend)
%%BoundingBox:     1     3   391   295
%%LanguageLevel: 3
%%EndComments
%%BeginProlog
%%BeginResource: procset (Apache XML Graphics Std ProcSet) 1.2 0
%%Version: 1.2 0
%%Copyright: (Copyright 2001-2003,2010 The Apache Software Foundation. License terms: http://www.apache.org/licenses/LICENSE-2.0)
/bd{bind def}bind def
/ld{load def}bd
/GR/grestore ld
/M/moveto ld
/LJ/setlinejoin ld
/C/curveto ld
/f/fill ld
/LW/setlinewidth ld
/GC/setgray ld
/t/show ld
/N/newpath ld
/CT/concat ld
/cp/closepath ld
/S/stroke ld
/L/lineto ld
/CC/setcmykcolor ld
/A/ashow ld
/GS/gsave ld
/RC/setrgbcolor ld
/RM/rmoveto ld
/ML/setmiterlimit ld
/re {4 2 roll M
1 index 0 rlineto
0 exch rlineto
neg 0 rlineto
cp } bd
/_ctm matrix def
/_tm matrix def
/BT { _ctm currentmatrix pop matrix _tm copy pop 0 0 moveto } bd
/ET { _ctm setmatrix } bd
/iTm { _ctm setmatrix _tm concat } bd
/Tm { _tm astore pop iTm 0 0 moveto } bd
/ux 0.0 def
/uy 0.0 def
/F {
  /Tp exch def
  /Tf exch def
  Tf findfont Tp scalefont setfont
  /cf Tf def  /cs Tp def
} bd
/ULS {currentpoint /uy exch def /ux exch def} bd
/ULE {
  /Tcx currentpoint pop def
  gsave
  newpath
  cf findfont cs scalefont dup
  /FontMatrix get 0 get /Ts exch def /FontInfo get dup
  /UnderlinePosition get Ts mul /To exch def
  /UnderlineThickness get Ts mul /Tt exch def
  ux uy To add moveto  Tcx uy To add lineto
  Tt setlinewidth stroke
  grestore
} bd
/OLE {
  /Tcx currentpoint pop def
  gsave
  newpath
  cf findfont cs scalefont dup
  /FontMatrix get 0 get /Ts exch def /FontInfo get dup
  /UnderlinePosition get Ts mul /To exch def
  /UnderlineThickness get Ts mul /Tt exch def
  ux uy To add cs add moveto Tcx uy To add cs add lineto
  Tt setlinewidth stroke
  grestore
} bd
/SOE {
  /Tcx currentpoint pop def
  gsave
  newpath
  cf findfont cs scalefont dup
  /FontMatrix get 0 get /Ts exch def /FontInfo get dup
  /UnderlinePosition get Ts mul /To exch def
  /UnderlineThickness get Ts mul /Tt exch def
  ux uy To add cs 10 mul 26 idiv add moveto Tcx uy To add cs 10 mul 26 idiv add lineto
  Tt setlinewidth stroke
  grestore
} bd
/QT {
/Y22 exch store
/X22 exch store
/Y21 exch store
/X21 exch store
currentpoint
/Y21 load 2 mul add 3 div exch
/X21 load 2 mul add 3 div exch
/X21 load 2 mul /X22 load add 3 div
/Y21 load 2 mul /Y22 load add 3 div
/X22 load /Y22 load curveto
} bd
/SSPD {
dup length /d exch dict def
{
/v exch def
/k exch def
currentpagedevice k known {
/cpdv currentpagedevice k get def
v cpdv ne {
/upd false def
/nullv v type /nulltype eq def
/nullcpdv cpdv type /nulltype eq def
nullv nullcpdv or
{
/upd true def
} {
/sametype v type cpdv type eq def
sametype {
v type /arraytype eq {
/vlen v length def
/cpdvlen cpdv length def
vlen cpdvlen eq {
0 1 vlen 1 sub {
/i exch def
/obj v i get def
/cpdobj cpdv i get def
obj cpdobj ne {
/upd true def
exit
} if
} for
} {
/upd true def
} ifelse
} {
v type /dicttype eq {
v {
/dv exch def
/dk exch def
/cpddv cpdv dk get def
dv cpddv ne {
/upd true def
exit
} if
} forall
} {
/upd true def
} ifelse
} ifelse
} if
} ifelse
upd true eq {
d k v put
} if
} if
} if
} forall
d length 0 gt {
d setpagedevice
} if
} bd
%%EndResource
%%BeginResource: procset (Apache XML Graphics EPS ProcSet) 1.0 0
%%Version: 1.0 0
%%Copyright: (Copyright 2002-2003 The Apache Software Foundation. License terms: http://www.apache.org/licenses/LICENSE-2.0)
/BeginEPSF { %def
/b4_Inc_state save def         % Save state for cleanup
/dict_count countdictstack def % Count objects on dict stack
/op_count count 1 sub def      % Count objects on operand stack
userdict begin                 % Push userdict on dict stack
/showpage { } def              % Redefine showpage, { } = null proc
0 setgray 0 setlinecap         % Prepare graphics state
1 setlinewidth 0 setlinejoin
10 setmiterlimit [ ] 0 setdash newpath
/languagelevel where           % If level not equal to 1 then
{pop languagelevel             % set strokeadjust and
1 ne                           % overprint to their defaults.
{false setstrokeadjust false setoverprint
} if
} if
} bd
/EndEPSF { %def
count op_count sub {pop} repeat            % Clean up stacks
countdictstack dict_count sub {end} repeat
b4_Inc_state restore
} bd
%%EndResource
%FOPBeginFontDict
%%IncludeResource: font Courier-Bold
%%IncludeResource: font Helvetica
%%IncludeResource: font Courier-BoldOblique
%%IncludeResource: font Courier-Oblique
%%IncludeResource: font Times-Roman
%%IncludeResource: font Helvetica-BoldOblique
%%IncludeResource: font Helvetica-Bold
%%IncludeResource: font Helvetica-Oblique
%%IncludeResource: font Times-BoldItalic
%%IncludeResource: font Courier
%%IncludeResource: font Times-Italic
%%IncludeResource: font Times-Bold
%%IncludeResource: font Symbol
%%IncludeResource: font ZapfDingbats
%FOPEndFontDict
%%BeginResource: encoding WinAnsiEncoding
/WinAnsiEncoding [
/.notdef /.notdef /.notdef /.notdef /.notdef
/.notdef /.notdef /.notdef /.notdef /.notdef
/.notdef /.notdef /.notdef /.notdef /.notdef
/.notdef /.notdef /.notdef /.notdef /.notdef
/.notdef /.notdef /.notdef /.notdef /.notdef
/.notdef /.notdef /.notdef /.notdef /.notdef
/.notdef /.notdef /space /exclam /quotedbl
/numbersign /dollar /percent /ampersand /quotesingle
/parenleft /parenright /asterisk /plus /comma
/hyphen /period /slash /zero /one
/two /three /four /five /six
/seven /eight /nine /colon /semicolon
/less /equal /greater /question /at
/A /B /C /D /E
/F /G /H /I /J
/K /L /M /N /O
/P /Q /R /S /T
/U /V /W /X /Y
/Z /bracketleft /backslash /bracketright /asciicircum
/underscore /quoteleft /a /b /c
/d /e /f /g /h
/i /j /k /l /m
/n /o /p /q /r
/s /t /u /v /w
/x /y /z /braceleft /bar
/braceright /asciitilde /bullet /Euro /bullet
/quotesinglbase /florin /quotedblbase /ellipsis /dagger
/daggerdbl /circumflex /perthousand /Scaron /guilsinglleft
/OE /bullet /Zcaron /bullet /bullet
/quoteleft /quoteright /quotedblleft /quotedblright /bullet
/endash /emdash /asciitilde /trademark /scaron
/guilsinglright /oe /bullet /zcaron /Ydieresis
/space /exclamdown /cent /sterling /currency
/yen /brokenbar /section /dieresis /copyright
/ordfeminine /guillemotleft /logicalnot /sfthyphen /registered
/macron /degree /plusminus /twosuperior /threesuperior
/acute /mu /paragraph /middot /cedilla
/onesuperior /ordmasculine /guillemotright /onequarter /onehalf
/threequarters /questiondown /Agrave /Aacute /Acircumflex
/Atilde /Adieresis /Aring /AE /Ccedilla
/Egrave /Eacute /Ecircumflex /Edieresis /Igrave
/Iacute /Icircumflex /Idieresis /Eth /Ntilde
/Ograve /Oacute /Ocircumflex /Otilde /Odieresis
/multiply /Oslash /Ugrave /Uacute /Ucircumflex
/Udieresis /Yacute /Thorn /germandbls /agrave
/aacute /acircumflex /atilde /adieresis /aring
/ae /ccedilla /egrave /eacute /ecircumflex
/edieresis /igrave /iacute /icircumflex /idieresis
/eth /ntilde /ograve /oacute /ocircumflex
/otilde /odieresis /divide /oslash /ugrave
/uacute /ucircumflex /udieresis /yacute /thorn
/ydieresis
] def
%%EndResource
%FOPBeginFontReencode
/Courier-Bold findfont
dup length dict begin
  {1 index /FID ne {def} {pop pop} ifelse} forall
  /Encoding WinAnsiEncoding def
  currentdict
end
/Courier-Bold exch definefont pop
/Helvetica findfont
dup length dict begin
  {1 index /FID ne {def} {pop pop} ifelse} forall
  /Encoding WinAnsiEncoding def
  currentdict
end
/Helvetica exch definefont pop
/Courier-BoldOblique findfont
dup length dict begin
  {1 index /FID ne {def} {pop pop} ifelse} forall
  /Encoding WinAnsiEncoding def
  currentdict
end
/Courier-BoldOblique exch definefont pop
/Courier-Oblique findfont
dup length dict begin
  {1 index /FID ne {def} {pop pop} ifelse} forall
  /Encoding WinAnsiEncoding def
  currentdict
end
/Courier-Oblique exch definefont pop
/Times-Roman findfont
dup length dict begin
  {1 index /FID ne {def} {pop pop} ifelse} forall
  /Encoding WinAnsiEncoding def
  currentdict
end
/Times-Roman exch definefont pop
/Helvetica-BoldOblique findfont
dup length dict begin
  {1 index /FID ne {def} {pop pop} ifelse} forall
  /Encoding WinAnsiEncoding def
  currentdict
end
/Helvetica-BoldOblique exch definefont pop
/Helvetica-Bold findfont
dup length dict begin
  {1 index /FID ne {def} {pop pop} ifelse} forall
  /Encoding WinAnsiEncoding def
  currentdict
end
/Helvetica-Bold exch definefont pop
/Helvetica-Oblique findfont
dup length dict begin
  {1 index /FID ne {def} {pop pop} ifelse} forall
  /Encoding WinAnsiEncoding def
  currentdict
end
/Helvetica-Oblique exch definefont pop
/Times-BoldItalic findfont
dup length dict begin
  {1 index /FID ne {def} {pop pop} ifelse} forall
  /Encoding WinAnsiEncoding def
  currentdict
end
/Times-BoldItalic exch definefont pop
/Courier findfont
dup length dict begin
  {1 index /FID ne {def} {pop pop} ifelse} forall
  /Encoding WinAnsiEncoding def
  currentdict
end
/Courier exch definefont pop
/Times-Italic findfont
dup length dict begin
  {1 index /FID ne {def} {pop pop} ifelse} forall
  /Encoding WinAnsiEncoding def
  currentdict
end
/Times-Italic exch definefont pop
/Times-Bold findfont
dup length dict begin
  {1 index /FID ne {def} {pop pop} ifelse} forall
  /Encoding WinAnsiEncoding def
  currentdict
end
/Times-Bold exch definefont pop
%FOPEndFontReencode
%%EndProlog
%%Page: 1 1
%%PageBoundingBox: 0 0 420 315
%%BeginPageSetup
[1 0 0 -1 0 315] CT
%%EndPageSetup
GS
[0.75 0 0 0.75 0 0] CT
1 GC
N
0 0 560 420 re
f
GR
GS
[0.75 0 0 0.75 0 0] CT
1 GC
N
0 0 560 420 re
f
GR
GS
[0.75 0 0 0.75 0 0] CT
1 GC
N
63 374 M
385 374 L
385 32 L
63 32 L
cp
f
GR
GS
[0.75 0 0 0.75 0 0] CT
0.149 GC
2 setlinecap
1 LJ
0.667 LW
N
63 374 M
385 374 L
S
GR
GS
[0.75 0 0 0.75 0 0] CT
0.149 GC
2 setlinecap
1 LJ
0.667 LW
N
63 32 M
385 32 L
S
GR
GS
[0.75 0 0 0.75 0 0] CT
0.149 GC
2 setlinecap
1 LJ
0.667 LW
N
84.467 374 M
84.467 370.58 L
S
GR
GS
[0.75 0 0 0.75 0 0] CT
0.149 GC
2 setlinecap
1 LJ
0.667 LW
N
127.4 374 M
127.4 370.58 L
S
GR
GS
[0.75 0 0 0.75 0 0] CT
0.149 GC
2 setlinecap
1 LJ
0.667 LW
N
170.333 374 M
170.333 370.58 L
S
GR
GS
[0.75 0 0 0.75 0 0] CT
0.149 GC
2 setlinecap
1 LJ
0.667 LW
N
213.267 374 M
213.267 370.58 L
S
GR
GS
[0.75 0 0 0.75 0 0] CT
0.149 GC
2 setlinecap
1 LJ
0.667 LW
N
256.2 374 M
256.2 370.58 L
S
GR
GS
[0.75 0 0 0.75 0 0] CT
0.149 GC
2 setlinecap
1 LJ
0.667 LW
N
299.133 374 M
299.133 370.58 L
S
GR
GS
[0.75 0 0 0.75 0 0] CT
0.149 GC
2 setlinecap
1 LJ
0.667 LW
N
342.067 374 M
342.067 370.58 L
S
GR
GS
[0.75 0 0 0.75 0 0] CT
0.149 GC
2 setlinecap
1 LJ
0.667 LW
N
385 374 M
385 370.58 L
S
GR
GS
[0.75 0 0 0.75 0 0] CT
0.149 GC
2 setlinecap
1 LJ
0.667 LW
N
84.467 32 M
84.467 35.42 L
S
GR
GS
[0.75 0 0 0.75 0 0] CT
0.149 GC
2 setlinecap
1 LJ
0.667 LW
N
127.4 32 M
127.4 35.42 L
S
GR
GS
[0.75 0 0 0.75 0 0] CT
0.149 GC
2 setlinecap
1 LJ
0.667 LW
N
170.333 32 M
170.333 35.42 L
S
GR
GS
[0.75 0 0 0.75 0 0] CT
0.149 GC
2 setlinecap
1 LJ
0.667 LW
N
213.267 32 M
213.267 35.42 L
S
GR
GS
[0.75 0 0 0.75 0 0] CT
0.149 GC
2 setlinecap
1 LJ
0.667 LW
N
256.2 32 M
256.2 35.42 L
S
GR
GS
[0.75 0 0 0.75 0 0] CT
0.149 GC
2 setlinecap
1 LJ
0.667 LW
N
299.133 32 M
299.133 35.42 L
S
GR
GS
[0.75 0 0 0.75 0 0] CT
0.149 GC
2 setlinecap
1 LJ
0.667 LW
N
342.067 32 M
342.067 35.42 L
S
GR
GS
[0.75 0 0 0.75 0 0] CT
0.149 GC
2 setlinecap
1 LJ
0.667 LW
N
385 32 M
385 35.42 L
S
GR
GS
[0.75 0 0 0.75 63.35 284.50001] CT
0.149 GC
/Helvetica 13.333 F
GS
[1 0 0 1 0 0] CT
-8.5 13 moveto 
1 -1 scale
(30) t 
GR
GR
GS
[0.75 0 0 0.75 95.55 284.50001] CT
0.149 GC
/Helvetica 13.333 F
GS
[1 0 0 1 0 0] CT
-8.5 13 moveto 
1 -1 scale
(40) t 
GR
GR
GS
[0.75 0 0 0.75 127.75001 284.50001] CT
0.149 GC
/Helvetica 13.333 F
GS
[1 0 0 1 0 0] CT
-8.5 13 moveto 
1 -1 scale
(50) t 
GR
GR
GS
[0.75 0 0 0.75 159.95 284.50001] CT
0.149 GC
/Helvetica 13.333 F
GS
[1 0 0 1 0 0] CT
-8.5 13 moveto 
1 -1 scale
(60) t 
GR
GR
GS
[0.75 0 0 0.75 192.15001 284.50001] CT
0.149 GC
/Helvetica 13.333 F
GS
[1 0 0 1 0 0] CT
-8.5 13 moveto 
1 -1 scale
(70) t 
GR
GR
GS
[0.75 0 0 0.75 224.35 284.50001] CT
0.149 GC
/Helvetica 13.333 F
GS
[1 0 0 1 0 0] CT
-8.5 13 moveto 
1 -1 scale
(80) t 
GR
GR
GS
[0.75 0 0 0.75 256.55001 284.50001] CT
0.149 GC
/Helvetica 13.333 F
GS
[1 0 0 1 0 0] CT
-8.5 13 moveto 
1 -1 scale
(90) t 
GR
GR
GS
[0.75 0 0 0.75 288.75 284.50001] CT
0.149 GC
/Helvetica 13.333 F
GS
[1 0 0 1 0 0] CT
-12.5 13 moveto 
1 -1 scale
(100) t 
GR
GR
GS
[0.75 0 0 0.75 168.00011 298.24999] CT
0.149 GC
/Helvetica 14.667 F
GS
[1 0 0 1 0 0] CT
-24 14 moveto 
1 -1 scale
(Range) t 
GR
GR
GS
[0.75 0 0 0.75 0 0] CT
0.149 GC
2 setlinecap
1 LJ
0.667 LW
N
63 374 M
63 32 L
S
GR
GS
[0.75 0 0 0.75 0 0] CT
0.149 GC
2 setlinecap
1 LJ
0.667 LW
N
385 374 M
385 32 L
S
GR
GS
[0.75 0 0 0.75 0 0] CT
0.149 GC
2 setlinecap
1 LJ
0.667 LW
N
63 296.867 M
66.42 296.867 L
S
GR
GS
[0.75 0 0 0.75 0 0] CT
0.149 GC
2 setlinecap
1 LJ
0.667 LW
N
63 212.74 M
66.42 212.74 L
S
GR
GS
[0.75 0 0 0.75 0 0] CT
0.149 GC
2 setlinecap
1 LJ
0.667 LW
N
63 128.613 M
66.42 128.613 L
S
GR
GS
[0.75 0 0 0.75 0 0] CT
0.149 GC
2 setlinecap
1 LJ
0.667 LW
N
63 44.486 M
66.42 44.486 L
S
GR
GS
[0.75 0 0 0.75 0 0] CT
0.149 GC
2 setlinecap
1 LJ
0.667 LW
N
385 296.867 M
381.58 296.867 L
S
GR
GS
[0.75 0 0 0.75 0 0] CT
0.149 GC
2 setlinecap
1 LJ
0.667 LW
N
385 212.74 M
381.58 212.74 L
S
GR
GS
[0.75 0 0 0.75 0 0] CT
0.149 GC
2 setlinecap
1 LJ
0.667 LW
N
385 128.613 M
381.58 128.613 L
S
GR
GS
[0.75 0 0 0.75 0 0] CT
0.149 GC
2 setlinecap
1 LJ
0.667 LW
N
385 44.486 M
381.58 44.486 L
S
GR
GS
[0.75 0 0 0.75 17.25 228] CT
0.149 GC
/Helvetica 13.333 F
GS
[1 0 0 1 0 0] CT
0 0 moveto 
1 -1 scale
(10) t 
GR
GR
GS
[0.75 0 0 0.75 30 223.5] CT
0.149 GC
/Helvetica 10.667 F
GS
[1 0 0 1 0 0] CT
0 0 moveto 
1 -1 scale
(-10) t 
GR
GR
GS
[0.75 0 0 0.75 22.5 165] CT
0.149 GC
/Helvetica 13.333 F
GS
[1 0 0 1 0 0] CT
0 0 moveto 
1 -1 scale
(10) t 
GR
GR
GS
[0.75 0 0 0.75 35.25 160.5] CT
0.149 GC
/Helvetica 10.667 F
GS
[1 0 0 1 0 0] CT
0 0 moveto 
1 -1 scale
(-8) t 
GR
GR
GS
[0.75 0 0 0.75 22.5 102] CT
0.149 GC
/Helvetica 13.333 F
GS
[1 0 0 1 0 0] CT
0 0 moveto 
1 -1 scale
(10) t 
GR
GR
GS
[0.75 0 0 0.75 35.25 97.5] CT
0.149 GC
/Helvetica 10.667 F
GS
[1 0 0 1 0 0] CT
0 0 moveto 
1 -1 scale
(-6) t 
GR
GR
GS
[0.75 0 0 0.75 22.5 38.25] CT
0.149 GC
/Helvetica 13.333 F
GS
[1 0 0 1 0 0] CT
0 0 moveto 
1 -1 scale
(10) t 
GR
GR
GS
[0.75 0 0 0.75 35.25 33.75] CT
0.149 GC
/Helvetica 10.667 F
GS
[1 0 0 1 0 0] CT
0 0 moveto 
1 -1 scale
(-4) t 
GR
GR
GS
[0 -0.75 0.75 0 13.25 152.24987] CT
0.149 GC
/Helvetica 14.667 F
GS
[1 0 0 1 0 0] CT
-14.5 -4 moveto 
1 -1 scale
(|Pg|) t 
GR
GR
GS
[0.75 0 0 0.75 0 0] CT
0 0 1 RC
1 LJ
0.667 LW
N
385 94.133 M
277.667 113.069 L
170.333 111.029 L
63 116.109 L
S
GR
GS
[0.75 0 0 0.75 0 0] CT
0 0 1 RC
1 LJ
N
389.5 94.5 M
388.736 92.149 L
386.736 90.696 L
384.264 90.696 L
382.264 92.149 L
381.5 94.5 L
382.264 96.851 L
384.264 98.304 L
386.736 98.304 L
388.736 96.851 L
cp
S
GR
GS
[0.75 0 0 0.75 0 0] CT
0 0 1 RC
1 LJ
N
281.5 113.5 M
280.736 111.149 L
278.736 109.696 L
276.264 109.696 L
274.264 111.149 L
273.5 113.5 L
274.264 115.851 L
276.264 117.304 L
278.736 117.304 L
280.736 115.851 L
cp
S
GR
GS
[0.75 0 0 0.75 0 0] CT
0 0 1 RC
1 LJ
N
174.5 111.5 M
173.736 109.149 L
171.736 107.696 L
169.264 107.696 L
167.264 109.149 L
166.5 111.5 L
167.264 113.851 L
169.264 115.304 L
171.736 115.304 L
173.736 113.851 L
cp
S
GR
GS
[0.75 0 0 0.75 0 0] CT
0 0 1 RC
1 LJ
N
67.5 116.5 M
66.736 114.149 L
64.736 112.696 L
62.264 112.696 L
60.264 114.149 L
59.5 116.5 L
60.264 118.851 L
62.264 120.304 L
64.736 120.304 L
66.736 118.851 L
cp
S
GR
GS
[0.75 0 0 0.75 0 0] CT
0 1 0 RC
1 LJ
0.667 LW
N
385 115.802 M
277.667 114.264 L
170.333 112.037 L
63 114.796 L
S
GR
GS
[0.75 0 0 0.75 0 0] CT
0 1 0 RC
1 LJ
N
389.5 115.5 M
388.736 113.149 L
386.736 111.696 L
384.264 111.696 L
382.264 113.149 L
381.5 115.5 L
382.264 117.851 L
384.264 119.304 L
386.736 119.304 L
388.736 117.851 L
cp
S
GR
GS
[0.75 0 0 0.75 0 0] CT
0 1 0 RC
1 LJ
N
281.5 114.5 M
280.736 112.149 L
278.736 110.696 L
276.264 110.696 L
274.264 112.149 L
273.5 114.5 L
274.264 116.851 L
276.264 118.304 L
278.736 118.304 L
280.736 116.851 L
cp
S
GR
GS
[0.75 0 0 0.75 0 0] CT
0 1 0 RC
1 LJ
N
174.5 112.5 M
173.736 110.149 L
171.736 108.696 L
169.264 108.696 L
167.264 110.149 L
166.5 112.5 L
167.264 114.851 L
169.264 116.304 L
171.736 116.304 L
173.736 114.851 L
cp
S
GR
GS
[0.75 0 0 0.75 0 0] CT
0 1 0 RC
1 LJ
N
67.5 114.5 M
66.736 112.149 L
64.736 110.696 L
62.264 110.696 L
60.264 112.149 L
59.5 114.5 L
60.264 116.851 L
62.264 118.304 L
64.736 118.304 L
66.736 116.851 L
cp
S
GR
GS
[0.75 0 0 0.75 0 0] CT
1 0 0 RC
1 LJ
0.667 LW
N
385 374 M
277.667 203.14 L
170.333 211.046 L
63 207.811 L
S
GR
GS
[0.75 0 0 0.75 0 0] CT
1 0 0 RC
1 LJ
N
389.5 373.5 M
388.736 371.149 L
386.736 369.696 L
384.264 369.696 L
382.264 371.149 L
381.5 373.5 L
382.264 375.851 L
384.264 377.304 L
386.736 377.304 L
388.736 375.851 L
cp
S
GR
GS
[0.75 0 0 0.75 0 0] CT
1 0 0 RC
1 LJ
N
281.5 203.5 M
280.736 201.149 L
278.736 199.696 L
276.264 199.696 L
274.264 201.149 L
273.5 203.5 L
274.264 205.851 L
276.264 207.304 L
278.736 207.304 L
280.736 205.851 L
cp
S
GR
GS
[0.75 0 0 0.75 0 0] CT
1 0 0 RC
1 LJ
N
174.5 211.5 M
173.736 209.149 L
171.736 207.696 L
169.264 207.696 L
167.264 209.149 L
166.5 211.5 L
167.264 213.851 L
169.264 215.304 L
171.736 215.304 L
173.736 213.851 L
cp
S
GR
GS
[0.75 0 0 0.75 0 0] CT
1 0 0 RC
1 LJ
N
67.5 207.5 M
66.736 205.149 L
64.736 203.696 L
62.264 203.696 L
60.264 205.149 L
59.5 207.5 L
60.264 209.851 L
62.264 211.304 L
64.736 211.304 L
66.736 209.851 L
cp
S
GR
GS
[0.75 0 0 0.75 0 0] CT
0 1 1 RC
1 LJ
0.667 LW
N
385 275.734 M
277.667 217.765 L
170.333 231.639 L
63 237.344 L
S
GR
GS
[0.75 0 0 0.75 0 0] CT
0 1 1 RC
1 LJ
N
389.5 275.5 M
388.736 273.149 L
386.736 271.696 L
384.264 271.696 L
382.264 273.149 L
381.5 275.5 L
382.264 277.851 L
384.264 279.304 L
386.736 279.304 L
388.736 277.851 L
cp
S
GR
GS
[0.75 0 0 0.75 0 0] CT
0 1 1 RC
1 LJ
N
281.5 217.5 M
280.736 215.149 L
278.736 213.696 L
276.264 213.696 L
274.264 215.149 L
273.5 217.5 L
274.264 219.851 L
276.264 221.304 L
278.736 221.304 L
280.736 219.851 L
cp
S
GR
GS
[0.75 0 0 0.75 0 0] CT
0 1 1 RC
1 LJ
N
174.5 231.5 M
173.736 229.149 L
171.736 227.696 L
169.264 227.696 L
167.264 229.149 L
166.5 231.5 L
167.264 233.851 L
169.264 235.304 L
171.736 235.304 L
173.736 233.851 L
cp
S
GR
GS
[0.75 0 0 0.75 0 0] CT
0 1 1 RC
1 LJ
N
67.5 237.5 M
66.736 235.149 L
64.736 233.696 L
62.264 233.696 L
60.264 235.149 L
59.5 237.5 L
60.264 239.851 L
62.264 241.304 L
64.736 241.304 L
66.736 239.851 L
cp
S
GR
GS
[0.75 0 0 0.75 0 0] CT
1 0 1 RC
1 LJ
0.667 LW
N
385 374 M
277.667 201.932 L
170.333 208.441 L
63 205.474 L
S
GR
GS
[0.75 0 0 0.75 0 0] CT
1 0 1 RC
1 LJ
N
389.5 373.5 M
388.736 371.149 L
386.736 369.696 L
384.264 369.696 L
382.264 371.149 L
381.5 373.5 L
382.264 375.851 L
384.264 377.304 L
386.736 377.304 L
388.736 375.851 L
cp
S
GR
GS
[0.75 0 0 0.75 0 0] CT
1 0 1 RC
1 LJ
N
281.5 201.5 M
280.736 199.149 L
278.736 197.696 L
276.264 197.696 L
274.264 199.149 L
273.5 201.5 L
274.264 203.851 L
276.264 205.304 L
278.736 205.304 L
280.736 203.851 L
cp
S
GR
GS
[0.75 0 0 0.75 0 0] CT
1 0 1 RC
1 LJ
N
174.5 208.5 M
173.736 206.149 L
171.736 204.696 L
169.264 204.696 L
167.264 206.149 L
166.5 208.5 L
167.264 210.851 L
169.264 212.304 L
171.736 212.304 L
173.736 210.851 L
cp
S
GR
GS
[0.75 0 0 0.75 0 0] CT
1 0 1 RC
1 LJ
N
67.5 205.5 M
66.736 203.149 L
64.736 201.696 L
62.264 201.696 L
60.264 203.149 L
59.5 205.5 L
60.264 207.851 L
62.264 209.304 L
64.736 209.304 L
66.736 207.851 L
cp
S
GR
GS
[0.75 0 0 0.75 0 0] CT
1 LJ
0.667 LW
N
385 63.643 M
277.667 40.485 L
170.333 32 L
63 71.163 L
S
GR
GS
[0.75 0 0 0.75 0 0] CT
1 LJ
N
389.5 63.5 M
388.736 61.149 L
386.736 59.696 L
384.264 59.696 L
382.264 61.149 L
381.5 63.5 L
382.264 65.851 L
384.264 67.304 L
386.736 67.304 L
388.736 65.851 L
cp
S
GR
GS
[0.75 0 0 0.75 0 0] CT
1 LJ
N
281.5 40.5 M
280.736 38.149 L
278.736 36.696 L
276.264 36.696 L
274.264 38.149 L
273.5 40.5 L
274.264 42.851 L
276.264 44.304 L
278.736 44.304 L
280.736 42.851 L
cp
S
GR
GS
[0.75 0 0 0.75 0 0] CT
1 LJ
N
174.5 31.5 M
173.736 29.149 L
171.736 27.696 L
169.264 27.696 L
167.264 29.149 L
166.5 31.5 L
167.264 33.851 L
169.264 35.304 L
171.736 35.304 L
173.736 33.851 L
cp
S
GR
GS
[0.75 0 0 0.75 0 0] CT
1 LJ
N
67.5 71.5 M
66.736 69.149 L
64.736 67.696 L
62.264 67.696 L
60.264 69.149 L
59.5 71.5 L
60.264 73.851 L
62.264 75.304 L
64.736 75.304 L
66.736 73.851 L
cp
S
GR
GS
[0.75 0 0 0.75 0 0] CT
0 0 1 RC
[8 3 2 3] 0 setdash
2 LJ
0.667 LW
N
385 69.015 M
277.667 55.099 L
170.333 54.903 L
63 57.359 L
S
GR
GS
[0.75 0 0 0.75 0 0] CT
0 0 1 RC
10.0 ML
N
385.5 74.832 M
389.5 69.5 L
385.5 64.168 L
381.5 69.5 L
cp
S
GR
GS
[0.75 0 0 0.75 0 0] CT
0 0 1 RC
10.0 ML
N
277.5 60.832 M
281.5 55.5 L
277.5 50.168 L
273.5 55.5 L
cp
S
GR
GS
[0.75 0 0 0.75 0 0] CT
0 0 1 RC
10.0 ML
N
170.5 59.832 M
174.5 54.5 L
170.5 49.168 L
166.5 54.5 L
cp
S
GR
GS
[0.75 0 0 0.75 0 0] CT
0 0 1 RC
10.0 ML
N
63.5 62.832 M
67.5 57.5 L
63.5 52.168 L
59.5 57.5 L
cp
S
GR
GS
[0.75 0 0 0.75 0 0] CT
0 1 0 RC
[8 3 2 3] 0 setdash
2 LJ
0.667 LW
N
385 226.189 M
277.667 151.718 L
170.333 149.423 L
63 184.264 L
S
GR
GS
[0.75 0 0 0.75 0 0] CT
0 1 0 RC
10.0 ML
N
385.5 231.832 M
389.5 226.5 L
385.5 221.168 L
381.5 226.5 L
cp
S
GR
GS
[0.75 0 0 0.75 0 0] CT
0 1 0 RC
10.0 ML
N
277.5 156.832 M
281.5 151.5 L
277.5 146.168 L
273.5 151.5 L
cp
S
GR
GS
[0.75 0 0 0.75 0 0] CT
0 1 0 RC
10.0 ML
N
170.5 154.832 M
174.5 149.5 L
170.5 144.168 L
166.5 149.5 L
cp
S
GR
GS
[0.75 0 0 0.75 0 0] CT
0 1 0 RC
10.0 ML
N
63.5 189.832 M
67.5 184.5 L
63.5 179.168 L
59.5 184.5 L
cp
S
GR
GS
[0.75 0 0 0.75 0 0] CT
1 0 0 RC
[8 3 2 3] 0 setdash
2 LJ
0.667 LW
N
385 261.822 M
277.667 128.709 L
170.333 110.251 L
63 130.181 L
S
GR
GS
[0.75 0 0 0.75 0 0] CT
1 0 0 RC
10.0 ML
N
385.5 266.832 M
389.5 261.5 L
385.5 256.168 L
381.5 261.5 L
cp
S
GR
GS
[0.75 0 0 0.75 0 0] CT
1 0 0 RC
10.0 ML
N
277.5 133.832 M
281.5 128.5 L
277.5 123.168 L
273.5 128.5 L
cp
S
GR
GS
[0.75 0 0 0.75 0 0] CT
1 0 0 RC
10.0 ML
N
170.5 115.832 M
174.5 110.5 L
170.5 105.168 L
166.5 110.5 L
cp
S
GR
GS
[0.75 0 0 0.75 0 0] CT
1 0 0 RC
10.0 ML
N
63.5 135.832 M
67.5 130.5 L
63.5 125.168 L
59.5 130.5 L
cp
S
GR
GS
[0.75 0 0 0.75 0 0] CT
0 1 1 RC
[8 3 2 3] 0 setdash
2 LJ
0.667 LW
N
385 162.205 M
277.667 154.498 L
170.333 134.704 L
63 184.323 L
S
GR
GS
[0.75 0 0 0.75 0 0] CT
0 1 1 RC
10.0 ML
N
385.5 167.832 M
389.5 162.5 L
385.5 157.168 L
381.5 162.5 L
cp
S
GR
GS
[0.75 0 0 0.75 0 0] CT
0 1 1 RC
10.0 ML
N
277.5 159.832 M
281.5 154.5 L
277.5 149.168 L
273.5 154.5 L
cp
S
GR
GS
[0.75 0 0 0.75 0 0] CT
0 1 1 RC
10.0 ML
N
170.5 139.832 M
174.5 134.5 L
170.5 129.168 L
166.5 134.5 L
cp
S
GR
GS
[0.75 0 0 0.75 0 0] CT
0 1 1 RC
10.0 ML
N
63.5 189.832 M
67.5 184.5 L
63.5 179.168 L
59.5 184.5 L
cp
S
GR
GS
[0.75 0 0 0.75 0 0] CT
1 GC
N
411 190 M
411 32 L
520 32 L
520 190 L
cp
f
GR
GS
[0.75 0 0 0.75 336 31.10252] CT
/Helvetica 12 F
GS
[1 0 0 1 0 0] CT
0 4.5 moveto 
1 -1 scale
(Tmplsqr) t 
GR
GR
GS
[0.75 0 0 0.75 0 0] CT
0 0 1 RC
1 LJ
0.667 LW
N
415 41.47 M
445 41.47 L
S
GR
GS
[0.75 0 0 0.75 0 0] CT
0 0 1 RC
1 LJ
N
434.5 41.5 M
433.736 39.149 L
431.736 37.696 L
429.264 37.696 L
427.264 39.149 L
426.5 41.5 L
427.264 43.851 L
429.264 45.304 L
431.736 45.304 L
433.736 43.851 L
cp
S
GR
GS
[0.75 0 0 0.75 336 42.69085] CT
/Helvetica 12 F
GS
[1 0 0 1 0 0] CT
0 4.5 moveto 
1 -1 scale
(Tmplsmr) t 
GR
GR
GS
[0.75 0 0 0.75 0 0] CT
0 1 0 RC
1 LJ
0.667 LW
N
415 56.921 M
445 56.921 L
S
GR
GS
[0.75 0 0 0.75 0 0] CT
0 1 0 RC
1 LJ
N
434.5 56.5 M
433.736 54.149 L
431.736 52.696 L
429.264 52.696 L
427.264 54.149 L
426.5 56.5 L
427.264 58.851 L
429.264 60.304 L
431.736 60.304 L
433.736 58.851 L
cp
S
GR
GS
[0.75 0 0 0.75 336 54.27918] CT
/Helvetica 12 F
GS
[1 0 0 1 0 0] CT
0 4.5 moveto 
1 -1 scale
(Tmppcg) t 
GR
GR
GS
[0.75 0 0 0.75 0 0] CT
1 0 0 RC
1 LJ
0.667 LW
N
415 72.372 M
445 72.372 L
S
GR
GS
[0.75 0 0 0.75 0 0] CT
1 0 0 RC
1 LJ
N
434.5 72.5 M
433.736 70.149 L
431.736 68.696 L
429.264 68.696 L
427.264 70.149 L
426.5 72.5 L
427.264 74.851 L
429.264 76.304 L
431.736 76.304 L
433.736 74.851 L
cp
S
GR
GS
[0.75 0 0 0.75 336 65.86751] CT
/Helvetica 12 F
GS
[1 0 0 1 0 0] CT
0 4.5 moveto 
1 -1 scale
(Tmpminres) t 
GR
GR
GS
[0.75 0 0 0.75 0 0] CT
0 1 1 RC
1 LJ
0.667 LW
N
415 87.823 M
445 87.823 L
S
GR
GS
[0.75 0 0 0.75 0 0] CT
0 1 1 RC
1 LJ
N
434.5 87.5 M
433.736 85.149 L
431.736 83.696 L
429.264 83.696 L
427.264 85.149 L
426.5 87.5 L
427.264 89.851 L
429.264 91.304 L
431.736 91.304 L
433.736 89.851 L
cp
S
GR
GS
[0.75 0 0 0.75 336 77.45584] CT
/Helvetica 12 F
GS
[1 0 0 1 0 0] CT
0 4.5 moveto 
1 -1 scale
(Pnb) t 
GR
GR
GS
[0.75 0 0 0.75 0 0] CT
1 0 1 RC
1 LJ
0.667 LW
N
415 103.274 M
445 103.274 L
S
GR
GS
[0.75 0 0 0.75 0 0] CT
1 0 1 RC
1 LJ
N
434.5 103.5 M
433.736 101.149 L
431.736 99.696 L
429.264 99.696 L
427.264 101.149 L
426.5 103.5 L
427.264 105.851 L
429.264 107.304 L
431.736 107.304 L
433.736 105.851 L
cp
S
GR
GS
[0.75 0 0 0.75 336 89.04416] CT
/Helvetica 12 F
GS
[1 0 0 1 0 0] CT
0 4.5 moveto 
1 -1 scale
(Bb) t 
GR
GR
GS
[0.75 0 0 0.75 0 0] CT
1 LJ
0.667 LW
N
415 118.726 M
445 118.726 L
S
GR
GS
[0.75 0 0 0.75 0 0] CT
1 LJ
N
434.5 118.5 M
433.736 116.149 L
431.736 114.696 L
429.264 114.696 L
427.264 116.149 L
426.5 118.5 L
427.264 120.851 L
429.264 122.304 L
431.736 122.304 L
433.736 120.851 L
cp
S
GR
GS
[0.75 0 0 0.75 336 100.63249] CT
/Helvetica 12 F
GS
[1 0 0 1 0 0] CT
0 4.5 moveto 
1 -1 scale
(Spg) t 
GR
GR
GS
[0.75 0 0 0.75 0 0] CT
0 0 1 RC
[8 3 2 3] 0 setdash
2 LJ
0.667 LW
N
415 134.177 M
445 134.177 L
S
GR
GS
[0.75 0 0 0.75 0 0] CT
0 0 1 RC
10.0 ML
N
430.5 139.832 M
434.5 134.5 L
430.5 129.168 L
426.5 134.5 L
cp
S
GR
GS
[0.75 0 0 0.75 336 112.22082] CT
/Helvetica 12 F
GS
[1 0 0 1 0 0] CT
0 4.5 moveto 
1 -1 scale
(Pqn) t 
GR
GR
GS
[0.75 0 0 0.75 0 0] CT
0 1 0 RC
[8 3 2 3] 0 setdash
2 LJ
0.667 LW
N
415 149.628 M
445 149.628 L
S
GR
GS
[0.75 0 0 0.75 0 0] CT
0 1 0 RC
10.0 ML
N
430.5 154.832 M
434.5 149.5 L
430.5 144.168 L
426.5 149.5 L
cp
S
GR
GS
[0.75 0 0 0.75 336 123.80915] CT
/Helvetica 12 F
GS
[1 0 0 1 0 0] CT
0 4.5 moveto 
1 -1 scale
(Lbfgsb) t 
GR
GR
GS
[0.75 0 0 0.75 0 0] CT
1 0 0 RC
[8 3 2 3] 0 setdash
2 LJ
0.667 LW
N
415 165.079 M
445 165.079 L
S
GR
GS
[0.75 0 0 0.75 0 0] CT
1 0 0 RC
10.0 ML
N
430.5 170.832 M
434.5 165.5 L
430.5 160.168 L
426.5 165.5 L
cp
S
GR
GS
[0.75 0 0 0.75 336 135.39748] CT
/Helvetica 12 F
GS
[1 0 0 1 0 0] CT
0 4.5 moveto 
1 -1 scale
(Bcflash) t 
GR
GR
GS
[0.75 0 0 0.75 0 0] CT
0 1 1 RC
[8 3 2 3] 0 setdash
2 LJ
0.667 LW
N
415 180.53 M
445 180.53 L
S
GR
GS
[0.75 0 0 0.75 0 0] CT
0 1 1 RC
10.0 ML
N
430.5 185.832 M
434.5 180.5 L
430.5 175.168 L
426.5 180.5 L
cp
S
GR
GS
[0.75 0 0 0.75 0 0] CT
0.149 GC
10.0 ML
0.667 LW
N
411 190 M
411 32 L
520 32 L
520 190 L
cp
S
GR
%%Trailer
%%Pages: 1
%%EOF
